<?xml version="1.0" encoding="utf-8"?>
<!-- Generator: Adobe Illustrator 15.1.0, SVG Export Plug-In . SVG Version: 6.00 Build 0)  -->
<!DOCTYPE svg PUBLIC "-//W3C//DTD SVG 1.1//EN" "http://www.w3.org/Graphics/SVG/1.1/DTD/svg11.dtd">
<svg version="1.1" id="Objekte_Vordergrund" xmlns="http://www.w3.org/2000/svg" xmlns:xlink="http://www.w3.org/1999/xlink"
	 x="0px" y="0px" width="3040px" height="1280px" viewBox="0 0 3040 1280" enable-background="new 0 0 3040 1280"
	 xml:space="preserve">
<g id="Autos_links">
	<g id="Hinten" display="none">
		<g display="inline">
			<path fill="#EB6807" d="M2175,775.7c0-0.8,0-0.6,0-1c0-0.3,1.4-0.3,1.4,0.1c0,0.8,0,1.2,0,1.9c0,0.3-0.4,0.2-1.2,0.3
				c-0.3,0-0.2-1-0.2-1"/>
			<path fill="#EB6807" d="M2181.1,775.7c0-0.8,0-0.6,0-1c0-0.3,1.4-0.3,1.4,0.1c0,0.8,0,1.2,0,1.9c0,0.3-0.4,0.2-1.2,0.3
				c-0.3,0-0.2-1-0.2-1"/>
			<path fill="#EB6807" d="M2182.9,774.7c0-0.8,0-0.6,0-1c0-0.3,1.4-0.3,1.4,0.1c0,0.8,0,1.2,0,1.9c0,0.3-0.4,0.2-1.2,0.3
				c-0.3,0-0.2-1-0.2-1"/>
			<path fill="#141328" d="M2174.9,776.5c0.4,0.5,7.1,0.2,7.6-0.1c0.7-0.4,0.7-4.5-0.2-7c-0.4-1.1-1.1-1.3-3-1.3
				c-1.5,0-3.1,0-3.5,0.9C2175,770.8,2174.3,773.2,2174.9,776.5"/>
			<path fill="#141328" d="M2182.4,776.4c1.2-0.1,1.4-0.8,1.9-1.1c0.7-0.4,0.2-4.4-0.8-6.8c-0.4-1.1-2.1-1.5-4-1.5
				c-1.5,0-3.3,0.8-3.7,1.7c-0.7,1.8,0.3,3.4,0.9,6.7"/>
			<path fill="#33365B" d="M2175.8,770c0,0-0.3,4.4,0.6,5.9c0.2,0.4,4.2,0.3,4.4,0.2c0.9-0.6,1.1-5.2,1-6.2c0-0.5-0.4-1.3-0.6-1.3
				c-0.4,0-4.1-0.3-4.6,0C2176.1,768.9,2175.8,770,2175.8,770"/>
		</g>
		<g display="inline">
			<path fill="#EB6807" d="M2174.1,787.6c0-1.1,0-0.7,0-1.3c0-0.3,1.8-0.3,1.8,0.1c0,1.1,0,1.6,0,2.6c0,0.4-0.5,0.3-1.5,0.4
				c-0.4,0-0.3-1.4-0.3-1.4"/>
			<path fill="#EB6807" d="M2182,787.6c0-1.1,0-0.7,0-1.3c0-0.3,1.8-0.3,1.8,0.1c0,1.1,0,1.6,0,2.6c0,0.4-0.5,0.3-1.5,0.4
				c-0.4,0-0.3-1.4-0.3-1.4"/>
			<path fill="#EB6807" d="M2184.4,786.3c0-1.1,0-0.7,0-1.3c0-0.3,1.8-0.3,1.8,0.1c0,1.1,0,1.6,0,2.6c0,0.4-0.5,0.3-1.5,0.4
				c-0.4,0-0.3-1.4-0.3-1.4"/>
			<path fill="#141328" d="M2173.9,788.6c0.5,0.6,9.2,0.3,9.8-0.1c0.9-0.6,0.9-6-0.3-9.2c-0.6-1.5-1.4-1.8-3.9-1.8
				c-2,0-4.1,0-4.6,1.2C2174.1,781.1,2173.2,784.3,2173.9,788.6"/>
			<path fill="#141328" d="M2183.8,788.5c1.6-0.2,1.9-1.1,2.5-1.5c0.9-0.6,0.3-5.8-1-9c-0.6-1.5-2.8-2-5.2-2c-2,0-4.3,1-4.8,2.3
				c-0.9,2.4,0.4,4.5,1.2,8.8"/>
			<path fill="#33365B" d="M2175.1,780.1c0,0-0.4,5.8,0.7,7.8c0.3,0.5,5.5,0.4,5.7,0.3c1.2-0.8,1.5-6.9,1.4-8.2
				c-0.1-0.7-0.5-1.8-0.8-1.8c-0.5,0-5.3-0.4-5.9,0C2175.5,778.6,2175.1,780.1,2175.1,780.1"/>
		</g>
		<g display="inline">
			<path fill="#EB6807" d="M2154,789.4c0-1.1,0-0.7,0-1.3c0-0.3,1.8-0.3,1.8,0.1c0,1.1,0,1.6,0,2.5c0,0.4-0.5,0.3-1.5,0.3
				c-0.4,0-0.3-1.3-0.3-1.3"/>
			<path fill="#EB6807" d="M2161.9,789.4c0-1.1,0-0.7,0-1.3c0-0.3,1.8-0.3,1.8,0.1c0,1.1,0,1.6,0,2.5c0,0.4-0.5,0.3-1.5,0.3
				c-0.4,0-0.3-1.3-0.3-1.3"/>
			<path fill="#EB6807" d="M2164.3,788.1c0-1.1,0-0.7,0-1.3c0-0.3,1.8-0.3,1.8,0.1c0,1.1,0,1.6,0,2.5c0,0.4-0.5,0.3-1.5,0.3
				c-0.4,0-0.3-1.3-0.3-1.3"/>
			<path fill="#141328" d="M2153.8,790.4c0.5,0.6,9.2,0.3,9.8-0.1c0.9-0.6,0.9-5.9-0.3-9.1c-0.6-1.5-1.4-1.7-3.9-1.7
				c-2,0-4.1,0-4.6,1.2C2154,783,2153,786.2,2153.8,790.4"/>
			<path fill="#141328" d="M2163.6,790.3c1.6-0.1,1.9-1.1,2.5-1.5c0.9-0.6,0.3-5.7-1-8.8c-0.6-1.5-2.8-2-5.2-2c-2,0-4.3,1-4.8,2.3
				c-0.9,2.3,0.4,4.5,1.2,8.7"/>
			<path fill="#33365B" d="M2155,782c0,0-0.4,5.7,0.7,7.7c0.3,0.5,5.5,0.4,5.7,0.3c1.2-0.8,1.5-6.8,1.4-8.1
				c-0.1-0.7-0.5-1.8-0.8-1.8c-0.5,0-5.3-0.4-5.9,0C2155.4,780.5,2155,782,2155,782"/>
		</g>
		<g display="inline">
			<path fill="#EB6807" d="M2158.7,798.3c0-1.4,0-0.9,0-1.6c0-0.4,2.7-0.4,2.7,0.1c0,1.3,0,2,0,3.2c0,0.5-0.8,0.4-2.3,0.4
				c-0.6,0-0.5-1.7-0.5-1.7"/>
			<path fill="#EB6807" d="M2170.5,798.3c0-1.4,0-0.9,0-1.6c0-0.4,2.7-0.4,2.7,0.1c0,1.3,0,2,0,3.2c0,0.5-0.8,0.4-2.3,0.4
				c-0.6,0-0.5-1.7-0.5-1.7"/>
			<path fill="#EB6807" d="M2174,796.6c0-1.4,0-0.9,0-1.6c0-0.4,2.7-0.4,2.7,0.1c0,1.3,0,2,0,3.2c0,0.5-0.8,0.4-2.3,0.4
				c-0.6,0-0.5-1.7-0.5-1.7"/>
			<path fill="#141328" d="M2158.5,799.5c0.7,0.8,13.6,0.3,14.6-0.2c1.4-0.7,1.4-7.4-0.5-11.4c-0.8-1.8-2.1-2.2-5.7-2.2
				c-3,0-6,0-6.8,1.5C2158.7,790.2,2157.4,794.2,2158.5,799.5"/>
			<path fill="#141328" d="M2173.1,799.3c2.4-0.2,2.8-1.3,3.7-1.8c1.3-0.7,0.4-7.1-1.5-11.1c-0.8-1.8-4.1-2.5-7.7-2.5
				c-3,0-6.4,1.3-7.1,2.8c-1.4,2.9,0.6,5.6,1.7,10.9"/>
			<path fill="#33365B" d="M2160.2,789c0,0-0.6,7.2,1.1,9.7c0.5,0.7,8.2,0.5,8.5,0.3c1.7-0.9,2.2-8.5,2-10.2
				c-0.1-0.8-0.8-2.2-1.2-2.2c-0.8,0-7.9-0.5-8.8,0S2160.2,789,2160.2,789"/>
		</g>
		<g display="inline">
			<path fill="#EB6807" d="M2113.7,797.5c0-1.4,0-0.9,0-1.7c0-0.4,2.7-0.4,2.7,0.1c0,1.4,0,2,0,3.2c0,0.5-0.8,0.4-2.3,0.4
				c-0.6,0-0.5-1.7-0.5-1.7"/>
			<path fill="#EB6807" d="M2125.4,797.5c0-1.4,0-0.9,0-1.7c0-0.4,2.7-0.4,2.7,0.1c0,1.4,0,2,0,3.2c0,0.5-0.8,0.4-2.3,0.4
				c-0.6,0-0.5-1.7-0.5-1.7"/>
			<path fill="#EB6807" d="M2129,795.8c0-1.4,0-0.9,0-1.7c0-0.4,2.7-0.4,2.7,0.1c0,1.4,0,2,0,3.2c0,0.5-0.8,0.4-2.3,0.4
				c-0.6,0-0.5-1.7-0.5-1.7"/>
			<path fill="#141328" d="M2113.4,798.7c0.7,0.8,13.6,0.3,14.6-0.2c1.4-0.7,1.4-7.6-0.5-11.7c-0.8-1.9-2.1-2.2-5.7-2.2
				c-3,0-6,0-6.8,1.6C2113.7,789.2,2112.3,793.3,2113.4,798.7"/>
			<path fill="#141328" d="M2128,798.6c2.4-0.2,2.8-1.4,3.7-1.9c1.3-0.7,0.4-7.3-1.5-11.4c-0.8-1.9-4.1-2.5-7.7-2.5
				c-3,0-6.4,1.3-7.1,2.9c-1.4,3,0.6,5.7,1.7,11.2"/>
			<path fill="#33365B" d="M2115.1,788c0,0-0.6,7.3,1.1,9.9c0.5,0.7,8.2,0.5,8.5,0.3c1.7-1,2.2-8.7,2-10.4c-0.1-0.9-0.8-2.3-1.2-2.3
				c-0.8,0-7.9-0.5-8.8,0S2115.1,788,2115.1,788"/>
		</g>
		<g display="inline">
			<path fill="#EB6807" d="M2125.6,803c0-1.3,0-0.9,0-1.6c0-0.4,2.7-0.4,2.7,0.1c0,1.3,0,1.9,0,3.1c0,0.5-0.8,0.4-2.3,0.4
				c-0.6,0-0.5-1.6-0.5-1.6"/>
			<path fill="#EB6807" d="M2137.3,803c0-1.3,0-0.9,0-1.6c0-0.4,2.7-0.4,2.7,0.1c0,1.3,0,1.9,0,3.1c0,0.5-0.8,0.4-2.3,0.4
				c-0.6,0-0.5-1.6-0.5-1.6"/>
			<path fill="#EB6807" d="M2140.9,801.4c0-1.3,0-0.9,0-1.6c0-0.4,2.7-0.4,2.7,0.1c0,1.3,0,1.9,0,3.1c0,0.5-0.8,0.4-2.3,0.4
				c-0.6,0-0.5-1.6-0.5-1.6"/>
			<path fill="#141328" d="M2125.4,804.2c0.7,0.8,13.6,0.3,14.6-0.2c1.4-0.7,1.4-7.3-0.5-11.2c-0.8-1.8-2.1-2.1-5.7-2.1
				c-3,0-6,0-6.8,1.5C2125.6,795.1,2124.2,799,2125.4,804.2"/>
			<path fill="#141328" d="M2139.9,804c2.4-0.2,2.8-1.3,3.7-1.8c1.3-0.7,0.4-7-1.5-10.9c-0.8-1.8-4.1-2.4-7.7-2.4
				c-3,0-6.4,1.3-7.1,2.8c-1.4,2.9,0.6,5.5,1.7,10.7"/>
			<path fill="#33365B" d="M2127.1,793.9c0,0-0.6,7,1.1,9.5c0.5,0.7,8.2,0.5,8.5,0.3c1.7-0.9,2.2-8.3,2-10c-0.1-0.8-0.8-2.2-1.2-2.2
				c-0.8,0-7.9-0.5-8.8,0C2127.7,792,2127.1,793.9,2127.1,793.9"/>
		</g>
		<g display="inline">
			<path fill="#EB6807" d="M2202.4,768.1c0-0.7,0-0.5,0-0.8c0-0.2,1-0.2,1,0.1c0,0.7,0,1,0,1.6c0,0.3-0.3,0.2-0.8,0.2
				c-0.2,0-0.2-0.8-0.2-0.8"/>
			<path fill="#EB6807" d="M2206.6,768.1c0-0.7,0-0.5,0-0.8c0-0.2,1-0.2,1,0.1c0,0.7,0,1,0,1.6c0,0.3-0.3,0.2-0.8,0.2
				c-0.2,0-0.2-0.8-0.2-0.8"/>
			<path fill="#EB6807" d="M2207.8,767.3c0-0.7,0-0.5,0-0.8c0-0.2,1-0.2,1,0.1c0,0.7,0,1,0,1.6c0,0.3-0.3,0.2-0.8,0.2
				c-0.2,0-0.2-0.8-0.2-0.8"/>
			<path fill="#141328" d="M2202.3,768.7c0.2,0.4,4.8,0.2,5.2-0.1c0.5-0.4,0.5-3.7-0.2-5.7c-0.3-0.9-0.7-1.1-2-1.1
				c-1.1,0-2.1,0-2.4,0.8C2202.4,764.1,2201.9,766.1,2202.3,768.7"/>
			<path fill="#141328" d="M2207.5,768.6c0.8-0.1,1-0.7,1.3-0.9c0.5-0.4,0.1-3.6-0.5-5.6c-0.3-0.9-1.5-1.2-2.7-1.2
				c-1.1,0-2.3,0.6-2.5,1.4c-0.5,1.5,0.2,2.8,0.6,5.5"/>
			<path fill="#33365B" d="M2202.9,763.4c0,0-0.2,3.6,0.4,4.8c0.2,0.3,2.9,0.3,3,0.2c0.6-0.5,0.8-4.2,0.7-5.1c0-0.4-0.3-1.1-0.4-1.1
				c-0.3,0-2.8-0.3-3.1,0S2202.9,763.4,2202.9,763.4"/>
		</g>
		<g display="inline">
			<path fill="#EB6807" d="M2192.2,770.9c0-0.8,0-0.6,0-1c0-0.3,1.2-0.3,1.2,0.1c0,0.8,0,1.2,0,2c0,0.3-0.3,0.2-1,0.3
				c-0.3,0-0.2-1-0.2-1"/>
			<path fill="#EB6807" d="M2197.3,770.9c0-0.8,0-0.6,0-1c0-0.3,1.2-0.3,1.2,0.1c0,0.8,0,1.2,0,2c0,0.3-0.3,0.2-1,0.3
				c-0.3,0-0.2-1-0.2-1"/>
			<path fill="#EB6807" d="M2198.9,769.9c0-0.8,0-0.6,0-1c0-0.3,1.2-0.3,1.2,0.1c0,0.8,0,1.2,0,2c0,0.3-0.3,0.2-1,0.3
				c-0.3,0-0.2-1-0.2-1"/>
			<path fill="#141328" d="M2192.1,771.7c0.3,0.5,6,0.2,6.4-0.1c0.6-0.4,0.6-4.6-0.2-7.1c-0.4-1.1-0.9-1.4-2.5-1.4c-1.3,0-2.7,0-3,1
				C2192.2,765.9,2191.6,768.4,2192.1,771.7"/>
			<path fill="#141328" d="M2198.5,771.6c1-0.1,1.2-0.8,1.6-1.1c0.6-0.4,0.2-4.4-0.6-6.9c-0.4-1.1-1.8-1.5-3.4-1.5
				c-1.3,0-2.8,0.8-3.1,1.8c-0.6,1.8,0.3,3.5,0.8,6.8"/>
			<path fill="#33365B" d="M2192.8,765.2c0,0-0.3,4.4,0.5,6c0.2,0.4,3.6,0.3,3.7,0.2c0.8-0.6,1-5.3,0.9-6.3c0-0.5-0.3-1.4-0.5-1.4
				c-0.3,0-3.5-0.3-3.9,0C2193.1,764,2192.8,765.2,2192.8,765.2"/>
		</g>
	</g>
	<g id="Mitte">
		<g>
			<path fill="#EB6807" d="M2125.5,834.8c0-2.4,0-1.6,0.1-2.8c0-0.7,4.2-0.7,4.1,0.2c0,2.3,0,3.4,0,5.5c0,0.9-1.2,0.7-3.5,0.8
				c-1,0-0.7-2.9-0.7-2.9"/>
			<path fill="#EB6807" d="M2143.5,834.8c0-2.4,0-1.6,0.1-2.8c0-0.7,4.2-0.7,4.1,0.2c0,2.3,0,3.4,0,5.5c0,0.9-1.2,0.7-3.5,0.8
				c-1,0-0.7-2.9-0.7-2.9"/>
			<path fill="#EB6807" d="M2149.1,831.9c0-2.4,0-1.6,0.1-2.8c0-0.7,4.2-0.7,4.1,0.2c0,2.3,0,3.4,0,5.5c0,0.9-1.2,0.7-3.5,0.8
				c-1,0-0.7-2.9-0.7-2.9"/>
			<path fill="#141328" d="M2125.1,836.9c1.1,1.4,21,0.6,22.4-0.3c2.1-1.3,2.1-12.9-0.7-19.8c-1.3-3.2-3.2-3.8-8.8-3.8
				c-4.6,0-9.3-0.1-10.4,2.7C2125.5,820.8,2123.3,827.7,2125.1,836.9"/>
			<path fill="#141328" d="M2147.6,836.6c3.6-0.3,4.3-2.3,5.7-3.2c2.1-1.3,0.6-12.4-2.2-19.3c-1.3-3.2-6.3-4.3-11.9-4.3
				c-4.6,0-9.8,2.2-11,4.9c-2.1,5.1,0.9,9.7,2.7,18.9"/>
			<path fill="#33365B" d="M2127.7,818.7c0,0-1,12.4,1.7,16.8c0.7,1.2,12.6,0.9,13.1,0.6c2.7-1.7,3.3-14.7,3.1-17.7
				c-0.1-1.5-1.2-3.8-1.9-3.8c-1.2,0-12.1-0.9-13.6,0C2128.7,815.4,2127.7,818.7,2127.7,818.7"/>
		</g>
		<g>
			<path fill="#EB6807" d="M2057,831c0-2.3,0-1.5,0.1-2.7c0-0.7,4.2-0.7,4.1,0.2c0,2.3,0,3.4,0,5.3c0,0.9-1.2,0.7-3.5,0.7
				c-1,0-0.7-2.8-0.7-2.8"/>
			<path fill="#EB6807" d="M2075.1,831c0-2.3,0-1.5,0.1-2.7c0-0.7,4.2-0.7,4.1,0.2c0,2.3,0,3.4,0,5.3c0,0.9-1.2,0.7-3.5,0.7
				c-1,0-0.7-2.8-0.7-2.8"/>
			<path fill="#EB6807" d="M2080.6,828.2c0-2.3,0-1.5,0.1-2.7c0-0.7,4.2-0.7,4.1,0.2c0,2.3,0,3.4,0,5.3c0,0.9-1.2,0.7-3.5,0.7
				c-1,0-0.7-2.8-0.7-2.8"/>
			<path fill="#141328" d="M2056.7,833.1c1.1,1.3,21,0.6,22.4-0.3c2.1-1.2,2.1-12.5-0.7-19.2c-1.3-3.1-3.2-3.7-8.8-3.7
				c-4.6,0-9.3,0-10.4,2.6C2057,817.4,2054.9,824.1,2056.7,833.1"/>
			<path fill="#141328" d="M2079.1,832.8c3.6-0.3,4.3-2.2,5.7-3.1c2.1-1.2,0.6-12-2.2-18.8c-1.3-3.1-6.3-4.2-11.9-4.2
				c-4.6,0-9.8,2.2-11,4.8c-2.1,4.9,0.9,9.5,2.7,18.4"/>
			<path fill="#33365B" d="M2059.3,815.3c0,0-1,12.1,1.7,16.3c0.7,1.1,12.6,0.9,13.1,0.6c2.7-1.6,3.3-14.3,3.1-17.2
				c-0.1-1.4-1.2-3.7-1.9-3.7c-1.2,0-12.1-0.9-13.6,0C2060.2,812.2,2059.3,815.3,2059.3,815.3"/>
		</g>
		<g>
			<path fill="#EB6807" d="M2054.9,913c0-4.2,0-2.8,0.1-5c0-1.3,5.9-1.3,5.9,0.3c0,4.1,0,6.1,0,9.8c0,1.6-1.7,1.2-4.9,1.3
				c-1.4,0.1-1-5.2-1-5.2"/>
			<path fill="#EB6807" d="M2080.6,913c0-4.2,0-2.8,0.1-5c0-1.3,5.9-1.3,5.9,0.3c0,4.1,0,6.1,0,9.8c0,1.6-1.7,1.2-4.9,1.3
				c-1.4,0.1-1-5.2-1-5.2"/>
			<path fill="#EB6807" d="M2088.4,907.8c0-4.2,0-2.8,0.1-5c0-1.3,5.9-1.3,5.9,0.3c0,4.1,0,6.1,0,9.8c0,1.6-1.7,1.2-4.9,1.3
				c-1.4,0.1-1-5.2-1-5.2"/>
			<path fill="#141328" d="M2054.4,916.7c1.5,2.4,29.8,1,31.9-0.5c3-2.2,3-22.8-1-35.1c-1.8-5.6-4.6-6.7-12.6-6.7
				c-6.5,0-13.2-0.1-14.8,4.7C2054.9,888.1,2051.9,900.4,2054.4,916.7"/>
			<path fill="#141328" d="M2086.3,916.2c5.2-0.6,6.1-4.1,8.2-5.7c3-2.2,0.8-22-3.2-34.2c-1.8-5.6-9-7.6-16.9-7.6
				c-6.5,0-14,3.9-15.6,8.7c-3,9,1.3,17.3,3.8,33.6"/>
			<path fill="#33365B" d="M2058.1,884.3c0,0-1.4,22.1,2.4,29.8c1,2.1,17.9,1.6,18.6,1c3.8-2.9,4.7-26.1,4.4-31.4
				c-0.2-2.6-1.7-6.8-2.7-6.8c-1.7,0-17.2-1.6-19.3,0S2058.1,884.3,2058.1,884.3"/>
		</g>
		<g>
			<path fill="#EB6807" d="M2082.9,938.3c0-4.2,0-2.8,0.1-5c0-1.3,5.9-1.3,5.9,0.3c0,4.1,0,6.1,0,9.8c0,1.6-1.7,1.2-4.9,1.3
				c-1.4,0.1-1-5.2-1-5.2"/>
			<path fill="#EB6807" d="M2108.6,938.3c0-4.2,0-2.8,0.1-5c0-1.3,5.9-1.3,5.9,0.3c0,4.1,0,6.1,0,9.8c0,1.6-1.7,1.2-4.9,1.3
				c-1.4,0.1-1-5.2-1-5.2"/>
			<path fill="#EB6807" d="M2116.4,933.2c0-4.2,0-2.8,0.1-5c0-1.3,5.9-1.3,5.9,0.3c0,4.1,0,6.1,0,9.8c0,1.6-1.7,1.2-4.9,1.3
				c-1.4,0.1-1-5.2-1-5.2"/>
			<path fill="#141328" d="M2082.4,942.1c1.5,2.4,29.8,1,31.9-0.5c3-2.2,3-22.8-1-35.1c-1.8-5.6-4.6-6.7-12.6-6.7
				c-6.5,0-13.2-0.1-14.8,4.7C2082.9,913.5,2079.9,925.7,2082.4,942.1"/>
			<path fill="#141328" d="M2114.3,941.5c5.2-0.6,6.1-4.1,8.2-5.7c3-2.2,0.8-22-3.2-34.2c-1.8-5.6-9-7.6-16.9-7.6
				c-6.5,0-14,3.9-15.6,8.7c-3,9,1.3,17.3,3.8,33.6"/>
			<path fill="#33365B" d="M2086.1,909.7c0,0-1.4,22.1,2.4,29.8c1,2.1,17.9,1.6,18.6,1c3.8-2.9,4.7-26.1,4.4-31.4
				c-0.2-2.6-1.7-6.8-2.7-6.8c-1.7,0-17.2-1.6-19.3,0S2086.1,909.7,2086.1,909.7"/>
		</g>
		<g>
			<path fill="#EB6807" d="M2108.3,860.3c0-2.7,0-1.8,0.1-3.2c0-0.8,4.6-0.8,4.6,0.2c0,2.6,0,3.9,0,6.2c0,1.1-1.3,0.8-3.9,0.9
				c-1.1,0-0.8-3.3-0.8-3.3"/>
			<path fill="#EB6807" d="M2128.5,860.3c0-2.7,0-1.8,0.1-3.2c0-0.8,4.6-0.8,4.6,0.2c0,2.6,0,3.9,0,6.2c0,1.1-1.3,0.8-3.9,0.9
				c-1.1,0-0.8-3.3-0.8-3.3"/>
			<path fill="#EB6807" d="M2134.7,857c0-2.7,0-1.8,0.1-3.2c0-0.8,4.6-0.8,4.6,0.2c0,2.6,0,3.9,0,6.2c0,1.1-1.3,0.8-3.9,0.9
				c-1.1,0-0.8-3.3-0.8-3.3"/>
			<path fill="#141328" d="M2107.9,862.7c1.2,1.6,23.4,0.7,25.1-0.3c2.3-1.4,2.3-14.6-0.8-22.5c-1.4-3.6-3.6-4.3-9.9-4.3
				c-5.1,0-10.4-0.1-11.6,3C2108.3,844.4,2105.9,852.3,2107.9,862.7"/>
			<path fill="#141328" d="M2133,862.4c4.1-0.4,4.8-2.6,6.4-3.6c2.3-1.4,0.6-14.1-2.5-21.9c-1.4-3.6-7.1-4.9-13.3-4.9
				c-5.1,0-11,2.5-12.3,5.6c-2.4,5.8,1,11.1,3,21.5"/>
			<path fill="#33365B" d="M2110.8,842c0,0-1.1,14.1,1.9,19.1c0.8,1.3,14.1,1,14.6,0.7c3-1.9,3.7-16.7,3.5-20.1
				c-0.1-1.7-1.3-4.3-2.1-4.3c-1.3,0-13.6-1-15.2,0C2111.9,838.3,2110.8,842,2110.8,842"/>
		</g>
	</g>
	<g id="Vorne" display="none">
		<g display="inline">
			<path fill="#EB6807" d="M1976.7,1030.4c0-6.4,0-4.3,0.1-7.7c0.1-2,9.1-2,9.1,0.5c0,6.4,0,9.4,0,15c0,2.5-2.6,1.9-7.6,2.1
				c-2.1,0.1-1.6-8-1.6-8"/>
			<path fill="#EB6807" d="M2016.3,1030.4c0-6.4,0-4.3,0.1-7.7c0.1-2,9.1-2,9.1,0.5c0,6.4,0,9.4,0,15c0,2.5-2.6,1.9-7.6,2.1
				c-2.1,0.1-1.6-8-1.6-8"/>
			<path fill="#EB6807" d="M2028.3,1022.5c0-6.4,0-4.3,0.1-7.7c0.1-2,9.1-2,9.1,0.5c0,6.4,0,9.4,0,15c0,2.5-2.6,1.9-7.6,2.1
				c-2.1,0.1-1.6-8-1.6-8"/>
			<path fill="#141328" d="M1975.9,1036.2c2.4,3.8,45.9,1.6,49.1-0.8c4.6-3.4,4.6-35.2-1.6-54.1c-2.8-8.7-7.1-10.4-19.4-10.4
				c-10,0-20.3-0.1-22.8,7.3C1976.7,992.1,1972,1011,1975.9,1036.2"/>
			<path fill="#141328" d="M2025,1035.4c7.9-0.9,9.4-6.3,12.6-8.7c4.6-3.4,1.3-33.9-4.9-52.8c-2.8-8.7-13.8-11.7-26.1-11.7
				c-10,0-21.5,6.1-24,13.5c-4.6,13.9,2,26.6,5.9,51.8"/>
			<path fill="#33365B" d="M1981.7,986.2c0,0-2.1,34,3.6,45.9c1.6,3.2,27.6,2.4,28.7,1.6c5.8-4.5,7.3-40.3,6.8-48.3
				c-0.3-4-2.6-10.5-4.2-10.5c-2.6,0-26.6-2.4-29.7,0S1981.7,986.2,1981.7,986.2"/>
		</g>
		<g display="inline">
			<path fill="#EB6807" d="M2034,1098.3c0-9.1,0.1-6.1,0.2-10.9c0.1-2.9,12.8-2.9,12.8,0.7c-0.1,8.9,0.1,13.3,0,21.1
				c0,3.6-3.6,2.6-10.7,2.9c-2.9,0.1-2.2-11.2-2.2-11.2"/>
			<path fill="#EB6807" d="M2089.6,1098.3c0-9.1,0.1-6.1,0.2-10.9c0.1-2.9,12.8-2.9,12.8,0.7c-0.1,8.9,0.1,13.3,0,21.1
				c0,3.6-3.6,2.6-10.7,2.9c-2.9,0.1-2.2-11.2-2.2-11.2"/>
			<path fill="#EB6807" d="M2106.6,1087.1c0-9.1,0.1-6.1,0.2-10.9c0.1-2.9,12.8-2.9,12.8,0.7c-0.1,8.9,0.1,13.3,0,21.1
				c0,3.6-3.6,2.6-10.7,2.9c-2.9,0.1-2.2-11.2-2.2-11.2"/>
			<path fill="#141328" d="M2032.9,1106.3c3.3,5.3,64.5,2.3,69.1-1.1c6.4-4.8,6.4-49.5-2.2-76c-4-12.2-10-14.6-27.2-14.6
				c-14.1,0-28.6-0.2-32.1,10.2C2034,1044.3,2027.4,1071,2032.9,1106.3"/>
			<path fill="#141328" d="M2102,1105.2c11.2-1.3,13.2-8.9,17.7-12.3c6.4-4.8,1.8-47.6-6.9-74.2c-4-12.2-19.4-16.4-36.7-16.4
				c-14.1,0-30.3,8.5-33.8,19c-6.5,19.5,2.8,37.4,8.2,72.8"/>
			<path fill="#33365B" d="M2041,1036.1c0,0-3,47.8,5.1,64.5c2.2,4.5,38.8,3.4,40.3,2.3c8.2-6.3,10.3-56.6,9.5-67.9
				c-0.4-5.6-3.7-14.7-5.9-14.7c-3.7,0-37.4-3.4-41.8,0C2043.9,1023.7,2041,1036.1,2041,1036.1"/>
		</g>
		<g display="inline">
			<path fill="#EB6807" d="M1913.5,1150.6c0-11,0.1-7.3,0.2-13.1c0.1-3.5,15.5-3.5,15.5,0.9c-0.1,10.8,0.1,16,0,25.6
				c-0.1,4.3-4.4,3.2-13,3.5c-3.6,0.1-2.7-13.6-2.7-13.6"/>
			<path fill="#EB6807" d="M1980.9,1150.6c0-11,0.1-7.3,0.2-13.1c0.1-3.5,15.5-3.5,15.5,0.9c-0.1,10.8,0.1,16,0,25.6
				c-0.1,4.3-4.4,3.2-13,3.5c-3.6,0.1-2.7-13.6-2.7-13.6"/>
			<path fill="#EB6807" d="M2001.4,1137.1c0-11,0.1-7.3,0.2-13.1c0.1-3.5,15.5-3.5,15.5,0.9c-0.1,10.8,0.1,16,0,25.6
				c-0.1,4.3-4.4,3.2-13,3.5c-3.6,0.1-2.7-13.6-2.7-13.6"/>
			<path fill="#141328" d="M1912.2,1160.4c4,6.4,78.1,2.7,83.6-1.4c7.8-5.8,7.8-59.9-2.7-92c-4.8-14.7-12.1-17.6-32.9-17.6
				c-17.1,0-34.6-0.2-38.8,12.4C1913.5,1085.4,1905.6,1117.6,1912.2,1160.4"/>
			<path fill="#141328" d="M1995.8,1159c13.5-1.5,15.9-10.8,21.4-14.9c7.8-5.8,2.2-57.6-8.3-89.8c-4.8-14.7-23.5-19.9-44.4-19.9
				c-17.1,0-36.6,10.3-40.9,22.9c-7.9,23.6,3.3,45.3,10,88.1"/>
			<path fill="#33365B" d="M1922,1075.4c0,0-3.6,57.9,6.2,78.1c2.7,5.5,47,4.1,48.8,2.7c9.9-7.7,12.4-68.5,11.5-82.2
				c-0.4-6.8-4.4-17.8-7.1-17.8c-4.4,0-45.2-4.1-50.6,0C1925.5,1060.3,1922,1075.4,1922,1075.4"/>
		</g>
	</g>
</g>
</svg>
