<?xml version="1.0" encoding="utf-8"?>
<!-- Generator: Adobe Illustrator 22.1.0, SVG Export Plug-In . SVG Version: 6.00 Build 0)  -->
<svg version="1.1" xmlns="http://www.w3.org/2000/svg" xmlns:xlink="http://www.w3.org/1999/xlink" x="0px" y="0px"
	 viewBox="0 0 1920 1080" style="enable-background:new 0 0 1920 1080;" xml:space="preserve">
<style type="text/css">
	.st0{fill:#00AEA5;}
	.st1{fill:#0F1029;}
	.st2{fill:#33365B;}
</style>
<g id="Straße_02">
	<g>
		
			<ellipse transform="matrix(0.7071 -0.7071 0.7071 0.7071 -389.2783 808.5353)" class="st0" cx="781.3" cy="874.2" rx="7.2" ry="5.7"/>
		
			<ellipse transform="matrix(0.7071 -0.7071 0.7071 0.7071 -364.0193 827.9531)" class="st0" cx="817.4" cy="853.4" rx="7.2" ry="5.7"/>
		<path class="st1" d="M767.6,804.2c-13.1,8-30.1,14.1-33.2,29.7c0,0-5,28.3,8.4,36.2s21.7,12.5,24.7,11.7
			c8.6-2.4,1.7-9.9,10.6-14.9c8-4.4,11.3,4.6,13.1,3.6s15.3-7.6,17.7-10c1.8-1.8-1.8-10.8,6.2-14.5c6.6-3,9.6,2.6,10.4,5.8
			c0.8,2.8,2.4-2.3,2.4-3.8s-1.3-35.6-5.4-38.6c-6.6-4.8-20.8-13.8-28.9-13.3C782.7,797,775.2,799.6,767.6,804.2z"/>
		<path class="st2" d="M738.3,861.8c0,0-6.6-25,3-35.7c8.6-9.5,27,1.9,29.5,4.2c2.4,2.2-1.6,4.2-2.2,16.3c-0.2,4.1-0.3,24.9-1,28.3
			c-1.4,6.6-10,1-17.5-3C744.9,869.1,740.9,867.5,738.3,861.8z"/>
		<path class="st2" d="M787.4,856.4c-3-29.9,1.1-30.4,5.6-32.7s7.8-3.6,8.8-3.9c0.6-0.1,4.8-4,6.3,25.1c0,0,1.2,12.5-2.4,15.4
			c-2.6,2.1-6.3,4.1-8.9,5.4c-4.2,2-7.7,2-8.5-3.7C787.4,856.4,787.4,856.4,787.4,856.4z"/>
	</g>
	<g>
		
			<ellipse transform="matrix(0.7071 -0.7071 0.7071 0.7071 -492.559 731.1937)" class="st0" cx="636.3" cy="960.2" rx="7.2" ry="5.7"/>
		
			<ellipse transform="matrix(0.7071 -0.7071 0.7071 0.7071 -467.3 750.6114)" class="st0" cx="672.4" cy="939.4" rx="7.2" ry="5.7"/>
		<path class="st1" d="M622.6,890.2c-13.1,8-30.1,14.1-33.2,29.7c0,0-5,28.3,8.4,36.2s21.7,12.5,24.7,11.7
			c8.6-2.4,1.7-9.9,10.6-14.9c8-4.4,11.3,4.6,13.1,3.6s15.3-7.6,17.7-10c1.8-1.8-1.8-10.8,6.2-14.5c6.6-3,9.6,2.6,10.4,5.8
			c0.8,2.8,2.4-2.3,2.4-3.8s-1.3-35.6-5.4-38.6c-6.6-4.8-20.8-13.8-28.9-13.3C637.7,883,630.2,885.6,622.6,890.2z"/>
		<path class="st2" d="M593.3,947.8c0,0-6.6-25,3-35.7c8.6-9.5,27,1.9,29.5,4.2c2.4,2.2-1.6,4.2-2.2,16.3c-0.2,4.1-0.3,24.9-1,28.3
			c-1.4,6.6-10,1-17.5-3C599.9,955.1,595.9,953.5,593.3,947.8z"/>
		<path class="st2" d="M642.4,942.4c-3-29.9,1.1-30.4,5.6-32.7s7.8-3.6,8.8-3.9c0.6-0.1,4.8-4,6.3,25.1c0,0,1.2,12.5-2.4,15.4
			c-2.6,2.1-6.3,4.1-8.9,5.4c-4.2,2-7.7,2-8.5-3.7C642.4,942.4,642.4,942.4,642.4,942.4z"/>
	</g>
	<g>
		<path class="st2" d="M734.9,886c0,0,8.4,0.8,6.6,1.4c-3.8,1.2-8.8,6-6.6,11.3c1.2,2.8-0.8,2.4-5.3,2.4
			C725.2,901,734.9,886,734.9,886z"/>
		<path class="st1" d="M685.4,912.4c-5.2-2.6-0.8-30.7,10.4-39.4c11.3-8.6,19.8-11.4,23.3-10.4c5.8,1.6,20.5,7.3,19.9,10.4
			c-1,5.2-7.8,28.5-11.9,31.5s-5,3.7-6.6,2.2c-2.4-2.2-4.6-6.2-10.6-2.2c-3.8,2.5-3.5,8.8-6.2,11.3
			C697.5,921.2,690.6,915,685.4,912.4z"/>
		
			<ellipse transform="matrix(0.7071 -0.7071 0.7071 0.7071 -435.169 771.1816)" class="st0" cx="713.3" cy="910.9" rx="6.7" ry="5.3"/>
		
			<ellipse transform="matrix(0.7071 -0.7071 0.7071 0.7071 -415.6238 786.2214)" class="st0" cx="741.2" cy="894.8" rx="6.7" ry="5.3"/>
		<path class="st2" d="M685.7,891.8c0,0,0.5,8.4,6.9,10.2c6.4,1.8,8.5,2.6,15-5.7c2.7-3.5,12.4-5.5,16.3-11.9
			c2.8-4.6,4.1-12,1.1-13.6c-4.2-2.1-9-4.6-17.1-4.4S685.7,877.9,685.7,891.8z"/>
	</g>
	<g>
		
			<ellipse transform="matrix(0.7071 -0.7071 0.7071 0.7071 -549.2245 688.3911)" class="st0" cx="556.3" cy="1007.2" rx="7.2" ry="5.7"/>
		
			<ellipse transform="matrix(0.7071 -0.7071 0.7071 0.7071 -523.9655 707.8088)" class="st0" cx="592.4" cy="986.4" rx="7.2" ry="5.7"/>
		<path class="st1" d="M542.6,937.2c-13.1,8-30.1,14.1-33.2,29.7c0,0-5,28.3,8.4,36.2s21.7,12.5,24.7,11.7
			c8.6-2.4,1.7-9.9,10.6-14.9c8-4.4,11.3,4.6,13.1,3.6s15.3-7.6,17.7-10c1.8-1.8-1.8-10.8,6.2-14.5c6.6-3,9.6,2.6,10.4,5.8
			c0.8,2.8,2.4-2.3,2.4-3.8s-1.3-35.6-5.4-38.6c-6.6-4.8-20.8-13.8-28.9-13.3C557.7,930,550.2,932.6,542.6,937.2z"/>
		<path class="st2" d="M513.3,994.8c0,0-6.6-25,3-35.7c8.6-9.5,27,1.9,29.5,4.2c2.4,2.2-1.6,4.2-2.2,16.3c-0.2,4.1-0.3,24.9-1,28.3
			c-1.4,6.6-10,1-17.5-3C519.9,1002.1,515.9,1000.5,513.3,994.8z"/>
		<path class="st2" d="M562.4,989.4c-3-29.9,1.1-30.4,5.6-32.7s7.8-3.6,8.8-3.9c0.6-0.1,4.8-4,6.3,25.1c0,0,1.2,12.5-2.4,15.4
			c-2.6,2.1-6.3,4.1-8.9,5.4c-4.2,2-7.7,2-8.5-3.7C562.4,989.4,562.4,989.4,562.4,989.4z"/>
	</g>
	<g>
		<path class="st2" d="M509.9,1019c0,0,8.4,0.8,6.6,1.4c-3.8,1.2-8.8,6-6.6,11.3c1.2,2.8-0.8,2.4-5.3,2.4
			C500.2,1034,509.9,1019,509.9,1019z"/>
		<path class="st1" d="M460.4,1045.4c-5.2-2.6-0.8-30.7,10.4-39.4c11.3-8.6,19.8-11.4,23.3-10.4c5.8,1.6,20.5,7.3,19.9,10.4
			c-1,5.2-7.8,28.5-11.9,31.5c-4,3-5,3.7-6.6,2.2c-2.4-2.2-4.6-6.2-10.6-2.2c-3.8,2.5-3.5,8.8-6.2,11.3
			C472.5,1054.2,465.6,1048,460.4,1045.4z"/>
		
			<ellipse transform="matrix(0.7071 -0.7071 0.7071 0.7071 -595.1152 651.0374)" class="st0" cx="488.3" cy="1043.9" rx="6.7" ry="5.3"/>
		
			<ellipse transform="matrix(0.7071 -0.7071 0.7071 0.7071 -575.5699 666.0772)" class="st0" cx="516.2" cy="1027.8" rx="6.7" ry="5.3"/>
		<path class="st2" d="M460.7,1024.8c0,0,0.5,8.4,6.9,10.2c6.4,1.8,8.5,2.6,15-5.7c2.7-3.5,12.4-5.5,16.3-11.9
			c2.8-4.6,4.1-12,1.1-13.6c-4.2-2.1-9-4.6-17.1-4.4S460.7,1010.9,460.7,1024.8z"/>
	</g>
	<g>
		<path class="st2" d="M329.9,1127c0,0,8.4,0.8,6.6,1.4c-3.8,1.2-8.8,6-6.6,11.3c1.2,2.8-0.8,2.4-5.3,2.4
			C320.2,1142,329.9,1127,329.9,1127z"/>
		<path class="st1" d="M280.4,1153.4c-5.2-2.6-0.8-30.7,10.4-39.4c11.3-8.6,19.8-11.4,23.3-10.4c5.8,1.6,20.5,7.3,19.9,10.4
			c-1,5.2-7.8,28.5-11.9,31.5c-4,3-5,3.7-6.6,2.2c-2.4-2.2-4.6-6.2-10.6-2.2c-3.8,2.5-3.5,8.8-6.2,11.3
			C292.5,1162.2,285.6,1156,280.4,1153.4z"/>
		
			<ellipse transform="matrix(0.7071 -0.7071 0.7071 0.7071 -724.2035 555.3906)" class="st0" cx="308.3" cy="1151.9" rx="6.7" ry="5.3"/>
		
			<ellipse transform="matrix(0.7071 -0.7071 0.7071 0.7071 -704.6583 570.4304)" class="st0" cx="336.2" cy="1135.8" rx="6.7" ry="5.3"/>
		<path class="st2" d="M280.7,1132.8c0,0,0.5,8.4,6.9,10.2c6.4,1.8,8.5,2.6,15-5.7c2.7-3.5,12.4-5.5,16.3-11.9
			c2.8-4.6,4.1-12,1.1-13.6c-4.2-2.1-9-4.6-17.1-4.4S280.7,1118.9,280.7,1132.8z"/>
	</g>
	<g>
		<path class="st2" d="M257.9,1168c0,0,8.4,0.8,6.6,1.4c-3.8,1.2-8.8,6-6.6,11.3c1.2,2.8-0.8,2.4-5.3,2.4
			C248.2,1183,257.9,1168,257.9,1168z"/>
		<path class="st1" d="M208.4,1194.4c-5.2-2.6-0.8-30.7,10.4-39.4s19.8-11.4,23.3-10.4c5.8,1.6,20.5,7.3,19.9,10.4
			c-1,5.2-7.8,28.5-11.9,31.5c-4,3-5,3.7-6.6,2.2c-2.4-2.2-4.6-6.2-10.6-2.2c-3.8,2.5-3.5,8.8-6.2,11.3
			C220.5,1203.2,213.6,1197,208.4,1194.4z"/>
		
			<ellipse transform="matrix(0.7071 -0.7071 0.7071 0.7071 -774.2832 516.4875)" class="st0" cx="236.3" cy="1192.9" rx="6.7" ry="5.3"/>
		
			<ellipse transform="matrix(0.7071 -0.7071 0.7071 0.7071 -754.738 531.5274)" class="st0" cx="264.2" cy="1176.8" rx="6.7" ry="5.3"/>
		<path class="st2" d="M208.7,1173.8c0,0,0.5,8.4,6.9,10.2c6.4,1.8,8.5,2.6,15-5.7c2.7-3.5,12.4-5.5,16.3-11.9
			c2.8-4.6,4.1-12,1.1-13.6c-4.2-2.1-9-4.6-17.1-4.4S208.7,1159.9,208.7,1173.8z"/>
	</g>
	<g>
		<path class="st1" d="M328.5,1103.6c0,0-1.1-37.7,16.8-48.3c17.9-10.6,54.2-31.5,54.2-31.5s12.1-7.4,14.7-8.2c0,0,7.4-3.4,22.5,3.8
			c15.1,7.2,22.9,19.9,23.7,49l-7.6,4.4c0,0-3.5-7.1-12.4-2.5c-6.5,3.4-4.5,12.4-4.5,12.4l-46,26.5c0,0-4.3-9.9-14.2-1.9
			c-4.9,4-4.1,12.6-4.1,12.6l-7.4,4.2L328.5,1103.6z"/>
		<path class="st2" d="M330.4,1101.5l33,19.3c0,0,2-33.2,11.3-43.8c9.2-10.5-19.8-19.3-23.8-18.5
			C343.9,1059.9,331,1070.6,330.4,1101.5z"/>
		<path class="st2" d="M391.9,1105.9l41.8-24.1c0,0,4.8-33.4-8.2-42.6c-9.7-6.9-27-14.8-31.1-12.7c-4.1,2.2-37.9,22.2-37.9,22.2
			s24.8,9.9,29.1,14.6C389.9,1068.1,393.1,1073.8,391.9,1105.9z"/>
		<path class="st2" d="M423.3,1014.7c0,0-13.7,5-7.4,7.8c6.2,2.8,20,10.2,22.5,9.2c4.4-1.6,14.3-1.8,17.2,7.4
			C455.6,1039.2,449.8,1018.1,423.3,1014.7z"/>
		
			<ellipse transform="matrix(0.8081 -0.589 0.589 0.8081 -549.2526 468.4772)" class="st0" cx="444.4" cy="1077.3" rx="8.5" ry="6.7"/>
		
			<ellipse transform="matrix(0.8081 -0.589 0.589 0.8081 -582.67 438.1584)" class="st0" cx="381.2" cy="1113.4" rx="8.4" ry="6.7"/>
	</g>
	<g>
		<path class="st1" d="M820.5,814.6c0,0-1.1-37.7,16.8-48.3c17.9-10.6,54.2-31.5,54.2-31.5s12.1-7.4,14.7-8.2c0,0,7.4-3.4,22.5,3.8
			c15.1,7.2,22.9,19.9,23.7,49l-7.6,4.4c0,0-3.5-7.1-12.4-2.5c-6.5,3.4-4.5,12.4-4.5,12.4l-46,26.5c0,0-4.3-9.9-14.2-1.9
			c-4.9,4-4.1,12.6-4.1,12.6l-7.4,4.2L820.5,814.6z"/>
		<path class="st2" d="M822.4,812.5l33,19.3c0,0,2-33.2,11.3-43.8c9.2-10.5-19.8-19.3-23.8-18.5C835.9,770.9,823,781.6,822.4,812.5z
			"/>
		<path class="st2" d="M883.9,816.9l41.8-24.1c0,0,4.8-33.4-8.2-42.6c-9.7-6.9-27-14.8-31.1-12.7c-4.1,2.2-37.9,22.2-37.9,22.2
			s24.8,9.9,29.1,14.6C881.9,779.1,885.1,784.8,883.9,816.9z"/>
		<path class="st2" d="M915.3,725.7c0,0-13.7,5-7.4,7.8s20,10.2,22.5,9.2c4.4-1.6,14.3-1.8,17.2,7.4
			C947.6,750.2,941.8,729.1,915.3,725.7z"/>
		
			<ellipse transform="matrix(0.8081 -0.589 0.589 0.8081 -284.6319 702.8161)" class="st0" cx="936.4" cy="788.3" rx="8.5" ry="6.7"/>
		
			<ellipse transform="matrix(0.8081 -0.589 0.589 0.8081 -318.0494 672.4973)" class="st0" cx="873.2" cy="824.4" rx="8.4" ry="6.7"/>
	</g>
	<g>
		<path class="st1" d="M939.5,745.6c0,0-1.1-37.7,16.8-48.3c17.9-10.6,54.2-31.5,54.2-31.5s12.1-7.4,14.7-8.2c0,0,7.4-3.4,22.5,3.8
			c15.1,7.2,22.9,19.9,23.7,49l-7.6,4.4c0,0-3.5-7.1-12.4-2.5c-6.5,3.4-4.5,12.4-4.5,12.4l-46,26.5c0,0-4.3-9.9-14.2-1.9
			c-4.9,4-4.1,12.6-4.1,12.6l-7.4,4.2L939.5,745.6z"/>
		<path class="st2" d="M941.4,743.5l33,19.3c0,0,2-33.2,11.3-43.8c9.2-10.5-19.8-19.3-23.8-18.5C954.9,701.9,942,712.6,941.4,743.5z
			"/>
		<path class="st2" d="M1002.9,747.9l41.8-24.1c0,0,4.8-33.4-8.2-42.6c-9.7-6.9-27-14.8-31.1-12.7c-4.1,2.2-37.9,22.2-37.9,22.2
			s24.8,9.9,29.1,14.6C1000.9,710.1,1004.1,715.8,1002.9,747.9z"/>
		<path class="st2" d="M1034.3,656.7c0,0-13.7,5-7.4,7.8s20,10.2,22.5,9.2c4.4-1.6,14.3-1.8,17.2,7.4
			C1066.6,681.2,1060.8,660.1,1034.3,656.7z"/>
		
			<ellipse transform="matrix(0.8081 -0.589 0.589 0.8081 -221.1585 759.6684)" class="st0" cx="1055.4" cy="719.3" rx="8.5" ry="6.7"/>
		
			<ellipse transform="matrix(0.8081 -0.589 0.589 0.8081 -254.576 729.3495)" class="st0" cx="992.2" cy="755.4" rx="8.4" ry="6.7"/>
	</g>
	<g>
		
			<ellipse transform="matrix(0.7071 -0.7071 0.7071 0.7071 225.0419 1275.6356)" class="st0" cx="1652.3" cy="366.2" rx="7.2" ry="5.7"/>
		
			<ellipse transform="matrix(0.7071 -0.7071 0.7071 0.7071 250.3009 1295.0533)" class="st0" cx="1688.4" cy="345.4" rx="7.2" ry="5.7"/>
		<path class="st1" d="M1638.6,296.2c-13.1,8-30.1,14.1-33.2,29.7c0,0-5,28.3,8.4,36.2c13.5,7.8,21.7,12.5,24.7,11.7
			c8.6-2.4,1.7-9.9,10.6-14.9c8-4.4,11.3,4.6,13.1,3.6s15.3-7.6,17.7-10c1.8-1.8-1.8-10.8,6.2-14.5c6.6-3,9.6,2.6,10.4,5.8
			c0.8,2.8,2.4-2.3,2.4-3.8s-1.3-35.6-5.4-38.6c-6.6-4.8-20.8-13.8-28.9-13.3C1653.7,289,1646.2,291.6,1638.6,296.2z"/>
		<path class="st2" d="M1609.3,353.8c0,0-6.6-25,3-35.7c8.6-9.5,27,1.9,29.5,4.2c2.4,2.2-1.6,4.2-2.2,16.3c-0.2,4.1-0.3,24.9-1,28.3
			c-1.4,6.6-10,1-17.5-3C1615.9,361.1,1611.9,359.5,1609.3,353.8z"/>
		<path class="st2" d="M1658.4,348.4c-3-29.9,1.1-30.4,5.6-32.7s7.8-3.6,8.8-3.9c0.6-0.1,4.8-4,6.3,25.1c0,0,1.2,12.5-2.4,15.4
			c-2.6,2.1-6.3,4.1-8.9,5.4c-4.2,2-7.7,2-8.5-3.7S1658.4,348.4,1658.4,348.4z"/>
	</g>
	<g>
		
			<ellipse transform="matrix(0.7071 -0.7071 0.7071 0.7071 452.6328 1453.0885)" class="st0" cx="1980.3" cy="180.2" rx="7.2" ry="5.7"/>
		
			<ellipse transform="matrix(0.7071 -0.7071 0.7071 0.7071 477.8918 1472.5062)" class="st0" cx="2016.4" cy="159.4" rx="7.2" ry="5.7"/>
		<path class="st1" d="M1966.6,110.2c-13.1,8-30.1,14.1-33.2,29.7c0,0-5,28.3,8.4,36.2c13.5,7.8,21.7,12.5,24.7,11.7
			c8.6-2.4,1.7-9.9,10.6-14.9c8-4.4,11.3,4.6,13.1,3.6s15.3-7.6,17.7-10c1.8-1.8-1.8-10.8,6.2-14.5c6.6-3,9.6,2.6,10.4,5.8
			c0.8,2.8,2.4-2.3,2.4-3.8s-1.3-35.6-5.4-38.6c-6.6-4.8-20.8-13.8-28.9-13.3C1981.7,103,1974.2,105.6,1966.6,110.2z"/>
		<path class="st2" d="M1937.3,167.8c0,0-6.6-25,3-35.7c8.6-9.5,27,1.9,29.5,4.2c2.4,2.2-1.6,4.2-2.2,16.3c-0.2,4.1-0.3,24.9-1,28.3
			c-1.4,6.6-10,1-17.5-3C1943.9,175.1,1939.9,173.5,1937.3,167.8z"/>
		<path class="st2" d="M1986.4,162.4c-3-29.9,1.1-30.4,5.6-32.7c4.6-2.3,7.8-3.6,8.8-3.9c0.6-0.1,4.8-4,6.3,25.1
			c0,0,1.2,12.5-2.4,15.4c-2.6,2.1-6.3,4.1-8.9,5.4c-4.2,2-7.7,2-8.5-3.7C1986.4,162.4,1986.4,162.4,1986.4,162.4z"/>
	</g>
	<g>
		<path class="st2" d="M1200.9,619c0,0,8.4,0.8,6.6,1.4c-3.8,1.2-8.8,6-6.6,11.3c1.2,2.8-0.8,2.4-5.3,2.4
			C1191.2,634,1200.9,619,1200.9,619z"/>
		<path class="st1" d="M1151.4,645.4c-5.2-2.6-0.8-30.7,10.4-39.4c11.3-8.6,19.8-11.4,23.3-10.4c5.8,1.6,20.5,7.3,19.9,10.4
			c-1,5.2-7.8,28.5-11.9,31.5s-5,3.7-6.6,2.2c-2.4-2.2-4.6-6.2-10.6-2.2c-3.8,2.5-3.5,8.8-6.2,11.3
			C1163.5,654.2,1156.6,648,1151.4,645.4z"/>
		
			<ellipse transform="matrix(0.7071 -0.7071 0.7071 0.7071 -109.8833 1022.4908)" class="st0" cx="1179.3" cy="643.9" rx="6.7" ry="5.3"/>
		
			<ellipse transform="matrix(0.7071 -0.7071 0.7071 0.7071 -90.338 1037.5306)" class="st0" cx="1207.2" cy="627.8" rx="6.7" ry="5.3"/>
		<path class="st2" d="M1151.7,624.8c0,0,0.5,8.4,6.9,10.2c6.4,1.8,8.5,2.6,15-5.7c2.7-3.5,12.4-5.5,16.3-11.9
			c2.8-4.6,4.1-12,1.1-13.6c-4.2-2.1-9-4.6-17.1-4.4C1165.9,599.6,1151.7,610.9,1151.7,624.8z"/>
	</g>
	<g>
		<path class="st2" d="M1128.9,660c0,0,8.4,0.8,6.6,1.4c-3.8,1.2-8.8,6-6.6,11.3c1.2,2.8-0.8,2.4-5.3,2.4
			C1119.2,675,1128.9,660,1128.9,660z"/>
		<path class="st1" d="M1079.4,686.4c-5.2-2.6-0.8-30.7,10.4-39.4c11.3-8.6,19.8-11.4,23.3-10.4c5.8,1.6,20.5,7.3,19.9,10.4
			c-1,5.2-7.8,28.5-11.9,31.5s-5,3.7-6.6,2.2c-2.4-2.2-4.6-6.2-10.6-2.2c-3.8,2.5-3.5,8.8-6.2,11.3
			C1091.5,695.2,1084.6,689,1079.4,686.4z"/>
		
			<ellipse transform="matrix(0.7071 -0.7071 0.7071 0.7071 -159.963 983.5878)" class="st0" cx="1107.3" cy="684.9" rx="6.7" ry="5.3"/>
		
			<ellipse transform="matrix(0.7071 -0.7071 0.7071 0.7071 -140.4177 998.6276)" class="st0" cx="1135.2" cy="668.8" rx="6.7" ry="5.3"/>
		<path class="st2" d="M1079.7,665.8c0,0,0.5,8.4,6.9,10.2c6.4,1.8,8.5,2.6,15-5.7c2.7-3.5,12.4-5.5,16.3-11.9
			c2.8-4.6,4.1-12,1.1-13.6c-4.2-2.1-9-4.6-17.1-4.4C1093.9,640.6,1079.7,651.9,1079.7,665.8z"/>
	</g>
	<g>
		<path class="st1" d="M1691.5,306.6c0,0-1.1-37.7,16.8-48.3c17.9-10.6,54.2-31.5,54.2-31.5s12.1-7.4,14.7-8.2c0,0,7.4-3.4,22.5,3.8
			c15.1,7.2,22.9,19.9,23.7,49l-7.6,4.4c0,0-3.5-7.1-12.4-2.5c-6.5,3.4-4.5,12.4-4.5,12.4l-46,26.5c0,0-4.3-9.9-14.2-1.9
			c-4.9,4-4.1,12.6-4.1,12.6l-7.4,4.2L1691.5,306.6z"/>
		<path class="st2" d="M1693.4,304.5l33,19.3c0,0,2-33.2,11.3-43.8c9.2-10.5-19.8-19.3-23.8-18.5
			C1706.9,262.9,1694,273.6,1693.4,304.5z"/>
		<path class="st2" d="M1754.9,308.9l41.8-24.1c0,0,4.8-33.4-8.2-42.6c-9.7-6.9-27-14.8-31.1-12.7c-4.1,2.2-37.9,22.2-37.9,22.2
			s24.8,9.9,29.1,14.6C1752.9,271.1,1756.1,276.8,1754.9,308.9z"/>
		<path class="st2" d="M1786.3,217.7c0,0-13.7,5-7.4,7.8s20,10.2,22.5,9.2c4.4-1.6,14.3-1.8,17.2,7.4
			C1818.6,242.2,1812.8,221.1,1786.3,217.7z"/>
		
			<ellipse transform="matrix(0.8081 -0.589 0.589 0.8081 181.6981 1118.3676)" class="st0" cx="1807.4" cy="280.3" rx="8.5" ry="6.7"/>
		
			<ellipse transform="matrix(0.8081 -0.589 0.589 0.8081 148.2806 1088.0487)" class="st0" cx="1744.2" cy="316.4" rx="8.4" ry="6.7"/>
	</g>
	<g>
		<path class="st1" d="M1810.5,237.6c0,0-1.1-37.7,16.8-48.3c17.9-10.6,54.2-31.5,54.2-31.5s12.1-7.4,14.7-8.2c0,0,7.4-3.4,22.5,3.8
			c15.1,7.2,22.9,19.9,23.7,49l-7.6,4.4c0,0-3.5-7.1-12.4-2.5c-6.5,3.4-4.5,12.4-4.5,12.4l-46,26.5c0,0-4.3-9.9-14.2-1.9
			c-4.9,4-4.1,12.6-4.1,12.6l-7.4,4.2L1810.5,237.6z"/>
		<path class="st2" d="M1812.4,235.5l33,19.3c0,0,2-33.2,11.3-43.8c9.2-10.5-19.8-19.3-23.8-18.5
			C1825.9,193.9,1813,204.6,1812.4,235.5z"/>
		<path class="st2" d="M1873.9,239.9l41.8-24.1c0,0,4.8-33.4-8.2-42.6c-9.7-6.9-27-14.8-31.1-12.7c-4.1,2.2-37.9,22.2-37.9,22.2
			s24.8,9.9,29.1,14.6C1871.9,202.1,1875.1,207.8,1873.9,239.9z"/>
		<path class="st2" d="M1905.3,148.7c0,0-13.7,5-7.4,7.8s20,10.2,22.5,9.2c4.4-1.6,14.3-1.8,17.2,7.4
			C1937.6,173.2,1931.8,152.1,1905.3,148.7z"/>
		
			<ellipse transform="matrix(0.8081 -0.589 0.589 0.8081 245.1715 1175.2198)" class="st0" cx="1926.4" cy="211.3" rx="8.5" ry="6.7"/>
		
			<ellipse transform="matrix(0.8081 -0.589 0.589 0.8081 211.754 1144.901)" class="st0" cx="1863.2" cy="247.4" rx="8.4" ry="6.7"/>
	</g>
	<g>
		
			<ellipse transform="matrix(0.7071 -0.7071 0.7071 0.7071 121.7612 1198.2939)" class="st0" cx="1507.3" cy="452.2" rx="7.2" ry="5.7"/>
		
			<ellipse transform="matrix(0.7071 -0.7071 0.7071 0.7071 147.0202 1217.7117)" class="st0" cx="1543.4" cy="431.4" rx="7.2" ry="5.7"/>
		<path class="st1" d="M1493.6,382.2c-13.1,8-30.1,14.1-33.2,29.7c0,0-5,28.3,8.4,36.2c13.5,7.8,21.7,12.5,24.7,11.7
			c8.6-2.4,1.7-9.9,10.6-14.9c8-4.4,11.3,4.6,13.1,3.6s15.3-7.6,17.7-10c1.8-1.8-1.8-10.8,6.2-14.5c6.6-3,9.6,2.6,10.4,5.8
			c0.8,2.8,2.4-2.3,2.4-3.8s-1.3-35.6-5.4-38.6c-6.6-4.8-20.8-13.8-28.9-13.3C1508.7,375,1501.2,377.6,1493.6,382.2z"/>
		<path class="st2" d="M1464.3,439.8c0,0-6.6-25,3-35.7c8.6-9.5,27,1.9,29.5,4.2c2.4,2.2-1.6,4.2-2.2,16.3c-0.2,4.1-0.3,24.9-1,28.3
			c-1.4,6.6-10,1-17.5-3C1470.9,447.1,1466.9,445.5,1464.3,439.8z"/>
		<path class="st2" d="M1513.4,434.4c-3-29.9,1.1-30.4,5.6-32.7s7.8-3.6,8.8-3.9c0.6-0.1,4.8-4,6.3,25.1c0,0,1.2,12.5-2.4,15.4
			c-2.6,2.1-6.3,4.1-8.9,5.4c-4.2,2-7.7,2-8.5-3.7S1513.4,434.4,1513.4,434.4z"/>
	</g>
	<g>
		<path class="st2" d="M1605.9,378c0,0,8.4,0.8,6.6,1.4c-3.8,1.2-8.8,6-6.6,11.3c1.2,2.8-0.8,2.4-5.3,2.4
			C1596.2,393,1605.9,378,1605.9,378z"/>
		<path class="st1" d="M1556.4,404.4c-5.2-2.6-0.8-30.7,10.4-39.4c11.3-8.6,19.8-11.4,23.3-10.4c5.8,1.6,20.5,7.3,19.9,10.4
			c-1,5.2-7.8,28.5-11.9,31.5c-4,3-5,3.7-6.6,2.2c-2.4-2.2-4.6-6.2-10.6-2.2c-3.8,2.5-3.5,8.8-6.2,11.3
			C1568.5,413.2,1561.6,407,1556.4,404.4z"/>
		
			<ellipse transform="matrix(0.7071 -0.7071 0.7071 0.7071 179.1512 1238.2819)" class="st0" cx="1584.3" cy="402.9" rx="6.7" ry="5.3"/>
		
			<ellipse transform="matrix(0.7071 -0.7071 0.7071 0.7071 198.6965 1253.3217)" class="st0" cx="1612.2" cy="386.8" rx="6.7" ry="5.3"/>
		<path class="st2" d="M1556.7,383.8c0,0,0.5,8.4,6.9,10.2c6.4,1.8,8.5,2.6,15-5.7c2.7-3.5,12.4-5.5,16.3-11.9
			c2.8-4.6,4.1-12,1.1-13.6c-4.2-2.1-9-4.6-17.1-4.4C1570.9,358.6,1556.7,369.9,1556.7,383.8z"/>
	</g>
	<g>
		
			<ellipse transform="matrix(0.7071 -0.7071 0.7071 0.7071 616.3866 1582.425)" class="st0" cx="2218.3" cy="47.2" rx="7.2" ry="5.7"/>
		
			<ellipse transform="matrix(0.7071 -0.7071 0.7071 0.7071 641.6455 1601.8428)" class="st0" cx="2254.4" cy="26.4" rx="7.2" ry="5.7"/>
		<path class="st1" d="M2204.6-22.8c-13.1,8-30.1,14.1-33.2,29.7c0,0-5,28.3,8.4,36.2c13.5,7.8,21.7,12.5,24.7,11.7
			c8.6-2.4,1.7-9.9,10.6-14.9c8-4.4,11.3,4.6,13.1,3.6c1.8-1,15.3-7.6,17.7-10c1.8-1.8-1.8-10.8,6.2-14.5c6.6-3,9.6,2.6,10.4,5.8
			c0.8,2.8,2.4-2.3,2.4-3.8c0-1.5-1.3-35.6-5.4-38.6c-6.6-4.8-20.8-13.8-28.9-13.3C2219.7-30,2212.2-27.4,2204.6-22.8z"/>
		<path class="st2" d="M2175.3,34.8c0,0-6.6-25,3-35.7c8.6-9.5,27,1.9,29.5,4.2c2.4,2.2-1.6,4.2-2.2,16.3c-0.2,4.1-0.3,24.9-1,28.3
			c-1.4,6.6-10,1-17.5-3C2181.9,42.1,2177.9,40.5,2175.3,34.8z"/>
		<path class="st2" d="M2224.4,29.4c-3-29.9,1.1-30.4,5.6-32.7s7.8-3.6,8.8-3.9c0.6-0.1,4.8-4,6.3,25.1c0,0,1.2,12.5-2.4,15.4
			c-2.6,2.1-6.3,4.1-8.9,5.4c-4.2,2-7.7,2-8.5-3.7S2224.4,29.4,2224.4,29.4z"/>
	</g>
	<g>
		
			<ellipse transform="matrix(0.7071 -0.7071 0.7071 0.7071 843.9774 1759.8779)" class="st0" cx="2546.3" cy="-138.8" rx="7.2" ry="5.7"/>
		
			<ellipse transform="matrix(0.7071 -0.7071 0.7071 0.7071 869.2364 1779.2957)" class="st0" cx="2582.4" cy="-159.6" rx="7.2" ry="5.7"/>
		<path class="st1" d="M2532.6-208.8c-13.1,8-30.1,14.1-33.2,29.7c0,0-5,28.3,8.4,36.2c13.5,7.8,21.7,12.5,24.7,11.7
			c8.6-2.4,1.7-9.9,10.6-14.9c8-4.4,11.3,4.6,13.1,3.6c1.8-1,15.3-7.6,17.7-10c1.8-1.8-1.8-10.8,6.2-14.5c6.6-3,9.6,2.6,10.4,5.8
			c0.8,2.8,2.4-2.3,2.4-3.8s-1.3-35.6-5.4-38.6c-6.6-4.8-20.8-13.8-28.9-13.3C2547.7-216,2540.2-213.4,2532.6-208.8z"/>
		<path class="st2" d="M2503.3-151.2c0,0-6.6-25,3-35.7c8.6-9.5,27,1.9,29.5,4.2c2.4,2.2-1.6,4.2-2.2,16.3c-0.2,4.1-0.3,24.9-1,28.3
			c-1.4,6.6-10,1-17.5-3C2509.9-143.9,2505.9-145.5,2503.3-151.2z"/>
		<path class="st2" d="M2552.4-156.6c-3-29.9,1.1-30.4,5.6-32.7c4.6-2.3,7.8-3.6,8.8-3.9c0.6-0.1,4.8-4,6.3,25.1
			c0,0,1.2,12.5-2.4,15.4c-2.6,2.1-6.3,4.1-8.9,5.4c-4.2,2-7.7,2-8.5-3.7C2552.4-156.6,2552.4-156.6,2552.4-156.6z"/>
	</g>
	<g>
		<path class="st1" d="M2257.5-12.4c0,0-1.1-37.7,16.8-48.3c17.9-10.6,54.2-31.5,54.2-31.5s12.1-7.4,14.7-8.2c0,0,7.4-3.4,22.5,3.8
			c15.1,7.2,22.9,19.9,23.7,49l-7.6,4.4c0,0-3.5-7.1-12.4-2.5c-6.5,3.4-4.5,12.4-4.5,12.4l-46,26.5c0,0-4.3-9.9-14.2-1.9
			c-4.9,4-4.1,12.6-4.1,12.6l-7.4,4.2L2257.5-12.4z"/>
		<path class="st2" d="M2259.4-14.5l33,19.3c0,0,2-33.2,11.3-43.8c9.2-10.5-19.8-19.3-23.8-18.5C2272.9-56.1,2260-45.4,2259.4-14.5z
			"/>
		<path class="st2" d="M2320.9-10.1l41.8-24.1c0,0,4.8-33.4-8.2-42.6c-9.7-6.9-27-14.8-31.1-12.7c-4.1,2.2-37.9,22.2-37.9,22.2
			s24.8,9.9,29.1,14.6C2318.9-47.9,2322.1-42.2,2320.9-10.1z"/>
		<path class="st2" d="M2352.3-101.3c0,0-13.7,5-7.4,7.8c6.2,2.8,20,10.2,22.5,9.2c4.4-1.6,14.3-1.8,17.2,7.4
			C2384.6-76.8,2378.8-97.9,2352.3-101.3z"/>
		
			<ellipse transform="matrix(0.8081 -0.589 0.589 0.8081 478.187 1390.5365)" class="st0" cx="2373.4" cy="-38.7" rx="8.5" ry="6.7"/>
		
			<ellipse transform="matrix(0.8081 -0.589 0.589 0.8081 444.7695 1360.2177)" class="st0" cx="2310.2" cy="-2.6" rx="8.4" ry="6.7"/>
	</g>
	<g>
		<path class="st1" d="M2376.5-81.4c0,0-1.1-37.7,16.8-48.3c17.9-10.6,54.2-31.5,54.2-31.5s12.1-7.4,14.7-8.2c0,0,7.4-3.4,22.5,3.8
			c15.1,7.2,22.9,19.9,23.7,49l-7.6,4.4c0,0-3.5-7.1-12.4-2.5c-6.5,3.4-4.5,12.4-4.5,12.4l-46,26.5c0,0-4.3-9.9-14.2-1.9
			c-4.9,4-4.1,12.6-4.1,12.6l-7.4,4.2L2376.5-81.4z"/>
		<path class="st2" d="M2378.4-83.5l33,19.3c0,0,2-33.2,11.3-43.8c9.2-10.5-19.8-19.3-23.8-18.5
			C2391.9-125.1,2379-114.4,2378.4-83.5z"/>
		<path class="st2" d="M2439.9-79.1l41.8-24.1c0,0,4.8-33.4-8.2-42.6c-9.7-6.9-27-14.8-31.1-12.7c-4.1,2.2-37.9,22.2-37.9,22.2
			s24.8,9.9,29.1,14.6C2437.9-116.9,2441.1-111.2,2439.9-79.1z"/>
		<path class="st2" d="M2471.3-170.3c0,0-13.7,5-7.4,7.8c6.2,2.8,20,10.2,22.5,9.2c4.4-1.6,14.3-1.8,17.2,7.4
			C2503.6-145.8,2497.8-166.9,2471.3-170.3z"/>
		
			<ellipse transform="matrix(0.8081 -0.589 0.589 0.8081 541.6604 1447.3888)" class="st0" cx="2492.4" cy="-107.7" rx="8.5" ry="6.7"/>
		
			<ellipse transform="matrix(0.8081 -0.589 0.589 0.8081 508.2429 1417.0699)" class="st0" cx="2429.2" cy="-71.6" rx="8.4" ry="6.7"/>
	</g>
	<g>
		
			<ellipse transform="matrix(0.7071 -0.7071 0.7071 0.7071 513.1059 1505.0834)" class="st0" cx="2073.3" cy="133.2" rx="7.2" ry="5.7"/>
		
			<ellipse transform="matrix(0.7071 -0.7071 0.7071 0.7071 538.3648 1524.5011)" class="st0" cx="2109.4" cy="112.4" rx="7.2" ry="5.7"/>
		<path class="st1" d="M2059.6,63.2c-13.1,8-30.1,14.1-33.2,29.7c0,0-5,28.3,8.4,36.2c13.5,7.8,21.7,12.5,24.7,11.7
			c8.6-2.4,1.7-9.9,10.6-14.9c8-4.4,11.3,4.6,13.1,3.6c1.8-1,15.3-7.6,17.7-10c1.8-1.8-1.8-10.8,6.2-14.5c6.6-3,9.6,2.6,10.4,5.8
			c0.8,2.8,2.4-2.3,2.4-3.8c0-1.5-1.3-35.6-5.4-38.6c-6.6-4.8-20.8-13.8-28.9-13.3C2074.7,56,2067.2,58.6,2059.6,63.2z"/>
		<path class="st2" d="M2030.3,120.8c0,0-6.6-25,3-35.7c8.6-9.5,27,1.9,29.5,4.2c2.4,2.2-1.6,4.2-2.2,16.3c-0.2,4.1-0.3,24.9-1,28.3
			c-1.4,6.6-10,1-17.5-3C2036.9,128.1,2032.9,126.5,2030.3,120.8z"/>
		<path class="st2" d="M2079.4,115.4c-3-29.9,1.1-30.4,5.6-32.7s7.8-3.6,8.8-3.9c0.6-0.1,4.8-4,6.3,25.1c0,0,1.2,12.5-2.4,15.4
			c-2.6,2.1-6.3,4.1-8.9,5.4c-4.2,2-7.7,2-8.5-3.7S2079.4,115.4,2079.4,115.4z"/>
	</g>
	<g>
		<path class="st2" d="M2171.9,59c0,0,8.4,0.8,6.6,1.4c-3.8,1.2-8.8,6-6.6,11.3c1.2,2.8-0.8,2.4-5.3,2.4
			C2162.2,74,2171.9,59,2171.9,59z"/>
		<path class="st1" d="M2122.4,85.4c-5.2-2.6-0.8-30.7,10.4-39.4s19.8-11.4,23.3-10.4c5.8,1.6,20.5,7.3,19.9,10.4
			c-1,5.2-7.8,28.5-11.9,31.5c-4,3-5,3.7-6.6,2.2c-2.4-2.2-4.6-6.2-10.6-2.2c-3.8,2.5-3.5,8.8-6.2,11.3
			C2134.5,94.2,2127.6,88,2122.4,85.4z"/>
		
			<ellipse transform="matrix(0.7071 -0.7071 0.7071 0.7071 570.4958 1545.0714)" class="st0" cx="2150.3" cy="83.9" rx="6.7" ry="5.3"/>
		
			<ellipse transform="matrix(0.7071 -0.7071 0.7071 0.7071 590.0411 1560.1112)" class="st0" cx="2178.2" cy="67.8" rx="6.7" ry="5.3"/>
		<path class="st2" d="M2122.7,64.8c0,0,0.5,8.4,6.9,10.2s8.5,2.6,15-5.7c2.7-3.5,12.4-5.5,16.3-11.9c2.8-4.6,4.1-12,1.1-13.6
			c-4.2-2.1-9-4.6-17.1-4.4S2122.7,50.9,2122.7,64.8z"/>
	</g>
	<g>
		
			<ellipse transform="matrix(0.7071 -0.7071 0.7071 0.7071 65.0958 1155.4913)" class="st0" cx="1427.3" cy="499.2" rx="7.2" ry="5.7"/>
		
			<ellipse transform="matrix(0.7071 -0.7071 0.7071 0.7071 90.3547 1174.9091)" class="st0" cx="1463.4" cy="478.4" rx="7.2" ry="5.7"/>
		<path class="st1" d="M1413.6,429.2c-13.1,8-30.1,14.1-33.2,29.7c0,0-5,28.3,8.4,36.2c13.5,7.8,21.7,12.5,24.7,11.7
			c8.6-2.4,1.7-9.9,10.6-14.9c8-4.4,11.3,4.6,13.1,3.6s15.3-7.6,17.7-10c1.8-1.8-1.8-10.8,6.2-14.5c6.6-3,9.6,2.6,10.4,5.8
			c0.8,2.8,2.4-2.3,2.4-3.8s-1.3-35.6-5.4-38.6c-6.6-4.8-20.8-13.8-28.9-13.3C1428.7,422,1421.2,424.6,1413.6,429.2z"/>
		<path class="st2" d="M1384.3,486.8c0,0-6.6-25,3-35.7c8.6-9.5,27,1.9,29.5,4.2c2.4,2.2-1.6,4.2-2.2,16.3c-0.2,4.1-0.3,24.9-1,28.3
			c-1.4,6.6-10,1-17.5-3C1390.9,494.1,1386.9,492.5,1384.3,486.8z"/>
		<path class="st2" d="M1433.4,481.4c-3-29.9,1.1-30.4,5.6-32.7s7.8-3.6,8.8-3.9c0.6-0.1,4.8-4,6.3,25.1c0,0,1.2,12.5-2.4,15.4
			c-2.6,2.1-6.3,4.1-8.9,5.4c-4.2,2-7.7,2-8.5-3.7S1433.4,481.4,1433.4,481.4z"/>
	</g>
	<g>
		<path class="st2" d="M1380.9,511c0,0,8.4,0.8,6.6,1.4c-3.8,1.2-8.8,6-6.6,11.3c1.2,2.8-0.8,2.4-5.3,2.4
			C1371.2,526,1380.9,511,1380.9,511z"/>
		<path class="st1" d="M1331.4,537.4c-5.2-2.6-0.8-30.7,10.4-39.4c11.3-8.6,19.8-11.4,23.3-10.4c5.8,1.6,20.5,7.3,19.9,10.4
			c-1,5.2-7.8,28.5-11.9,31.5s-5,3.7-6.6,2.2c-2.4-2.2-4.6-6.2-10.6-2.2c-3.8,2.5-3.5,8.8-6.2,11.3
			C1343.5,546.2,1336.6,540,1331.4,537.4z"/>
		
			<ellipse transform="matrix(0.7071 -0.7071 0.7071 0.7071 19.2051 1118.1376)" class="st0" cx="1359.3" cy="535.9" rx="6.7" ry="5.3"/>
		
			<ellipse transform="matrix(0.7071 -0.7071 0.7071 0.7071 38.7503 1133.1775)" class="st0" cx="1387.2" cy="519.8" rx="6.7" ry="5.3"/>
		<path class="st2" d="M1331.7,516.8c0,0,0.5,8.4,6.9,10.2c6.4,1.8,8.5,2.6,15-5.7c2.7-3.5,12.4-5.5,16.3-11.9
			c2.8-4.6,4.1-12,1.1-13.6c-4.2-2.1-9-4.6-17.1-4.4C1345.9,491.6,1331.7,502.9,1331.7,516.8z"/>
	</g>
	<g>
		<path class="st1" d="M1199.5,595.6c0,0-1.1-37.7,16.8-48.3c17.9-10.6,54.2-31.5,54.2-31.5s12.1-7.4,14.7-8.2c0,0,7.4-3.4,22.5,3.8
			c15.1,7.2,22.9,19.9,23.7,49l-7.6,4.4c0,0-3.5-7.1-12.4-2.5c-6.5,3.4-4.5,12.4-4.5,12.4l-46,26.5c0,0-4.3-9.9-14.2-1.9
			c-4.9,4-4.1,12.6-4.1,12.6l-7.4,4.2L1199.5,595.6z"/>
		<path class="st2" d="M1201.4,593.5l33,19.3c0,0,2-33.2,11.3-43.8c9.2-10.5-19.8-19.3-23.8-18.5
			C1214.9,551.9,1202,562.6,1201.4,593.5z"/>
		<path class="st2" d="M1262.9,597.9l41.8-24.1c0,0,4.8-33.4-8.2-42.6c-9.7-6.9-27-14.8-31.1-12.7c-4.1,2.2-37.9,22.2-37.9,22.2
			s24.8,9.9,29.1,14.6C1260.9,560.1,1264.1,565.8,1262.9,597.9z"/>
		<path class="st2" d="M1294.3,506.7c0,0-13.7,5-7.4,7.8c6.2,2.8,20,10.2,22.5,9.2c4.4-1.6,14.3-1.8,17.2,7.4
			C1326.6,531.2,1320.8,510.1,1294.3,506.7z"/>
		
			<ellipse transform="matrix(0.8081 -0.589 0.589 0.8081 -82.9225 884.0286)" class="st0" cx="1315.4" cy="569.3" rx="8.5" ry="6.7"/>
		
			<ellipse transform="matrix(0.8081 -0.589 0.589 0.8081 -116.34 853.7098)" class="st0" cx="1252.2" cy="605.4" rx="8.4" ry="6.7"/>
	</g>
</g>
<g id="Straße_03">
	<g>
		
			<ellipse transform="matrix(0.7071 -0.7071 0.7071 0.7071 87.5775 1215.767)" class="st0" cx="1511.3" cy="502.2" rx="7.2" ry="5.7"/>
		
			<ellipse transform="matrix(0.7071 -0.7071 0.7071 0.7071 112.8364 1235.1847)" class="st0" cx="1547.4" cy="481.4" rx="7.2" ry="5.7"/>
		<path class="st1" d="M1497.6,432.2c-13.1,8-30.1,14.1-33.2,29.7c0,0-5,28.3,8.4,36.2c13.5,7.8,21.7,12.5,24.7,11.7
			c8.6-2.4,1.7-9.9,10.6-14.9c8-4.4,11.3,4.6,13.1,3.6s15.3-7.6,17.7-10c1.8-1.8-1.8-10.8,6.2-14.5c6.6-3,9.6,2.6,10.4,5.8
			c0.8,2.8,2.4-2.3,2.4-3.8s-1.3-35.6-5.4-38.6c-6.6-4.8-20.8-13.8-28.9-13.3C1512.7,425,1505.2,427.6,1497.6,432.2z"/>
		<path class="st2" d="M1468.3,489.8c0,0-6.6-25,3-35.7c8.6-9.5,27,1.9,29.5,4.2c2.4,2.2-1.6,4.2-2.2,16.3c-0.2,4.1-0.3,24.9-1,28.3
			c-1.4,6.6-10,1-17.5-3C1474.9,497.1,1470.9,495.5,1468.3,489.8z"/>
		<path class="st2" d="M1517.4,484.4c-3-29.9,1.1-30.4,5.6-32.7s7.8-3.6,8.8-3.9c0.6-0.1,4.8-4,6.3,25.1c0,0,1.2,12.5-2.4,15.4
			c-2.6,2.1-6.3,4.1-8.9,5.4c-4.2,2-7.7,2-8.5-3.7S1517.4,484.4,1517.4,484.4z"/>
	</g>
	<g>
		
			<ellipse transform="matrix(0.7071 -0.7071 0.7071 0.7071 -15.7032 1138.4253)" class="st0" cx="1366.3" cy="588.2" rx="7.2" ry="5.7"/>
		
			<ellipse transform="matrix(0.7071 -0.7071 0.7071 0.7071 9.5557 1157.843)" class="st0" cx="1402.4" cy="567.4" rx="7.2" ry="5.7"/>
		<path class="st1" d="M1352.6,518.2c-13.1,8-30.1,14.1-33.2,29.7c0,0-5,28.3,8.4,36.2c13.5,7.8,21.7,12.5,24.7,11.7
			c8.6-2.4,1.7-9.9,10.6-14.9c8-4.4,11.3,4.6,13.1,3.6s15.3-7.6,17.7-10c1.8-1.8-1.8-10.8,6.2-14.5c6.6-3,9.6,2.6,10.4,5.8
			c0.8,2.8,2.4-2.3,2.4-3.8s-1.3-35.6-5.4-38.6c-6.6-4.8-20.8-13.8-28.9-13.3C1367.7,511,1360.2,513.6,1352.6,518.2z"/>
		<path class="st2" d="M1323.3,575.8c0,0-6.6-25,3-35.7c8.6-9.5,27,1.9,29.5,4.2c2.4,2.2-1.6,4.2-2.2,16.3c-0.2,4.1-0.3,24.9-1,28.3
			c-1.4,6.6-10,1-17.5-3C1329.9,583.1,1325.9,581.5,1323.3,575.8z"/>
		<path class="st2" d="M1372.4,570.4c-3-29.9,1.1-30.4,5.6-32.7s7.8-3.6,8.8-3.9c0.6-0.1,4.8-4,6.3,25.1c0,0,1.2,12.5-2.4,15.4
			c-2.6,2.1-6.3,4.1-8.9,5.4c-4.2,2-7.7,2-8.5-3.7C1372.4,570.4,1372.4,570.4,1372.4,570.4z"/>
	</g>
	<g>
		<path class="st2" d="M1464.9,514c0,0,8.4,0.8,6.6,1.4c-3.8,1.2-8.8,6-6.6,11.3c1.2,2.8-0.8,2.4-5.3,2.4
			C1455.2,529,1464.9,514,1464.9,514z"/>
		<path class="st1" d="M1415.4,540.4c-5.2-2.6-0.8-30.7,10.4-39.4c11.3-8.6,19.8-11.4,23.3-10.4c5.8,1.6,20.5,7.3,19.9,10.4
			c-1,5.2-7.8,28.5-11.9,31.5s-5,3.7-6.6,2.2c-2.4-2.2-4.6-6.2-10.6-2.2c-3.8,2.5-3.5,8.8-6.2,11.3
			C1427.5,549.2,1420.6,543,1415.4,540.4z"/>
		
			<ellipse transform="matrix(0.7071 -0.7071 0.7071 0.7071 41.6868 1178.4133)" class="st0" cx="1443.3" cy="538.9" rx="6.7" ry="5.3"/>
		
			<ellipse transform="matrix(0.7071 -0.7071 0.7071 0.7071 61.232 1193.4531)" class="st0" cx="1471.2" cy="522.8" rx="6.7" ry="5.3"/>
		<path class="st2" d="M1415.7,519.8c0,0,0.5,8.4,6.9,10.2c6.4,1.8,8.5,2.6,15-5.7c2.7-3.5,12.4-5.5,16.3-11.9
			c2.8-4.6,4.1-12,1.1-13.6c-4.2-2.1-9-4.6-17.1-4.4C1429.9,494.6,1415.7,505.9,1415.7,519.8z"/>
	</g>
	<g>
		
			<ellipse transform="matrix(0.7071 -0.7071 0.7071 0.7071 416.7419 1470.4403)" class="st0" cx="1983.3" cy="232.2" rx="7.2" ry="5.7"/>
		
			<ellipse transform="matrix(0.7071 -0.7071 0.7071 0.7071 442.0009 1489.8579)" class="st0" cx="2019.4" cy="211.4" rx="7.2" ry="5.7"/>
		<path class="st1" d="M1969.6,162.2c-13.1,8-30.1,14.1-33.2,29.7c0,0-5,28.3,8.4,36.2c13.5,7.8,21.7,12.5,24.7,11.7
			c8.6-2.4,1.7-9.9,10.6-14.9c8-4.4,11.3,4.6,13.1,3.6s15.3-7.6,17.7-10c1.8-1.8-1.8-10.8,6.2-14.5c6.6-3,9.6,2.6,10.4,5.8
			c0.8,2.8,2.4-2.3,2.4-3.8s-1.3-35.6-5.4-38.6c-6.6-4.8-20.8-13.8-28.9-13.3C1984.7,155,1977.2,157.6,1969.6,162.2z"/>
		<path class="st2" d="M1940.3,219.8c0,0-6.6-25,3-35.7c8.6-9.5,27,1.9,29.5,4.2c2.4,2.2-1.6,4.2-2.2,16.3c-0.2,4.1-0.3,24.9-1,28.3
			c-1.4,6.6-10,1-17.5-3C1946.9,227.1,1942.9,225.5,1940.3,219.8z"/>
		<path class="st2" d="M1989.4,214.4c-3-29.9,1.1-30.4,5.6-32.7c4.6-2.3,7.8-3.6,8.8-3.9c0.6-0.1,4.8-4,6.3,25.1
			c0,0,1.2,12.5-2.4,15.4c-2.6,2.1-6.3,4.1-8.9,5.4c-4.2,2-7.7,2-8.5-3.7C1989.4,214.4,1989.4,214.4,1989.4,214.4z"/>
	</g>
	<g>
		
			<ellipse transform="matrix(0.7071 -0.7071 0.7071 0.7071 313.4612 1393.0986)" class="st0" cx="1838.3" cy="318.2" rx="7.2" ry="5.7"/>
		
			<ellipse transform="matrix(0.7071 -0.7071 0.7071 0.7071 338.7202 1412.5162)" class="st0" cx="1874.4" cy="297.4" rx="7.2" ry="5.7"/>
		<path class="st1" d="M1824.6,248.2c-13.1,8-30.1,14.1-33.2,29.7c0,0-5,28.3,8.4,36.2c13.5,7.8,21.7,12.5,24.7,11.7
			c8.6-2.4,1.7-9.9,10.6-14.9c8-4.4,11.3,4.6,13.1,3.6s15.3-7.6,17.7-10c1.8-1.8-1.8-10.8,6.2-14.5c6.6-3,9.6,2.6,10.4,5.8
			c0.8,2.8,2.4-2.3,2.4-3.8s-1.3-35.6-5.4-38.6c-6.6-4.8-20.8-13.8-28.9-13.3C1839.7,241,1832.2,243.6,1824.6,248.2z"/>
		<path class="st2" d="M1795.3,305.8c0,0-6.6-25,3-35.7c8.6-9.5,27,1.9,29.5,4.2c2.4,2.2-1.6,4.2-2.2,16.3c-0.2,4.1-0.3,24.9-1,28.3
			c-1.4,6.6-10,1-17.5-3C1801.9,313.1,1797.9,311.5,1795.3,305.8z"/>
		<path class="st2" d="M1844.4,300.4c-3-29.9,1.1-30.4,5.6-32.7s7.8-3.6,8.8-3.9c0.6-0.1,4.8-4,6.3,25.1c0,0,1.2,12.5-2.4,15.4
			c-2.6,2.1-6.3,4.1-8.9,5.4c-4.2,2-7.7,2-8.5-3.7S1844.4,300.4,1844.4,300.4z"/>
	</g>
	<g>
		<path class="st2" d="M1936.9,244c0,0,8.4,0.8,6.6,1.4c-3.8,1.2-8.8,6-6.6,11.3c1.2,2.8-0.8,2.4-5.3,2.4
			C1927.2,259,1936.9,244,1936.9,244z"/>
		<path class="st1" d="M1887.4,270.4c-5.2-2.6-0.8-30.7,10.4-39.4c11.3-8.6,19.8-11.4,23.3-10.4c5.8,1.6,20.5,7.3,19.9,10.4
			c-1,5.2-7.8,28.5-11.9,31.5c-4,3-5,3.7-6.6,2.2c-2.4-2.2-4.6-6.2-10.6-2.2c-3.8,2.5-3.5,8.8-6.2,11.3
			C1899.5,279.2,1892.6,273,1887.4,270.4z"/>
		
			<ellipse transform="matrix(0.7071 -0.7071 0.7071 0.7071 370.8512 1433.0865)" class="st0" cx="1915.3" cy="268.9" rx="6.7" ry="5.3"/>
		
			<ellipse transform="matrix(0.7071 -0.7071 0.7071 0.7071 390.3964 1448.1263)" class="st0" cx="1943.2" cy="252.8" rx="6.7" ry="5.3"/>
		<path class="st2" d="M1887.7,249.8c0,0,0.5,8.4,6.9,10.2c6.4,1.8,8.5,2.6,15-5.7c2.7-3.5,12.4-5.5,16.3-11.9
			c2.8-4.6,4.1-12,1.1-13.6c-4.2-2.1-9-4.6-17.1-4.4C1901.9,224.6,1887.7,235.9,1887.7,249.8z"/>
	</g>
	<g>
		
			<ellipse transform="matrix(0.7071 -0.7071 0.7071 0.7071 -72.3687 1095.6228)" class="st0" cx="1286.3" cy="635.2" rx="7.2" ry="5.7"/>
		
			<ellipse transform="matrix(0.7071 -0.7071 0.7071 0.7071 -47.1097 1115.0405)" class="st0" cx="1322.4" cy="614.4" rx="7.2" ry="5.7"/>
		<path class="st1" d="M1272.6,565.2c-13.1,8-30.1,14.1-33.2,29.7c0,0-5,28.3,8.4,36.2c13.5,7.8,21.7,12.5,24.7,11.7
			c8.6-2.4,1.7-9.9,10.6-14.9c8-4.4,11.3,4.6,13.1,3.6s15.3-7.6,17.7-10c1.8-1.8-1.8-10.8,6.2-14.5c6.6-3,9.6,2.6,10.4,5.8
			c0.8,2.8,2.4-2.3,2.4-3.8s-1.3-35.6-5.4-38.6c-6.6-4.8-20.8-13.8-28.9-13.3C1287.7,558,1280.2,560.6,1272.6,565.2z"/>
		<path class="st2" d="M1243.3,622.8c0,0-6.6-25,3-35.7c8.6-9.5,27,1.9,29.5,4.2c2.4,2.2-1.6,4.2-2.2,16.3c-0.2,4.1-0.3,24.9-1,28.3
			c-1.4,6.6-10,1-17.5-3C1249.9,630.1,1245.9,628.5,1243.3,622.8z"/>
		<path class="st2" d="M1292.4,617.4c-3-29.9,1.1-30.4,5.6-32.7s7.8-3.6,8.8-3.9c0.6-0.1,4.8-4,6.3,25.1c0,0,1.2,12.5-2.4,15.4
			c-2.6,2.1-6.3,4.1-8.9,5.4c-4.2,2-7.7,2-8.5-3.7C1292.4,617.4,1292.4,617.4,1292.4,617.4z"/>
	</g>
	<g>
		<path class="st2" d="M1239.9,647c0,0,8.4,0.8,6.6,1.4c-3.8,1.2-8.8,6-6.6,11.3c1.2,2.8-0.8,2.4-5.3,2.4
			C1230.2,662,1239.9,647,1239.9,647z"/>
		<path class="st1" d="M1190.4,673.4c-5.2-2.6-0.8-30.7,10.4-39.4c11.3-8.6,19.8-11.4,23.3-10.4c5.8,1.6,20.5,7.3,19.9,10.4
			c-1,5.2-7.8,28.5-11.9,31.5s-5,3.7-6.6,2.2c-2.4-2.2-4.6-6.2-10.6-2.2c-3.8,2.5-3.5,8.8-6.2,11.3
			C1202.5,682.2,1195.6,676,1190.4,673.4z"/>
		
			<ellipse transform="matrix(0.7071 -0.7071 0.7071 0.7071 -118.2594 1058.269)" class="st0" cx="1218.3" cy="671.9" rx="6.7" ry="5.3"/>
		
			<ellipse transform="matrix(0.7071 -0.7071 0.7071 0.7071 -98.7142 1073.3088)" class="st0" cx="1246.2" cy="655.8" rx="6.7" ry="5.3"/>
		<path class="st2" d="M1190.7,652.8c0,0,0.5,8.4,6.9,10.2c6.4,1.8,8.5,2.6,15-5.7c2.7-3.5,12.4-5.5,16.3-11.9
			c2.8-4.6,4.1-12,1.1-13.6c-4.2-2.1-9-4.6-17.1-4.4C1204.9,627.6,1190.7,638.9,1190.7,652.8z"/>
	</g>
	<g>
		<path class="st2" d="M1059.9,755c0,0,8.4,0.8,6.6,1.4c-3.8,1.2-8.8,6-6.6,11.3c1.2,2.8-0.8,2.4-5.3,2.4
			C1050.2,770,1059.9,755,1059.9,755z"/>
		<path class="st1" d="M1010.4,781.4c-5.2-2.6-0.8-30.7,10.4-39.4c11.3-8.6,19.8-11.4,23.3-10.4c5.8,1.6,20.5,7.3,19.9,10.4
			c-1,5.2-7.8,28.5-11.9,31.5s-5,3.7-6.6,2.2c-2.4-2.2-4.6-6.2-10.6-2.2c-3.8,2.5-3.5,8.8-6.2,11.3
			C1022.5,790.2,1015.6,784,1010.4,781.4z"/>
		
			<ellipse transform="matrix(0.7071 -0.7071 0.7071 0.7071 -247.3477 962.6223)" class="st0" cx="1038.3" cy="779.9" rx="6.7" ry="5.3"/>
		
			<ellipse transform="matrix(0.7071 -0.7071 0.7071 0.7071 -227.8025 977.6621)" class="st0" cx="1066.2" cy="763.8" rx="6.7" ry="5.3"/>
		<path class="st2" d="M1010.7,760.8c0,0,0.5,8.4,6.9,10.2c6.4,1.8,8.5,2.6,15-5.7c2.7-3.5,12.4-5.5,16.3-11.9
			c2.8-4.6,4.1-12,1.1-13.6c-4.2-2.1-9-4.6-17.1-4.4C1024.9,735.6,1010.7,746.9,1010.7,760.8z"/>
	</g>
	<g>
		<path class="st2" d="M987.9,796c0,0,8.4,0.8,6.6,1.4c-3.8,1.2-8.8,6-6.6,11.3c1.2,2.8-0.8,2.4-5.3,2.4
			C978.2,811,987.9,796,987.9,796z"/>
		<path class="st1" d="M938.4,822.4c-5.2-2.6-0.8-30.7,10.4-39.4c11.3-8.6,19.8-11.4,23.3-10.4c5.8,1.6,20.5,7.3,19.9,10.4
			c-1,5.2-7.8,28.5-11.9,31.5s-5,3.7-6.6,2.2c-2.4-2.2-4.6-6.2-10.6-2.2c-3.8,2.5-3.5,8.8-6.2,11.3
			C950.5,831.2,943.6,825,938.4,822.4z"/>
		
			<ellipse transform="matrix(0.7071 -0.7071 0.7071 0.7071 -297.4274 923.7192)" class="st0" cx="966.3" cy="820.9" rx="6.7" ry="5.3"/>
		
			<ellipse transform="matrix(0.7071 -0.7071 0.7071 0.7071 -277.8822 938.759)" class="st0" cx="994.2" cy="804.8" rx="6.7" ry="5.3"/>
		<path class="st2" d="M938.7,801.8c0,0,0.5,8.4,6.9,10.2c6.4,1.8,8.5,2.6,15-5.7c2.7-3.5,12.4-5.5,16.3-11.9
			c2.8-4.6,4.1-12,1.1-13.6c-4.2-2.1-9-4.6-17.1-4.4S938.7,787.9,938.7,801.8z"/>
	</g>
	<g>
		<path class="st1" d="M1058.5,731.6c0,0-1.1-37.7,16.8-48.3c17.9-10.6,54.2-31.5,54.2-31.5s12.1-7.4,14.7-8.2c0,0,7.4-3.4,22.5,3.8
			c15.1,7.2,22.9,19.9,23.7,49l-7.6,4.4c0,0-3.5-7.1-12.4-2.5c-6.5,3.4-4.5,12.4-4.5,12.4l-46,26.5c0,0-4.3-9.9-14.2-1.9
			c-4.9,4-4.1,12.6-4.1,12.6l-7.4,4.2L1058.5,731.6z"/>
		<path class="st2" d="M1060.4,729.5l33,19.3c0,0,2-33.2,11.3-43.8c9.2-10.5-19.8-19.3-23.8-18.5
			C1073.9,687.9,1061,698.6,1060.4,729.5z"/>
		<path class="st2" d="M1121.9,733.9l41.8-24.1c0,0,4.8-33.4-8.2-42.6c-9.7-6.9-27-14.8-31.1-12.7c-4.1,2.2-37.9,22.2-37.9,22.2
			s24.8,9.9,29.1,14.6C1119.9,696.1,1123.1,701.8,1121.9,733.9z"/>
		<path class="st2" d="M1153.3,642.7c0,0-13.7,5-7.4,7.8s20,10.2,22.5,9.2c4.4-1.6,14.3-1.8,17.2,7.4
			C1185.6,667.2,1179.8,646.1,1153.3,642.7z"/>
		
			<ellipse transform="matrix(0.8081 -0.589 0.589 0.8081 -190.0802 827.0734)" class="st0" cx="1174.4" cy="705.3" rx="8.5" ry="6.7"/>
		
			<ellipse transform="matrix(0.8081 -0.589 0.589 0.8081 -223.4977 796.7546)" class="st0" cx="1111.2" cy="741.4" rx="8.4" ry="6.7"/>
	</g>
	<g>
		<path class="st1" d="M1550.5,442.6c0,0-1.1-37.7,16.8-48.3c17.9-10.6,54.2-31.5,54.2-31.5s12.1-7.4,14.7-8.2c0,0,7.4-3.4,22.5,3.8
			c15.1,7.2,22.9,19.9,23.7,49l-7.6,4.4c0,0-3.5-7.1-12.4-2.5c-6.5,3.4-4.5,12.4-4.5,12.4l-46,26.5c0,0-4.3-9.9-14.2-1.9
			c-4.9,4-4.1,12.6-4.1,12.6l-7.4,4.2L1550.5,442.6z"/>
		<path class="st2" d="M1552.4,440.5l33,19.3c0,0,2-33.2,11.3-43.8c9.2-10.5-19.8-19.3-23.8-18.5
			C1565.9,398.9,1553,409.6,1552.4,440.5z"/>
		<path class="st2" d="M1613.9,444.9l41.8-24.1c0,0,4.8-33.4-8.2-42.6c-9.7-6.9-27-14.8-31.1-12.7c-4.1,2.2-37.9,22.2-37.9,22.2
			s24.8,9.9,29.1,14.6C1611.9,407.1,1615.1,412.8,1613.9,444.9z"/>
		<path class="st2" d="M1645.3,353.7c0,0-13.7,5-7.4,7.8c6.2,2.8,20,10.2,22.5,9.2c4.4-1.6,14.3-1.8,17.2,7.4
			C1677.6,378.2,1671.8,357.1,1645.3,353.7z"/>
		
			<ellipse transform="matrix(0.8081 -0.589 0.589 0.8081 74.5405 1061.4124)" class="st0" cx="1666.4" cy="416.3" rx="8.5" ry="6.7"/>
		
			<ellipse transform="matrix(0.8081 -0.589 0.589 0.8081 41.1229 1031.0935)" class="st0" cx="1603.2" cy="452.4" rx="8.4" ry="6.7"/>
	</g>
	<g>
		<path class="st1" d="M1669.5,373.6c0,0-1.1-37.7,16.8-48.3c17.9-10.6,54.2-31.5,54.2-31.5s12.1-7.4,14.7-8.2c0,0,7.4-3.4,22.5,3.8
			c15.1,7.2,22.9,19.9,23.7,49l-7.6,4.4c0,0-3.5-7.1-12.4-2.5c-6.5,3.4-4.5,12.4-4.5,12.4l-46,26.5c0,0-4.3-9.9-14.2-1.9
			c-4.9,4-4.1,12.6-4.1,12.6l-7.4,4.2L1669.5,373.6z"/>
		<path class="st2" d="M1671.4,371.5l33,19.3c0,0,2-33.2,11.3-43.8c9.2-10.5-19.8-19.3-23.8-18.5
			C1684.9,329.9,1672,340.6,1671.4,371.5z"/>
		<path class="st2" d="M1732.9,375.9l41.8-24.1c0,0,4.8-33.4-8.2-42.6c-9.7-6.9-27-14.8-31.1-12.7c-4.1,2.2-37.9,22.2-37.9,22.2
			s24.8,9.9,29.1,14.6C1730.9,338.1,1734.1,343.8,1732.9,375.9z"/>
		<path class="st2" d="M1764.3,284.7c0,0-13.7,5-7.4,7.8c6.2,2.8,20,10.2,22.5,9.2c4.4-1.6,14.3-1.8,17.2,7.4
			C1796.6,309.2,1790.8,288.1,1764.3,284.7z"/>
		
			<ellipse transform="matrix(0.8081 -0.589 0.589 0.8081 138.0139 1118.2646)" class="st0" cx="1785.4" cy="347.3" rx="8.5" ry="6.7"/>
		
			<ellipse transform="matrix(0.8081 -0.589 0.589 0.8081 104.5964 1087.9458)" class="st0" cx="1722.2" cy="383.4" rx="8.4" ry="6.7"/>
	</g>
	<g>
		
			<ellipse transform="matrix(0.7071 -0.7071 0.7071 0.7071 478.3363 1521.1423)" class="st0" cx="2075.3" cy="183.2" rx="7.2" ry="5.7"/>
		
			<ellipse transform="matrix(0.7071 -0.7071 0.7071 0.7071 503.5953 1540.5601)" class="st0" cx="2111.4" cy="162.4" rx="7.2" ry="5.7"/>
		<path class="st1" d="M2061.6,113.2c-13.1,8-30.1,14.1-33.2,29.7c0,0-5,28.3,8.4,36.2c13.5,7.8,21.7,12.5,24.7,11.7
			c8.6-2.4,1.7-9.9,10.6-14.9c8-4.4,11.3,4.6,13.1,3.6c1.8-1,15.3-7.6,17.7-10c1.8-1.8-1.8-10.8,6.2-14.5c6.6-3,9.6,2.6,10.4,5.8
			c0.8,2.8,2.4-2.3,2.4-3.8s-1.3-35.6-5.4-38.6c-6.6-4.8-20.8-13.8-28.9-13.3C2076.7,106,2069.2,108.6,2061.6,113.2z"/>
		<path class="st2" d="M2032.3,170.8c0,0-6.6-25,3-35.7c8.6-9.5,27,1.9,29.5,4.2c2.4,2.2-1.6,4.2-2.2,16.3c-0.2,4.1-0.3,24.9-1,28.3
			c-1.4,6.6-10,1-17.5-3C2038.9,178.1,2034.9,176.5,2032.3,170.8z"/>
		<path class="st2" d="M2081.4,165.4c-3-29.9,1.1-30.4,5.6-32.7c4.6-2.3,7.8-3.6,8.8-3.9c0.6-0.1,4.8-4,6.3,25.1
			c0,0,1.2,12.5-2.4,15.4c-2.6,2.1-6.3,4.1-8.9,5.4c-4.2,2-7.7,2-8.5-3.7C2081.4,165.4,2081.4,165.4,2081.4,165.4z"/>
	</g>
	<g>
		
			<ellipse transform="matrix(0.7071 -0.7071 0.7071 0.7071 807.5007 1775.8156)" class="st0" cx="2547.3" cy="-86.8" rx="7.2" ry="5.7"/>
		
			<ellipse transform="matrix(0.7071 -0.7071 0.7071 0.7071 832.7597 1795.2333)" class="st0" cx="2583.4" cy="-107.6" rx="7.2" ry="5.7"/>
		<path class="st1" d="M2533.6-156.8c-13.1,8-30.1,14.1-33.2,29.7c0,0-5,28.3,8.4,36.2c13.5,7.8,21.7,12.5,24.7,11.7
			c8.6-2.4,1.7-9.9,10.6-14.9c8-4.4,11.3,4.6,13.1,3.6c1.8-1,15.3-7.6,17.7-10c1.8-1.8-1.8-10.8,6.2-14.5c6.6-3,9.6,2.6,10.4,5.8
			c0.8,2.8,2.4-2.3,2.4-3.8c0-1.5-1.3-35.6-5.4-38.6c-6.6-4.8-20.8-13.8-28.9-13.3C2548.7-164,2541.2-161.4,2533.6-156.8z"/>
		<path class="st2" d="M2504.3-99.2c0,0-6.6-25,3-35.7c8.6-9.5,27,1.9,29.5,4.2c2.4,2.2-1.6,4.2-2.2,16.3c-0.2,4.1-0.3,24.9-1,28.3
			c-1.4,6.6-10,1-17.5-3C2510.9-91.9,2506.9-93.5,2504.3-99.2z"/>
		<path class="st2" d="M2553.4-104.6c-3-29.9,1.1-30.4,5.6-32.7c4.6-2.3,7.8-3.6,8.8-3.9c0.6-0.1,4.8-4,6.3,25.1
			c0,0,1.2,12.5-2.4,15.4c-2.6,2.1-6.3,4.1-8.9,5.4c-4.2,2-7.7,2-8.5-3.7S2553.4-104.6,2553.4-104.6z"/>
	</g>
	<g>
		
			<ellipse transform="matrix(0.7071 -0.7071 0.7071 0.7071 704.22 1698.4739)" class="st0" cx="2402.3" cy="-0.8" rx="7.2" ry="5.7"/>
		
			<ellipse transform="matrix(0.7071 -0.7071 0.7071 0.7071 729.479 1717.8916)" class="st0" cx="2438.4" cy="-21.6" rx="7.2" ry="5.7"/>
		<path class="st1" d="M2388.6-70.8c-13.1,8-30.1,14.1-33.2,29.7c0,0-5,28.3,8.4,36.2c13.5,7.8,21.7,12.5,24.7,11.7
			c8.6-2.4,1.7-9.9,10.6-14.9c8-4.4,11.3,4.6,13.1,3.6c1.8-1,15.3-7.6,17.7-10c1.8-1.8-1.8-10.8,6.2-14.5c6.6-3,9.6,2.6,10.4,5.8
			c0.8,2.8,2.4-2.3,2.4-3.8c0-1.5-1.3-35.6-5.4-38.6c-6.6-4.8-20.8-13.8-28.9-13.3C2403.7-78,2396.2-75.4,2388.6-70.8z"/>
		<path class="st2" d="M2359.3-13.2c0,0-6.6-25,3-35.7c8.6-9.5,27,1.9,29.5,4.2c2.4,2.2-1.6,4.2-2.2,16.3c-0.2,4.1-0.3,24.9-1,28.3
			c-1.4,6.6-10,1-17.5-3C2365.9-5.9,2361.9-7.5,2359.3-13.2z"/>
		<path class="st2" d="M2408.4-18.6c-3-29.9,1.1-30.4,5.6-32.7c4.6-2.3,7.8-3.6,8.8-3.9c0.6-0.1,4.8-4,6.3,25.1
			c0,0,1.2,12.5-2.4,15.4c-2.6,2.1-6.3,4.1-8.9,5.4c-4.2,2-7.7,2-8.5-3.7S2408.4-18.6,2408.4-18.6z"/>
	</g>
	<g>
		<path class="st2" d="M2500.9-75c0,0,8.4,0.8,6.6,1.4c-3.8,1.2-8.8,6-6.6,11.3c1.2,2.8-0.8,2.4-5.3,2.4
			C2491.2-60,2500.9-75,2500.9-75z"/>
		<path class="st1" d="M2451.4-48.6c-5.2-2.6-0.8-30.7,10.4-39.4s19.8-11.4,23.3-10.4c5.8,1.6,20.5,7.3,19.9,10.4
			c-1,5.2-7.8,28.5-11.9,31.5s-5,3.7-6.6,2.2c-2.4-2.2-4.6-6.2-10.6-2.2c-3.8,2.5-3.5,8.8-6.2,11.3
			C2463.5-39.8,2456.6-46,2451.4-48.6z"/>
		
			<ellipse transform="matrix(0.7071 -0.7071 0.7071 0.7071 761.61 1738.4618)" class="st0" cx="2479.3" cy="-50.1" rx="6.7" ry="5.3"/>
		
			<ellipse transform="matrix(0.7071 -0.7071 0.7071 0.7071 781.1553 1753.5016)" class="st0" cx="2507.2" cy="-66.2" rx="6.7" ry="5.3"/>
		<path class="st2" d="M2451.7-69.2c0,0,0.5,8.4,6.9,10.2s8.5,2.6,15-5.7c2.7-3.5,12.4-5.5,16.3-11.9c2.8-4.6,4.1-12,1.1-13.6
			c-4.2-2.1-9-4.6-17.1-4.4C2465.9-94.4,2451.7-83.1,2451.7-69.2z"/>
	</g>
	<g>
		<path class="st1" d="M2114.5,123.6c0,0-1.1-37.7,16.8-48.3c17.9-10.6,54.2-31.5,54.2-31.5s12.1-7.4,14.7-8.2c0,0,7.4-3.4,22.5,3.8
			c15.1,7.2,22.9,19.9,23.7,49l-7.6,4.4c0,0-3.5-7.1-12.4-2.5c-6.5,3.4-4.5,12.4-4.5,12.4l-46,26.5c0,0-4.3-9.9-14.2-1.9
			c-4.9,4-4.1,12.6-4.1,12.6l-7.4,4.2L2114.5,123.6z"/>
		<path class="st2" d="M2116.4,121.5l33,19.3c0,0,2-33.2,11.3-43.8c9.2-10.5-19.8-19.3-23.8-18.5
			C2129.9,79.9,2117,90.6,2116.4,121.5z"/>
		<path class="st2" d="M2177.9,125.9l41.8-24.1c0,0,4.8-33.4-8.2-42.6c-9.7-6.9-27-14.8-31.1-12.7c-4.1,2.2-37.9,22.2-37.9,22.2
			s24.8,9.9,29.1,14.6C2175.9,88.1,2179.1,93.8,2177.9,125.9z"/>
		<path class="st2" d="M2209.3,34.7c0,0-13.7,5-7.4,7.8c6.2,2.8,20,10.2,22.5,9.2c4.4-1.6,14.3-1.8,17.2,7.4
			C2241.6,59.2,2235.8,38.1,2209.3,34.7z"/>
		
			<ellipse transform="matrix(0.8081 -0.589 0.589 0.8081 370.6456 1332.4033)" class="st0" cx="2230.4" cy="97.3" rx="8.5" ry="6.7"/>
		
			<ellipse transform="matrix(0.8081 -0.589 0.589 0.8081 337.2281 1302.0845)" class="st0" cx="2167.2" cy="133.4" rx="8.4" ry="6.7"/>
	</g>
	<g>
		<path class="st1" d="M2233.5,54.6c0,0-1.1-37.7,16.8-48.3c17.9-10.6,54.2-31.5,54.2-31.5s12.1-7.4,14.7-8.2c0,0,7.4-3.4,22.5,3.8
			c15.1,7.2,22.9,19.9,23.7,49l-7.6,4.4c0,0-3.5-7.1-12.4-2.5c-6.5,3.4-4.5,12.4-4.5,12.4l-46,26.5c0,0-4.3-9.9-14.2-1.9
			c-4.9,4-4.1,12.6-4.1,12.6l-7.4,4.2L2233.5,54.6z"/>
		<path class="st2" d="M2235.4,52.5l33,19.3c0,0,2-33.2,11.3-43.8c9.2-10.5-19.8-19.3-23.8-18.5C2248.9,10.9,2236,21.6,2235.4,52.5z
			"/>
		<path class="st2" d="M2296.9,56.9l41.8-24.1c0,0,4.8-33.4-8.2-42.6c-9.7-6.9-27-14.8-31.1-12.7c-4.1,2.2-37.9,22.2-37.9,22.2
			s24.8,9.9,29.1,14.6C2294.9,19.1,2298.1,24.8,2296.9,56.9z"/>
		<path class="st2" d="M2328.3-34.3c0,0-13.7,5-7.4,7.8c6.2,2.8,20,10.2,22.5,9.2c4.4-1.6,14.3-1.8,17.2,7.4
			C2360.6-9.8,2354.8-30.9,2328.3-34.3z"/>
		
			<ellipse transform="matrix(0.8081 -0.589 0.589 0.8081 434.119 1389.2556)" class="st0" cx="2349.4" cy="28.3" rx="8.5" ry="6.7"/>
		
			<ellipse transform="matrix(0.8081 -0.589 0.589 0.8081 400.7015 1358.9368)" class="st0" cx="2286.2" cy="64.4" rx="8.4" ry="6.7"/>
	</g>
	<g>
		
			<ellipse transform="matrix(0.7071 -0.7071 0.7071 0.7071 -530.9143 744.5957)" class="st0" cx="633.3" cy="1013.2" rx="7.2" ry="5.7"/>
		
			<ellipse transform="matrix(0.7071 -0.7071 0.7071 0.7071 -505.6554 764.0134)" class="st0" cx="669.4" cy="992.4" rx="7.2" ry="5.7"/>
		<path class="st1" d="M619.6,943.2c-13.1,8-30.1,14.1-33.2,29.7c0,0-5,28.3,8.4,36.2s21.7,12.5,24.7,11.7
			c8.6-2.4,1.7-9.9,10.6-14.9c8-4.4,11.3,4.6,13.1,3.6s15.3-7.6,17.7-10c1.8-1.8-1.8-10.8,6.2-14.5c6.6-3,9.6,2.6,10.4,5.8
			c0.8,2.8,2.4-2.3,2.4-3.8s-1.3-35.6-5.4-38.6c-6.6-4.8-20.8-13.8-28.9-13.3C634.7,936,627.2,938.6,619.6,943.2z"/>
		<path class="st2" d="M590.3,1000.8c0,0-6.6-25,3-35.7c8.6-9.5,27,1.9,29.5,4.2c2.4,2.2-1.6,4.2-2.2,16.3c-0.2,4.1-0.3,24.9-1,28.3
			c-1.4,6.6-10,1-17.5-3C596.9,1008.1,592.9,1006.5,590.3,1000.8z"/>
		<path class="st2" d="M639.4,995.4c-3-29.9,1.1-30.4,5.6-32.7s7.8-3.6,8.8-3.9c0.6-0.1,4.8-4,6.3,25.1c0,0,1.2,12.5-2.4,15.4
			c-2.6,2.1-6.3,4.1-8.9,5.4c-4.2,2-7.7,2-8.5-3.7C639.4,995.4,639.4,995.4,639.4,995.4z"/>
	</g>
	<g>
		
			<ellipse transform="matrix(0.7071 -0.7071 0.7071 0.7071 -634.195 667.254)" class="st0" cx="488.3" cy="1099.2" rx="7.2" ry="5.7"/>
		
			<ellipse transform="matrix(0.7071 -0.7071 0.7071 0.7071 -608.9361 686.6718)" class="st0" cx="524.4" cy="1078.4" rx="7.2" ry="5.7"/>
		<path class="st1" d="M474.6,1029.2c-13.1,8-30.1,14.1-33.2,29.7c0,0-5,28.3,8.4,36.2c13.5,7.8,21.7,12.5,24.7,11.7
			c8.6-2.4,1.7-9.9,10.6-14.9c8-4.4,11.3,4.6,13.1,3.6c1.8-1,15.3-7.6,17.7-10c1.8-1.8-1.8-10.8,6.2-14.5c6.6-3,9.6,2.6,10.4,5.8
			c0.8,2.8,2.4-2.3,2.4-3.8c0-1.5-1.3-35.6-5.4-38.6c-6.6-4.8-20.8-13.8-28.9-13.3C489.7,1022,482.2,1024.6,474.6,1029.2z"/>
		<path class="st2" d="M445.3,1086.8c0,0-6.6-25,3-35.7c8.6-9.5,27,1.9,29.5,4.2c2.4,2.2-1.6,4.2-2.2,16.3c-0.2,4.1-0.3,24.9-1,28.3
			c-1.4,6.6-10,1-17.5-3C451.9,1094.1,447.9,1092.5,445.3,1086.8z"/>
		<path class="st2" d="M494.4,1081.4c-3-29.9,1.1-30.4,5.6-32.7c4.6-2.3,7.8-3.6,8.8-3.9c0.6-0.1,4.8-4,6.3,25.1
			c0,0,1.2,12.5-2.4,15.4c-2.6,2.1-6.3,4.1-8.9,5.4c-4.2,2-7.7,2-8.5-3.7S494.4,1081.4,494.4,1081.4z"/>
	</g>
	<g>
		<path class="st2" d="M586.9,1025c0,0,8.4,0.8,6.6,1.4c-3.8,1.2-8.8,6-6.6,11.3c1.2,2.8-0.8,2.4-5.3,2.4
			C577.2,1040,586.9,1025,586.9,1025z"/>
		<path class="st1" d="M537.4,1051.4c-5.2-2.6-0.8-30.7,10.4-39.4c11.3-8.6,19.8-11.4,23.3-10.4c5.8,1.6,20.5,7.3,19.9,10.4
			c-1,5.2-7.8,28.5-11.9,31.5c-4,3-5,3.7-6.6,2.2c-2.4-2.2-4.6-6.2-10.6-2.2c-3.8,2.5-3.5,8.8-6.2,11.3
			C549.5,1060.2,542.6,1054,537.4,1051.4z"/>
		
			<ellipse transform="matrix(0.7071 -0.7071 0.7071 0.7071 -576.8051 707.2419)" class="st0" cx="565.3" cy="1049.9" rx="6.7" ry="5.3"/>
		
			<ellipse transform="matrix(0.7071 -0.7071 0.7071 0.7071 -557.2598 722.2818)" class="st0" cx="593.2" cy="1033.8" rx="6.7" ry="5.3"/>
		<path class="st2" d="M537.7,1030.8c0,0,0.5,8.4,6.9,10.2s8.5,2.6,15-5.7c2.7-3.5,12.4-5.5,16.3-11.9c2.8-4.6,4.1-12,1.1-13.6
			c-4.2-2.1-9-4.6-17.1-4.4S537.7,1016.9,537.7,1030.8z"/>
	</g>
	<g>
		
			<ellipse transform="matrix(0.7071 -0.7071 0.7071 0.7071 -690.8605 624.4515)" class="st0" cx="408.3" cy="1146.2" rx="7.2" ry="5.7"/>
		
			<ellipse transform="matrix(0.7071 -0.7071 0.7071 0.7071 -665.6016 643.8692)" class="st0" cx="444.4" cy="1125.4" rx="7.2" ry="5.7"/>
		<path class="st1" d="M394.6,1076.2c-13.1,8-30.1,14.1-33.2,29.7c0,0-5,28.3,8.4,36.2c13.5,7.8,21.7,12.5,24.7,11.7
			c8.6-2.4,1.7-9.9,10.6-14.9c8-4.4,11.3,4.6,13.1,3.6c1.8-1,15.3-7.6,17.7-10c1.8-1.8-1.8-10.8,6.2-14.5c6.6-3,9.6,2.6,10.4,5.8
			c0.8,2.8,2.4-2.3,2.4-3.8c0-1.5-1.3-35.6-5.4-38.6c-6.6-4.8-20.8-13.8-28.9-13.3C409.7,1069,402.2,1071.6,394.6,1076.2z"/>
		<path class="st2" d="M365.3,1133.8c0,0-6.6-25,3-35.7c8.6-9.5,27,1.9,29.5,4.2c2.4,2.2-1.6,4.2-2.2,16.3c-0.2,4.1-0.3,24.9-1,28.3
			c-1.4,6.6-10,1-17.5-3C371.9,1141.1,367.9,1139.5,365.3,1133.8z"/>
		<path class="st2" d="M414.4,1128.4c-3-29.9,1.1-30.4,5.6-32.7c4.6-2.3,7.8-3.6,8.8-3.9c0.6-0.1,4.8-4,6.3,25.1
			c0,0,1.2,12.5-2.4,15.4c-2.6,2.1-6.3,4.1-8.9,5.4c-4.2,2-7.7,2-8.5-3.7S414.4,1128.4,414.4,1128.4z"/>
	</g>
	<g>
		<path class="st2" d="M361.9,1158c0,0,8.4,0.8,6.6,1.4c-3.8,1.2-8.8,6-6.6,11.3c1.2,2.8-0.8,2.4-5.3,2.4
			C352.2,1173,361.9,1158,361.9,1158z"/>
		<path class="st1" d="M312.4,1184.4c-5.2-2.6-0.8-30.7,10.4-39.4c11.3-8.6,19.8-11.4,23.3-10.4c5.8,1.6,20.5,7.3,19.9,10.4
			c-1,5.2-7.8,28.5-11.9,31.5c-4,3-5,3.7-6.6,2.2c-2.4-2.2-4.6-6.2-10.6-2.2c-3.8,2.5-3.5,8.8-6.2,11.3
			C324.5,1193.2,317.6,1187,312.4,1184.4z"/>
		
			<ellipse transform="matrix(0.7071 -0.7071 0.7071 0.7071 -736.7512 587.0977)" class="st0" cx="340.3" cy="1182.9" rx="6.7" ry="5.3"/>
		
			<ellipse transform="matrix(0.7071 -0.7071 0.7071 0.7071 -717.206 602.1376)" class="st0" cx="368.2" cy="1166.8" rx="6.7" ry="5.3"/>
		<path class="st2" d="M312.7,1163.8c0,0,0.5,8.4,6.9,10.2c6.4,1.8,8.5,2.6,15-5.7c2.7-3.5,12.4-5.5,16.3-11.9
			c2.8-4.6,4.1-12,1.1-13.6c-4.2-2.1-9-4.6-17.1-4.4S312.7,1149.9,312.7,1163.8z"/>
	</g>
	<g>
		<path class="st1" d="M180.5,1242.6c0,0-1.1-37.7,16.8-48.3c17.9-10.6,54.2-31.5,54.2-31.5s12.1-7.4,14.7-8.2c0,0,7.4-3.4,22.5,3.8
			c15.1,7.2,22.9,19.9,23.7,49l-7.6,4.4c0,0-3.5-7.1-12.4-2.5c-6.5,3.4-4.5,12.4-4.5,12.4l-46,26.5c0,0-4.3-9.9-14.2-1.9
			c-4.9,4-4.1,12.6-4.1,12.6l-7.4,4.2L180.5,1242.6z"/>
		<path class="st2" d="M182.4,1240.5l33,19.3c0,0,2-33.2,11.3-43.8c9.2-10.5-19.8-19.3-23.8-18.5
			C195.9,1198.9,183,1209.6,182.4,1240.5z"/>
		<path class="st2" d="M243.9,1244.9l41.8-24.1c0,0,4.8-33.4-8.2-42.6c-9.7-6.9-27-14.8-31.1-12.7c-4.1,2.2-37.9,22.2-37.9,22.2
			s24.8,9.9,29.1,14.6C241.9,1207.1,245.1,1212.8,243.9,1244.9z"/>
		<path class="st2" d="M275.3,1153.7c0,0-13.7,5-7.4,7.8c6.2,2.8,20,10.2,22.5,9.2c4.4-1.6,14.3-1.8,17.2,7.4
			C307.6,1178.2,301.8,1157.1,275.3,1153.7z"/>
		
			<ellipse transform="matrix(0.8081 -0.589 0.589 0.8081 -659.5203 407.9746)" class="st0" cx="296.4" cy="1216.3" rx="8.5" ry="6.7"/>
		
			<ellipse transform="matrix(0.8081 -0.589 0.589 0.8081 -692.9378 377.6558)" class="st0" cx="233.2" cy="1252.4" rx="8.4" ry="6.7"/>
	</g>
	<g>
		<path class="st1" d="M672.5,953.6c0,0-1.1-37.7,16.8-48.3c17.9-10.6,54.2-31.5,54.2-31.5s12.1-7.4,14.7-8.2c0,0,7.4-3.4,22.5,3.8
			c15.1,7.2,22.9,19.9,23.7,49l-7.6,4.4c0,0-3.5-7.1-12.4-2.5c-6.5,3.4-4.5,12.4-4.5,12.4l-46,26.5c0,0-4.3-9.9-14.2-1.9
			c-4.9,4-4.1,12.6-4.1,12.6l-7.4,4.2L672.5,953.6z"/>
		<path class="st2" d="M674.4,951.5l33,19.3c0,0,2-33.2,11.3-43.8c9.2-10.5-19.8-19.3-23.8-18.5C687.9,909.9,675,920.6,674.4,951.5z
			"/>
		<path class="st2" d="M735.9,955.9l41.8-24.1c0,0,4.8-33.4-8.2-42.6c-9.7-6.9-27-14.8-31.1-12.7c-4.1,2.2-37.9,22.2-37.9,22.2
			s24.8,9.9,29.1,14.6C733.9,918.1,737.1,923.8,735.9,955.9z"/>
		<path class="st2" d="M767.3,864.7c0,0-13.7,5-7.4,7.8s20,10.2,22.5,9.2c4.4-1.6,14.3-1.8,17.2,7.4
			C799.6,889.2,793.8,868.1,767.3,864.7z"/>
		
			<ellipse transform="matrix(0.8081 -0.589 0.589 0.8081 -394.8997 642.3135)" class="st0" cx="788.4" cy="927.3" rx="8.5" ry="6.7"/>
		
			<ellipse transform="matrix(0.8081 -0.589 0.589 0.8081 -428.3172 611.9947)" class="st0" cx="725.2" cy="963.4" rx="8.4" ry="6.7"/>
	</g>
	<g>
		<path class="st1" d="M791.5,884.6c0,0-1.1-37.7,16.8-48.3c17.9-10.6,54.2-31.5,54.2-31.5s12.1-7.4,14.7-8.2c0,0,7.4-3.4,22.5,3.8
			c15.1,7.2,22.9,19.9,23.7,49l-7.6,4.4c0,0-3.5-7.1-12.4-2.5c-6.5,3.4-4.5,12.4-4.5,12.4l-46,26.5c0,0-4.3-9.9-14.2-1.9
			c-4.9,4-4.1,12.6-4.1,12.6l-7.4,4.2L791.5,884.6z"/>
		<path class="st2" d="M793.4,882.5l33,19.3c0,0,2-33.2,11.3-43.8c9.2-10.5-19.8-19.3-23.8-18.5C806.9,840.9,794,851.6,793.4,882.5z
			"/>
		<path class="st2" d="M854.9,886.9l41.8-24.1c0,0,4.8-33.4-8.2-42.6c-9.7-6.9-27-14.8-31.1-12.7c-4.1,2.2-37.9,22.2-37.9,22.2
			s24.8,9.9,29.1,14.6C852.9,849.1,856.1,854.8,854.9,886.9z"/>
		<path class="st2" d="M886.3,795.7c0,0-13.7,5-7.4,7.8s20,10.2,22.5,9.2c4.4-1.6,14.3-1.8,17.2,7.4
			C918.6,820.2,912.8,799.1,886.3,795.7z"/>
		
			<ellipse transform="matrix(0.8081 -0.589 0.589 0.8081 -331.4262 699.1658)" class="st0" cx="907.4" cy="858.3" rx="8.5" ry="6.7"/>
		
			<ellipse transform="matrix(0.8081 -0.589 0.589 0.8081 -364.8438 668.847)" class="st0" cx="844.2" cy="894.4" rx="8.4" ry="6.7"/>
	</g>
</g>
</svg>
