<?xml version="1.0" encoding="utf-8"?>
<!-- Generator: Adobe Illustrator 15.1.0, SVG Export Plug-In . SVG Version: 6.00 Build 0)  -->
<!DOCTYPE svg PUBLIC "-//W3C//DTD SVG 1.1//EN" "http://www.w3.org/Graphics/SVG/1.1/DTD/svg11.dtd">
<svg version="1.1" id="Objekte_Hintergrund" xmlns="http://www.w3.org/2000/svg" xmlns:xlink="http://www.w3.org/1999/xlink"
	 x="0px" y="0px" width="2120px" height="1280px" viewBox="0 0 2120 1280" enable-background="new 0 0 2120 1280"
	 xml:space="preserve">
<g id="Himmel">
	<rect fill="#6DB698" width="2120" height="663.658"/>
</g>
<g id="Straße">
	<rect y="658.359" fill="#D3E8DD" width="2120" height="621.641"/>
	<g>
		<polygon fill="#6DB698" points="434.529,1280.689 463.867,1279.772 1456.528,666.125 1455.53,666.117 		"/>
		<g>
			<path fill="#D3E8DD" d="M434.529,1283.189c5.884-0.184,11.767-0.368,17.651-0.552c3.232-0.101,6.464-0.202,9.696-0.303
				c0.464-0.015,1.612,0.172,2.028-0.085c1.025-0.634,2.051-1.268,3.077-1.902c6.695-4.139,13.39-8.277,20.085-12.416
				c29.201-18.051,58.401-36.103,87.602-54.154c45.015-27.827,90.03-55.654,135.044-83.482
				c54.51-33.696,109.02-67.394,163.53-101.091c57.685-35.66,115.371-71.32,173.056-106.98
				c54.542-33.717,109.083-67.434,163.625-101.15c45.078-27.866,90.155-55.732,135.233-83.6
				c29.296-18.109,58.591-36.22,87.886-54.329c7.829-4.84,15.658-9.68,23.487-14.52c0.357-0.221-0.184-5.001,0-5
				c-3.256-0.025-7.584,3.956-10.245,5.559c-9.002,5.418-18.004,10.837-27.006,16.255c-32.719,19.695-65.438,39.39-98.156,59.084
				c-47.258,28.446-94.517,56.893-141.774,85.338c-55.702,33.529-111.403,67.058-167.105,100.586
				c-58.048,34.941-116.097,69.883-174.146,104.823c-54.299,32.685-108.599,65.369-162.898,98.054
				c-44.454,26.759-88.908,53.517-133.362,80.275c-28.512,17.162-57.024,34.324-85.537,51.487
				c-7.256,4.367-14.513,8.735-21.77,13.104C433.766,1278.649,435.237,1282.763,434.529,1283.189
				c12.319-7.415,24.639-14.831,36.958-22.246c32.894-19.801,65.789-39.601,98.683-59.4c47.373-28.516,94.746-57.03,142.119-85.546
				c55.755-33.561,111.511-67.121,167.266-100.683c58.042-34.937,116.083-69.873,174.124-104.811
				c54.231-32.643,108.462-65.286,162.693-97.93c44.324-26.681,88.649-53.361,132.974-80.041
				c28.322-17.049,56.645-34.097,84.967-51.145c5.299-3.189,10.597-6.379,15.896-9.567c1.826-1.1,4.117-3.214,6.32-3.196
				c0-1.667,0-3.333,0-5c-12.479,7.714-24.956,15.428-37.435,23.142c-33.222,20.537-66.444,41.074-99.666,61.611
				c-47.646,29.454-95.292,58.908-142.938,88.362c-55.751,34.464-111.502,68.929-167.252,103.393
				c-57.536,35.567-115.072,71.136-172.608,106.703c-53.002,32.765-106.003,65.53-159.005,98.295
				c-42.148,26.055-84.296,52.11-126.444,78.166c-24.975,15.438-49.95,30.878-74.925,46.317c-3.721,2.3-7.441,4.6-11.163,6.9
				c-0.719,0.444-1.069,0.753-1.909,0.779c-9.552,0.299-19.103,0.597-28.655,0.896
				C434.439,1278.192,434.543,1283.189,434.529,1283.189z"/>
		</g>
	</g>
	<g>
		<polygon fill="#6DB698" points="1683.534,1280 1711.358,1280 1501.837,666.12 1500.828,666.12 		"/>
		<g>
			<path fill="#D3E8DD" d="M1683.534,1282.5c9.274,0,18.55,0,27.824,0c-0.048,0,0.158-4.536,0-5
				c-7.64-22.383-15.278-44.766-22.918-67.148c-18.065-52.931-36.132-105.861-54.197-158.793
				c-21.214-62.154-42.428-124.309-63.642-186.463c-17.083-50.053-34.166-100.104-51.249-150.156
				c-4.298-12.594-8.597-25.187-12.895-37.78c-0.739-2.165-3.045-13.539-5.63-13.539c0.034,0-0.14,4.531,0,5
				c6.815,22.899,13.631,45.799,20.446,68.699c16.055,53.942,32.109,107.886,48.164,161.828
				c18.707,62.852,37.413,125.704,56.119,188.556c14.771,49.627,29.54,99.253,44.311,148.88
				C1674.424,1251.889,1678.979,1267.194,1683.534,1282.5c-0.452-1.52,0.458-3.459,0-5c-6.815-22.899-13.631-45.799-20.446-68.699
				c-16.055-53.942-32.109-107.886-48.164-161.828c-18.707-62.852-37.413-125.704-56.119-188.556
				c-14.771-49.626-29.54-99.253-44.311-148.88c-4.556-15.306-9.11-30.611-13.666-45.917c0,1.667,0,3.333,0,5
				c1.813,0,1.952,2.764,2.488,4.335c1.489,4.364,2.979,8.729,4.469,13.093c5.517,16.163,11.033,32.326,16.55,48.488
				c17.997,52.731,35.995,105.463,53.992,158.194c21.218,62.167,42.437,124.335,63.655,186.503
				c17.16,50.278,34.32,100.558,51.481,150.836c5.965,17.477,11.93,34.954,17.895,52.431c0-1.667,0-3.333,0-5
				c-9.274,0-18.55,0-27.824,0C1683.496,1277.5,1683.496,1282.5,1683.534,1282.5z"/>
		</g>
	</g>
	<g>
		<polygon fill="#6DB698" points="1466.049,1280.015 1493.921,1280.015 1493.943,666.125 1492.935,666.117 		"/>
		<g>
			<path fill="#D3E8DD" d="M1466.049,1282.515c9.291,0,18.581,0,27.872,0c0.029,0,0.025-2.37,0.025-2.5
				c0.001-24.758,0.001-49.516,0.002-74.273c0.003-57.511,0.005-115.021,0.007-172.53c0.002-65.116,0.005-130.233,0.007-195.35
				c0.002-47.577,0.004-95.155,0.005-142.732c0.001-9.668,0.001-19.336,0.002-29.004c0-0.13,0.007-2.5-0.025-2.5
				c-0.336-0.003-0.673-0.005-1.009-0.008c-0.002,0.029-0.005,0.06-0.007,0.089c-1.082,24.71-2.164,49.419-3.246,74.128
				c-2.515,57.418-5.029,114.835-7.544,172.253c-2.85,65.063-5.699,130.125-8.548,195.188c-2.087,47.643-4.174,95.285-6.26,142.928
				c-0.43,9.801-0.858,19.602-1.288,29.401c-0.065,1.506,0.065,3.645,0.014,4.822c1.082-24.71,2.164-49.419,3.246-74.128
				c2.515-57.418,5.029-114.835,7.544-172.253c2.85-65.063,5.699-130.125,8.548-195.188c2.087-47.643,4.174-95.285,6.26-142.928
				c0.317-7.232,0.634-14.464,0.95-21.696c0.085-1.933,0.17-3.865,0.254-5.798c0.063-1.439-0.362-1.822,1.086-1.811
				c-0.009-0.833-0.017-1.667-0.025-2.5c0,24.758-0.001,49.516-0.002,74.273c-0.003,57.511-0.005,115.021-0.007,172.53
				c-0.002,65.116-0.005,130.233-0.007,195.35c-0.002,47.577-0.004,95.155-0.006,142.732c0,9.668,0,19.336-0.001,29.004
				c0.009-0.833,0.017-1.667,0.025-2.5c-9.291,0-18.581,0-27.872,0C1466.011,1277.515,1466.011,1282.515,1466.049,1282.515z"/>
		</g>
	</g>
	<g>
		<polygon fill="#6DB698" points="2013.939,1280 2041.765,1280 1513.831,666.119 1512.822,666.119 		"/>
		<g>
			<path fill="#D3E8DD" d="M2013.939,1282.5c9.275,0,18.55,0,27.825,0c-0.158,0,0.314-4.635,0-5
				c-12.735-14.809-25.471-29.617-38.205-44.425c-31.927-37.124-63.853-74.248-95.778-111.372
				c-41.699-48.486-83.397-96.973-125.096-145.46c-42.051-48.897-84.103-97.795-126.154-146.692
				c-32.985-38.355-65.972-76.712-98.957-115.067c-14.501-16.862-29.003-33.724-43.504-50.586c-0.374-0.436-0.547-0.278-1.248-0.278
				c0.152,0-0.307,4.625,0,5c12.589,15.422,25.178,30.843,37.766,46.265c31.406,38.473,62.813,76.946,94.219,115.42
				c40.684,49.838,81.367,99.677,122.051,149.516c40.422,49.517,80.843,99.034,121.265,148.551
				c30.619,37.51,61.238,75.019,91.857,112.527C1991.299,1254.766,2002.619,1268.633,2013.939,1282.5c-0.801-0.981,0.831-3.981,0-5
				c-12.589-15.422-25.178-30.843-37.766-46.265c-31.406-38.473-62.813-76.946-94.219-115.42
				c-40.684-49.838-81.367-99.677-122.051-149.516c-40.422-49.517-80.843-99.034-121.265-148.551
				c-30.619-37.51-61.238-75.019-91.857-112.527c-11.319-13.868-22.64-27.735-33.96-41.603c0,1.667,0,3.333,0,5
				c1.648,0,2.366,1.578,3.416,2.799c2.447,2.846,4.895,5.692,7.343,8.538c9.247,10.753,18.494,21.505,27.741,32.258
				c31.781,36.955,63.562,73.91,95.343,110.864c41.647,48.428,83.294,96.854,124.941,145.282
				c42.095,48.947,84.189,97.896,126.284,146.843c33.123,38.516,66.246,77.031,99.369,115.546
				c14.732,17.132,29.465,34.263,44.197,51.394c0.103,0.119,0.205,0.238,0.308,0.357c0-1.667,0-3.333,0-5c-9.275,0-18.55,0-27.825,0
				C2013.901,1277.5,2013.901,1282.5,2013.939,1282.5z"/>
		</g>
	</g>
	<g>
		<polygon fill="#6DB698" points="1796.501,1280 1824.142,1280 1505.94,666.124 1504.928,666.116 		"/>
		<g>
			<path fill="#D3E8DD" d="M1796.501,1282.5c9.214,0,18.427,0,27.641,0c-0.096,0,0.226-4.564,0-5
				c-10.296-19.862-20.592-39.726-30.888-59.588c-24.817-47.878-49.635-95.757-74.452-143.635
				c-30.235-58.329-60.47-116.658-90.704-174.987c-26.548-51.216-53.095-102.431-79.643-153.646
				c-13.756-26.537-27.511-53.074-41.267-79.611c-0.686-1.322-0.737-2.404-2.261-2.416c0.092,0.001-0.212,4.555,0,5
				c9.745,20.517,19.489,41.033,29.234,61.55c23.372,49.209,46.745,98.418,70.117,147.627
				c28.209,59.391,56.417,118.781,84.625,178.171c24.252,51.061,48.504,102.12,72.756,153.181
				c11.503,24.219,23.006,48.438,34.509,72.656C1796.279,1282.034,1796.391,1282.268,1796.501,1282.5c-0.639-1.345,0.652-3.626,0-5
				c-9.745-20.517-19.489-41.033-29.234-61.55c-23.372-49.209-46.745-98.418-70.117-147.627
				c-28.208-59.391-56.417-118.781-84.625-178.171c-24.252-51.061-48.504-102.12-72.756-153.181
				c-11.503-24.219-23.006-48.438-34.509-72.656c-0.11-0.233-0.222-0.466-0.332-0.699c0,1.667,0,3.333,0,5
				c1.77,0.014,2.224,2.343,2.991,3.824c1.998,3.855,3.997,7.711,5.995,11.566c7.447,14.368,14.896,28.737,22.344,43.105
				c24.717,47.685,49.435,95.37,74.152,143.055c30.226,58.312,60.451,116.623,90.677,174.935
				c26.63,51.374,53.259,102.748,79.888,154.121c13.929,26.871,27.857,53.742,41.786,80.613c0.46,0.888,0.921,1.775,1.381,2.664
				c0-1.667,0-3.333,0-5c-9.214,0-18.427,0-27.641,0C1796.463,1277.5,1796.463,1282.5,1796.501,1282.5z"/>
		</g>
	</g>
	<g>
		<polygon fill="#6DB698" points="1524.225,666.681 1523.216,666.681 2119.313,1126.77 2119.313,1111.01 		"/>
		<g>
			<path fill="#D3E8DD" d="M1524.225,664.181c-0.336,0-0.673,0-1.009,0c0.19,0-0.359,4.723,0,5
				c16.47,12.712,32.939,25.424,49.41,38.136c40.596,31.334,81.192,62.668,121.789,94.002
				c51.503,39.752,103.006,79.504,154.509,119.255c49.189,37.967,98.379,75.933,147.568,113.898
				c33.655,25.978,67.312,51.954,100.967,77.931c7.285,5.623,14.569,11.245,21.854,16.867c-0.204-0.158,0.025-2.237,0.025-2.5
				c0-5.475,0.014-10.949-0.001-16.425c-0.004-1.274,0.271-1.614-0.592-2.259c-2.059-1.537-4.116-3.073-6.175-4.61
				c-10.18-7.601-20.359-15.202-30.54-22.803c-38.604-28.825-77.21-57.65-115.815-86.475
				c-51.483-38.441-102.968-76.883-154.451-115.323c-50.626-37.801-101.251-75.601-151.877-113.4
				c-36.029-26.902-72.059-53.804-108.088-80.705C1542.607,677.906,1533.416,671.044,1524.225,664.181c0.774,0.578-0.823,4.386,0,5
				c16.857,12.587,33.714,25.173,50.571,37.76c41.412,30.921,82.825,61.842,124.238,92.764
				c52.23,38.999,104.462,77.997,156.692,116.996c49.312,36.819,98.624,73.639,147.936,110.458
				c32.655,24.382,65.311,48.765,97.965,73.146c5.896,4.402,11.791,8.804,17.686,13.205c-0.008-0.833-0.017-1.667-0.025-2.5
				c0,5.253,0,10.507,0,15.76c0.009-0.833,0.018-1.667,0.025-2.5c-16.47-12.712-32.939-25.424-49.41-38.137
				c-40.596-31.333-81.192-62.667-121.789-94.001c-51.503-39.752-103.006-79.503-154.509-119.255
				c-49.189-37.967-98.378-75.933-147.567-113.898c-33.656-25.978-67.313-51.954-100.968-77.931
				c-7.285-5.622-14.569-11.245-21.854-16.867c0,1.667,0,3.333,0,5c0.336,0,0.673,0,1.009,0
				C1524.263,669.181,1524.263,664.181,1524.225,664.181z"/>
		</g>
	</g>
	<g>
		<polygon fill="#6DB698" points="1516.797,666.406 2102.367,1280 2120,1280 2120,1269.838 1517.813,666.414 		"/>
		<g>
			<path fill="#D3E8DD" d="M1516.797,668.906c12.939,13.56,25.88,27.118,38.819,40.678c32.765,34.332,65.529,68.664,98.293,102.996
				c43.505,45.588,87.011,91.175,130.516,136.762c45.163,47.324,90.326,94.649,135.489,141.974
				c37.737,39.543,75.475,79.086,113.212,118.63c21.229,22.244,42.457,44.488,63.686,66.732c1.663,1.743,3.326,3.486,4.989,5.229
				c0.285,0.299,0.428,0.594,0.842,0.594c5.786,0,11.572,0,17.357,0c0.029,0,0.025-2.37,0.025-2.5c0-2.858,0-5.716,0-8.574
				c0-0.745,0.42-3.642-0.035-4.098c-0.281-0.282-0.563-0.563-0.844-0.845c-1.864-1.868-3.729-3.736-5.592-5.604
				c-8.434-8.45-16.866-16.9-25.299-25.351c-31.653-31.719-63.308-63.438-94.961-95.156
				c-43.696-43.786-87.393-87.571-131.088-131.357c-46.528-46.624-93.057-93.247-139.585-139.871
				c-40.15-40.232-80.301-80.466-120.45-120.698c-24.563-24.612-49.124-49.225-73.686-73.837c-2.661-2.667-5.322-5.333-7.984-8
				c-1.154-1.157-2.037-2.689-3.705-2.702C1516.771,663.906,1516.746,668.906,1516.797,668.906c1.611,0.013,2.376,1.37,3.497,2.494
				c2.528,2.532,5.056,5.065,7.584,7.599c9.588,9.607,19.175,19.215,28.763,28.822c33.272,33.341,66.545,66.681,99.817,100.021
				c44.394,44.485,88.787,88.971,133.181,133.455c46.305,46.4,92.61,92.8,138.915,139.2
				c39.006,39.086,78.012,78.172,117.017,117.258c22.497,22.543,44.993,45.085,67.49,67.628c2.313,2.318,4.626,4.636,6.939,6.954
				c-0.008-0.833-0.017-1.667-0.025-2.5c0,3.388,0,6.774,0,10.162c0.009-0.833,0.018-1.667,0.025-2.5c-5.785,0-11.571,0-17.357,0
				c-0.414,0-0.557-0.295-0.842-0.594c-1.663-1.742-3.326-3.485-4.989-5.229c-7.983-8.364-15.966-16.729-23.949-25.095
				c-30.618-32.083-61.236-64.167-91.854-96.25c-42.586-44.624-85.171-89.247-127.757-133.871
				c-45.47-47.646-90.939-95.291-136.408-142.937c-39.271-41.149-78.541-82.299-117.811-123.448
				c-23.987-25.136-47.976-50.271-71.963-75.406c-3.424-3.589-6.849-7.177-10.272-10.765
				C1517.611,664.759,1515.947,668.016,1516.797,668.906z"/>
		</g>
	</g>
	<g>
		<polygon fill="#6DB698" points="1345.889,1280.015 1374.889,1280.015 1489.592,666.097 1488.585,666.097 		"/>
		<g>
			<path fill="#D3E8DD" d="M1345.889,1282.515c2.927,0,28.828,0.922,29.014-0.075c0.389-2.08,0.777-4.161,1.166-6.241
				c2.434-13.022,4.867-26.045,7.3-39.068c9.537-51.045,19.074-102.09,28.611-153.135c12.047-64.479,24.094-128.956,36.141-193.434
				c10.095-54.03,20.19-108.061,30.285-162.091c3.729-19.958,7.458-39.916,11.187-59.874c0.09-0.479,0.001-5,0-5
				c-1.831,0-1.699,2.979-2.071,4.581c-1.071,4.606-2.142,9.213-3.212,13.819c-3.954,17.008-7.907,34.016-11.86,51.024
				c-12.795,55.046-25.589,110.092-38.384,165.138c-14.817,63.748-29.635,127.496-44.452,191.244
				c-11.446,49.245-22.893,98.489-34.339,147.734c-3.128,13.459-6.257,26.918-9.385,40.377
				C1345.52,1279.104,1346.254,1280.942,1345.889,1282.515c5.479-23.572,10.958-47.146,16.438-70.718
				c12.842-55.248,25.683-110.496,38.524-165.744c14.811-63.718,29.621-127.436,44.431-191.153
				c11.386-48.982,22.771-97.965,34.156-146.947c2.265-9.743,4.529-19.485,6.793-29.228c0.443-1.906,1.104-10.128,3.361-10.128
				c0-1.667,0-3.333,0-5c-4.482,23.99-8.965,47.979-13.446,71.97c-10.473,56.049-20.944,112.099-31.417,168.147
				c-12,64.229-24,128.457-36.001,192.686c-9.066,48.526-18.133,97.054-27.199,145.58c-1.935,10.353-3.868,20.704-5.803,31.057
				c-0.278,1.489-0.557,2.979-0.835,4.47c-0.164,0.876-26.152,0.009-29.002,0.009
				C1345.851,1277.515,1345.851,1282.515,1345.889,1282.515z"/>
		</g>
	</g>
	<g>
		<polygon fill="#6DB698" points="1128.707,1280.015 1157.493,1280.005 1481.692,666.127 1480.688,666.118 		"/>
		<g>
			<path fill="#D3E8DD" d="M1128.707,1282.515c5.773-0.002,11.546-0.004,17.318-0.006c1.133,0,11.01,0.863,11.5-0.064
				c0.892-1.689,1.784-3.379,2.676-5.068c5.639-10.676,11.277-21.353,16.916-32.029c22.682-42.948,45.363-85.896,68.045-128.845
				c30.247-57.273,60.494-114.546,90.74-171.819c28.643-54.234,57.284-108.469,85.927-162.703
				c17.867-33.833,35.735-67.665,53.603-101.498c2.087-3.951,4.174-7.903,6.261-11.854c0.228-0.431-0.09-5.001,0-5
				c-1.746-0.016-2.274,2.206-3.097,3.64c-2.116,3.69-4.231,7.38-6.347,11.069c-7.901,13.781-15.803,27.562-23.704,41.343
				c-26.37,45.992-52.74,91.984-79.109,137.977c-32.624,56.899-65.247,113.799-97.87,170.697
				c-29.474,51.405-58.946,102.81-88.42,154.215c-16.919,29.509-33.839,59.019-50.758,88.527c-1.227,2.14-2.454,4.28-3.681,6.42
				C1127.979,1278.784,1129.416,1281.277,1128.707,1282.515c10.916-19.039,21.832-38.078,32.748-57.116
				c26.479-46.183,52.958-92.365,79.438-138.548c32.638-56.926,65.276-113.851,97.915-170.776
				c29.394-51.267,58.788-102.534,88.183-153.801c16.746-29.207,33.492-58.415,50.238-87.623c0.95-1.656,2.352-6.042,4.464-6.023
				c0-1.667,0-3.333,0-5c-10.415,19.722-20.831,39.443-31.246,59.165c-25.133,47.59-50.266,95.179-75.398,142.769
				c-30.681,58.094-61.361,116.188-92.042,174.283c-27.059,51.235-54.116,102.471-81.175,153.707
				c-14.267,27.014-28.533,54.028-42.8,81.043c-0.152,0.287-1.239,2.911-1.582,2.911c-9.581,0.003-19.161,0.007-28.742,0.01
				C1128.669,1277.515,1128.67,1282.515,1128.707,1282.515z"/>
		</g>
	</g>
	<g>
		<polygon fill="#6DB698" points="652.89,1280.851 680.755,1280.846 1464.466,666.116 1463.458,666.116 		"/>
		<g>
			<path fill="#D3E8DD" d="M652.89,1283.351c5.955-0.001,11.91-0.002,17.865-0.003c2.97-0.001,5.939-0.001,8.909-0.002
				c0.29,0,0.903,0.146,1.158-0.053c1.127-0.884,2.253-1.768,3.38-2.651c6.988-5.481,13.976-10.962,20.963-16.443
				c29.629-23.24,59.259-46.481,88.888-69.722c44.247-34.706,88.493-69.412,132.739-104.119
				c51.358-40.284,102.716-80.568,154.073-120.853c50.964-39.975,101.928-79.95,152.892-119.925
				c43.064-33.779,86.129-67.559,129.193-101.337c27.658-21.695,55.317-43.391,82.977-65.086c6.18-4.847,12.358-9.694,18.538-14.541
				c0.358-0.281-0.189-5,0-5c-1.465,0-2.197,0.902-3.363,1.786c-2.415,1.832-4.829,3.663-7.244,5.494
				c-9.266,7.027-18.532,14.055-27.798,21.082c-33.084,25.091-66.169,50.183-99.254,75.273
				c-46.405,35.194-92.812,70.389-139.217,105.583c-52.428,39.761-104.855,79.521-157.283,119.282
				c-51.15,38.793-102.3,77.585-153.451,116.377c-42.573,32.288-85.147,64.576-127.721,96.863
				c-26.698,20.248-53.396,40.496-80.093,60.743c-5.384,4.083-10.768,8.167-16.152,12.25
				C652.064,1278.977,653.668,1282.761,652.89,1283.351c12.707-9.637,25.414-19.273,38.12-28.91
				c33.254-25.22,66.508-50.439,99.762-75.659c46.502-35.268,93.004-70.534,139.506-105.802
				c52.451-39.778,104.902-79.558,157.353-119.336c51.101-38.755,102.201-77.51,153.302-116.265
				c42.451-32.194,84.902-64.389,127.353-96.584c26.503-20.1,53.005-40.198,79.507-60.298c3.92-2.973,7.841-5.946,11.761-8.919
				c1.458-1.105,3.029-2.962,4.913-2.962c0-1.667,0-3.333,0-5c-12.775,10.021-25.55,20.041-38.325,30.062
				c-33.321,26.137-66.643,52.273-99.965,78.41c-46.362,36.366-92.725,72.732-139.087,109.098
				c-51.897,40.708-103.795,81.416-155.693,122.123c-49.927,39.163-99.855,78.325-149.782,117.487
				c-40.452,31.729-80.904,63.459-121.355,95.188c-23.47,18.41-46.941,36.82-70.411,55.23c-2.778,2.179-5.556,4.357-8.334,6.536
				c-0.999,0.784-1.335,0.595-2.822,0.595c-8.601,0.002-17.201,0.003-25.801,0.005
				C652.852,1278.351,652.853,1283.351,652.89,1283.351z"/>
		</g>
	</g>
</g>
<g id="Gebäude">
	<polygon fill="#009E78" points="2120,623.359 2059.055,623.359 2059.055,591.359 2021.3,591.359 2021.3,623.359 2005.055,623.359 
		2005.055,579.359 1979.055,579.359 1979.055,611.359 1951.055,611.359 1951.055,601.359 1936.055,586.359 1936.055,623.359 
		1885.055,623.359 1857.055,595.359 1829.926,568.231 1829.926,623.359 1793.055,623.359 1741.055,623.359 1741.055,595.795 
		1708.053,606.484 1697.055,615.359 1665.055,615.359 1650.272,600.577 1605.055,600.577 1575.055,600.577 1575.055,587.359 
		1531.055,587.359 1531.055,607.359 1517.055,607.359 1517.055,568.231 1489.055,568.231 1489.055,611.359 1475.055,611.359 
		1475.055,623.359 1465.055,623.359 1465.055,545.359 1429.055,545.359 1429.055,597.359 1389.055,597.359 1389.055,623.359 
		1305.055,623.359 1305.055,603.359 1289.055,603.359 1289.055,615.359 1277.055,627.359 1277.055,586.359 1173.055,586.359 
		1173.055,627.359 1157.055,627.359 1157.055,615.359 1061.3,615.359 1061.3,561.359 991.055,561.359 991.055,607.359 
		959.055,607.359 959.055,640 949.055,640 851.055,640 851.055,621.359 833.055,621.359 803.761,650.652 786.082,632.973 
		759.085,605.976 759.085,598.006 741.393,615.698 701.055,615.698 645.055,615.698 645.055,598.006 615.055,598.006 
		589.378,623.683 567.055,623.683 497.055,623.683 477.216,603.844 429.055,603.844 418.297,614.602 372.055,568.359 
		323.055,568.359 323.055,585.359 265.055,585.359 265.055,575.359 232.055,578.359 209.055,585.859 209.055,598.006 
		183.055,583.859 151.378,589.683 147.305,585.609 131.055,569.359 99.055,569.359 99.055,598.006 61.055,598.006 61.055,577.359 
		44.055,584.359 44.055,594.506 15.055,594.506 15.055,563.359 0,563.359 0,667.609 1365.055,667.609 2120,650.652 	"/>
	<polygon fill="#33365B" points="1531.805,655.859 1435.055,655.859 1435.055,672.109 1444.555,667.609 1525.953,667.609 
		1531.805,672.109 	"/>
	<rect x="1779.055" y="503.662" fill="#009E78" width="144" height="71.698"/>
	<polygon fill="#6DB698" points="1779.055,735.359 1708.053,712.357 1708.053,538.36 1779.055,503.662 	"/>
	<polygon fill="#6DB698" points="1895.07,534.343 1779.091,565.757 1779.091,735.336 1895.07,772.894 	"/>
	<rect x="1895.07" y="534.343" fill="#009E78" width="224.93" height="238.551"/>
	<polygon fill="#6DB698" points="1699.027,695.14 1651.319,683.009 1651.319,634.693 1699.027,632.176 	"/>
	<polygon fill="#6DB698" points="1651.319,679.692 1612.388,670.614 1612.389,642.026 1651.32,641.708 	"/>
	<rect x="1699.027" y="632.176" fill="#009E78" width="9.025" height="62.963"/>
	<rect x="1382.805" y="646.109" fill="#6DB698" width="18.25" height="28"/>
	<rect x="1401.055" y="650.652" fill="#6DB698" width="34" height="21.457"/>
	<rect x="1565.805" y="646.109" fill="#6DB698" width="18.25" height="28"/>
	<polygon fill="#6DB698" points="1531.805,650.652 1565.805,650.652 1565.805,672.109 1531.805,672.109 1531.805,666.359 	"/>
	<path fill="#6DB698" d="M1435.055,655.859v-5.207c0,0,14-20.793,48.375-20.793c27.625,0,48.375,20.793,48.375,20.793v5.207
		H1435.055z"/>
	<rect x="1584.055" y="650.652" fill="#6DB698" width="28.333" height="8.457"/>
	<rect y="592.497" fill="#009E78" width="291.755" height="152.687"/>
	<polygon fill="#33365B" points="229.234,589.87 533.695,602.659 533.695,724.57 229.234,750.435 	"/>
	<polygon fill="#33365B" points="1.852,625.589 231.351,628.267 231.351,750.255 1.852,769.751 	"/>
	<polygon fill="#0F1029" points="1372.021,677.548 1373.442,670.296 1372.73,664.324 1368.041,661.908 1367.188,651.695 
		1375.575,647.264 1384.39,652.81 1385.67,655.652 1382.969,657.217 1383.821,664.04 1375.978,666.741 1374.348,671.576 
		1373.586,674.957 1374.579,677.548 1373.158,678.258 	"/>
	<polygon fill="#0F1029" points="1382.257,684.371 1382.96,675.435 1381.688,671.006 1377.508,666.741 1377.567,664.183 
		1372.874,660.485 1374.348,652.76 1380.855,646.924 1384.39,649.254 1388.654,647.264 1395.623,650.249 1395.623,654.372 
		1390.646,661.908 1390.138,666.743 1384.249,670.58 1384.958,676.836 1384.249,682.808 1384.958,683.804 1383.537,684.371 	"/>
	<polygon fill="#33365B" points="1371.808,649.254 1374.348,649.684 1375.435,648.259 1377.778,649.684 1378.456,649.075 
		1375.575,647.264 	"/>
	<polygon fill="#33365B" points="1386.95,649.965 1388.475,648.474 1390.256,647.95 1393.775,650.533 1395.623,654.372 
		1392.067,657.538 1392.495,659.478 1388.514,659.064 1391.215,653.661 1387.374,651.387 	"/>
	<polygon fill="#33365B" points="1377.28,652.523 1378.996,654.308 1381.688,652.523 1380.003,650.574 1379.131,651.955 	"/>
	<polygon fill="#33365B" points="1385.67,658.354 1385.67,661.197 1384.249,661.908 1384.533,659.491 1384.958,660.202 	"/>
	<polygon fill="#0F1029" points="1343.587,681.76 1345.008,674.508 1344.296,668.536 1339.606,666.12 1338.754,655.907 
		1347.141,651.476 1355.955,657.021 1357.235,659.864 1354.534,661.429 1355.387,668.252 1347.543,670.953 1345.913,675.788 
		1345.151,679.169 1346.145,681.76 1344.724,682.47 	"/>
	<polygon fill="#0F1029" points="1353.822,688.583 1354.525,679.646 1353.254,675.218 1349.073,670.953 1349.133,668.395 
		1344.439,664.697 1345.913,656.972 1352.421,651.136 1355.955,653.466 1360.22,651.476 1367.188,654.461 1367.188,658.584 
		1362.212,666.12 1361.703,670.955 1355.814,674.792 1356.523,681.048 1355.814,687.02 1356.523,688.016 1355.103,688.583 	"/>
	<polygon fill="#33365B" points="1343.373,653.466 1345.913,653.896 1347,652.471 1349.344,653.896 1350.021,653.287 
		1347.141,651.476 	"/>
	<polygon fill="#33365B" points="1358.516,654.177 1360.04,652.686 1361.821,652.162 1365.341,654.745 1367.188,658.584 
		1363.633,661.75 1364.061,663.689 1360.079,663.276 1362.78,657.873 1358.939,655.599 	"/>
	<polygon fill="#33365B" points="1348.846,656.735 1350.562,658.52 1353.254,656.735 1351.568,654.786 1350.696,656.167 	"/>
	<polygon fill="#33365B" points="1357.235,662.565 1357.235,665.409 1355.814,666.12 1356.099,663.703 1356.523,664.414 	"/>
	<g>
		<polygon fill="#0F1029" points="1610.962,687.591 1611.445,673.918 1613.325,660.298 1603.094,650.574 1604.362,644.893 
			1598.221,641.361 1609.134,630.32 1613.409,630.992 1617.284,625.968 1635.466,628.492 1641.037,635.247 1629.881,643.971 
			1628.979,652.637 1616.66,660.325 1614.479,667.188 1614.253,677.423 1616.477,685.724 1614.153,688.423 		"/>
		<polygon fill="#33365B" points="1615.464,628.326 1622.143,631.783 1626.946,633.945 1626.119,635.638 1623.155,639.479 
			1625.678,644.597 1627.574,644.314 1626.447,649.189 1625.202,654.993 1628.983,652.735 1630.01,643.951 1641.037,635.248 
			1628.555,625.336 1617.556,625.928 		"/>
		<polygon fill="#33365B" points="1615.376,632.791 1612.684,634.461 1615.717,634.833 1617.883,634.51 		"/>
		<polygon fill="#0F1029" points="1639.532,701.8 1639.05,688.127 1637.171,674.508 1647.402,664.784 1646.134,659.103 
			1652.275,655.571 1641.361,644.53 1637.086,645.2 1633.212,640.178 1615.029,642.701 1609.458,649.456 1620.615,658.181 
			1621.517,666.846 1633.836,674.534 1636.015,681.397 1636.242,691.633 1634.019,699.933 1636.341,702.633 		"/>
		<polygon fill="#33365B" points="1635.03,642.535 1628.353,645.992 1623.55,648.155 1624.377,649.848 1627.339,653.688 
			1624.818,658.807 1622.922,658.523 1624.048,663.399 1625.292,669.203 1621.511,666.944 1620.485,658.161 1609.458,649.457 
			1621.94,639.546 1632.939,640.137 		"/>
		<polygon fill="#33365B" points="1635.12,647.001 1637.813,648.671 1634.777,649.042 1632.613,648.72 		"/>
	</g>
</g>
</svg>
