<?xml version="1.0" encoding="utf-8"?>
<!-- Generator: Adobe Illustrator 15.1.0, SVG Export Plug-In . SVG Version: 6.00 Build 0)  -->
<!DOCTYPE svg PUBLIC "-//W3C//DTD SVG 1.1//EN" "http://www.w3.org/Graphics/SVG/1.1/DTD/svg11.dtd">
<svg version="1.1" id="Verdeckung" xmlns="http://www.w3.org/2000/svg" xmlns:xlink="http://www.w3.org/1999/xlink" x="0px" y="0px"
	 width="4040px" height="1280px" viewBox="0 0 4040 1280" enable-background="new 0 0 4040 1280" xml:space="preserve">
<pattern  x="1599.055" y="342.359" width="122.188" height="122.129" patternUnits="userSpaceOnUse" id="Punkte_x5F_dunkel" viewBox="0.447 -122.253 122.188 122.129" overflow="visible">
	<g>
		<polygon fill="none" points="0.447,-0.125 122.635,-0.125 122.635,-122.253 0.447,-122.253 		"/>
		<path fill-rule="evenodd" clip-rule="evenodd" fill="#141328" d="M14.831-122.232c0.443,0,0.888,0,1.331,0
			C16.425-120.951,14.569-120.951,14.831-122.232z"/>
		<path fill-rule="evenodd" clip-rule="evenodd" fill="#141328" d="M78.032-122.232c-0.08,0.585-0.572,0.758-1.33,0.665
			C76.366-122.567,77.442-122.156,78.032-122.232z"/>
		<path fill-rule="evenodd" clip-rule="evenodd" fill="#141328" d="M102.314-121.899c0.104-0.452,0.833-0.276,1.331-0.333
			C103.553-121.461,102.757-121.467,102.314-121.899z"/>
		<path fill-rule="evenodd" clip-rule="evenodd" fill="#141328" d="M34.124-121.899c0,0.444,0,0.887,0,1.331
			c-0.636-0.14-1.432-0.121-1.33-0.998C33.09-121.825,33.545-121.924,34.124-121.899z"/>
		<path fill-rule="evenodd" clip-rule="evenodd" fill="#141328" d="M57.741-121.899c0.223,0,0.443,0,0.666,0
			c-0.061,0.283,0.129,0.313,0.332,0.333c0,0.222,0,0.444,0,0.666c-0.283-0.061-0.313,0.129-0.332,0.333c-0.223,0-0.443,0-0.666,0
			c0.062-0.283-0.129-0.314-0.332-0.333c0-0.222,0-0.443,0-0.666C57.692-121.506,57.723-121.696,57.741-121.899z"/>
		<path fill-rule="evenodd" clip-rule="evenodd" fill="#141328" d="M120.942-121.899c0.559,1.579-1.914,1.834-1.663,0.333
			C119.665-121.846,120.171-122.005,120.942-121.899z"/>
		<path fill-rule="evenodd" clip-rule="evenodd" fill="#141328" d="M67.056-120.901c-0.413,1.018-0.967,1.062-1.663,0.333
			C65.426-121.415,66.632-121.354,67.056-120.901z"/>
		<path fill-rule="evenodd" clip-rule="evenodd" fill="#141328" d="M110.631-120.901c0.325,1.34-1.988,1.34-1.663,0
			C109.795-120.938,109.997-121.525,110.631-120.901z"/>
		<path fill-rule="evenodd" clip-rule="evenodd" fill="#141328" d="M8.179-120.236c0.869-0.093,1.664-0.112,1.33,0.998
			C8.64-119.145,8.079-119.36,8.179-120.236z"/>
		<path fill-rule="evenodd" clip-rule="evenodd" fill="#141328" d="M81.691-120.236c0.726-0.061,1.059,0.272,0.998,0.998
			c-0.333,0-0.665,0-0.998,0C81.691-119.571,81.691-119.903,81.691-120.236z"/>
		<path fill-rule="evenodd" clip-rule="evenodd" fill="#141328" d="M26.807-119.238c0.876-0.1,1.092,0.461,0.997,1.331
			c-0.869,0.094-1.431-0.122-1.33-0.998C26.757-118.845,26.788-119.035,26.807-119.238z"/>
		<path fill-rule="evenodd" clip-rule="evenodd" fill="#141328" d="M46.765-118.906c0.87-0.094,1.431,0.122,1.33,0.998
			C47.635-117.417,46.513-117.735,46.765-118.906z"/>
		<path fill-rule="evenodd" clip-rule="evenodd" fill="#141328" d="M62.065-118.906c0.953-0.065,1.816-0.042,1.663,0.998
			C62.894-117.621,61.947-117.473,62.065-118.906z"/>
		<path fill-rule="evenodd" clip-rule="evenodd" fill="#141328" d="M92.336-118.906c0.094,0.87-0.122,1.431-0.998,1.331
			c-0.177-0.268-0.347-0.54-0.333-0.998C91.301-118.832,91.756-118.931,92.336-118.906z"/>
		<path fill-rule="evenodd" clip-rule="evenodd" fill="#141328" d="M2.524-118.573c0.537-0.094,0.572,0.314,0.998,0.333
			c0.242,0.907-0.662,0.669-0.666,1.331C2.01-116.943,2.071-118.149,2.524-118.573z"/>
		<path fill-rule="evenodd" clip-rule="evenodd" fill="#141328" d="M20.819-118.573c0,0.333,0,0.666,0,0.998
			c-0.695,0.141-0.881-0.228-1.331-0.333C19.568-118.493,20.061-118.666,20.819-118.573z"/>
		<path fill-rule="evenodd" clip-rule="evenodd" fill="#141328" d="M41.774-118.573c0.444,0,0.888,0,1.331,0
			c0.141,0.695-0.228,0.881-0.332,1.331C41.896-117.142,41.681-117.703,41.774-118.573z"/>
		<path fill-rule="evenodd" clip-rule="evenodd" fill="#141328" d="M53.75-118.573c0.141,0.695-0.229,0.881-0.333,1.331
			C52.452-117.303,52.616-118.823,53.75-118.573z"/>
		<path fill-rule="evenodd" clip-rule="evenodd" fill="#141328" d="M72.378-118.24c0,0.443,0,0.887,0,1.331
			c-0.87,0.094-1.432-0.122-1.331-0.998C71.343-118.166,71.798-118.266,72.378-118.24z"/>
		<path fill-rule="evenodd" clip-rule="evenodd" fill="#141328" d="M14.831-115.912c-0.772-0.114-1.559-0.215-1.33-1.33
			C14.636-118.06,15.726-116.97,14.831-115.912z"/>
		<path fill-rule="evenodd" clip-rule="evenodd" fill="#141328" d="M36.786-117.575c0.041,0.597-0.408,0.702-0.333,1.331
			c-0.87,0.093-1.431-0.122-1.331-0.998C35.509-117.521,36.014-117.681,36.786-117.575z"/>
		<path fill-rule="evenodd" clip-rule="evenodd" fill="#141328" d="M116.951-114.581c-1.012,0.013-2.189,0.193-1.996-0.998
			C115.611-116.196,117.404-116.074,116.951-114.581z"/>
		<path fill-rule="evenodd" clip-rule="evenodd" fill="#141328" d="M99.653-115.579c0.443,0,0.888,0,1.331,0
			c0.154,1.041-0.289,1.484-1.331,1.331C99.653-114.692,99.653-115.136,99.653-115.579z"/>
		<path fill-rule="evenodd" clip-rule="evenodd" fill="#141328" d="M110.631-114.914c0.042,0.597-0.407,0.702-0.333,1.331
			c-1.041,0.154-1.484-0.289-1.33-1.331C109.991-115.147,109.606-115.147,110.631-114.914z"/>
		<path fill-rule="evenodd" clip-rule="evenodd" fill="#141328" d="M60.069-113.916c-0.443,0-0.887,0-1.33,0
			C58.478-115.197,60.332-115.197,60.069-113.916z"/>
		<path fill-rule="evenodd" clip-rule="evenodd" fill="#141328" d="M67.056-114.914c0.597-0.042,0.701,0.407,1.33,0.333
			c0.152,1.039-0.711,1.063-1.662,0.998C66.582-114.278,66.95-114.464,67.056-114.914z"/>
		<path fill-rule="evenodd" clip-rule="evenodd" fill="#141328" d="M121.94-113.583c-0.695,0.141-0.881-0.228-1.33-0.333
			C120.67-114.881,122.191-114.718,121.94-113.583z"/>
		<path fill-rule="evenodd" clip-rule="evenodd" fill="#141328" d="M16.162-114.249c1.151-0.233,1.192,1.166,0.665,1.663
			C15.676-112.353,15.634-113.752,16.162-114.249z"/>
		<path fill-rule="evenodd" clip-rule="evenodd" fill="#141328" d="M47.763-114.249c0.443,0,0.887,0,1.33,0c0,0.443,0,0.887,0,1.33
			C47.947-112.66,47.505-113.104,47.763-114.249z"/>
		<path fill-rule="evenodd" clip-rule="evenodd" fill="#141328" d="M78.365-113.583c0.151,1.039-0.711,1.063-1.663,0.998
			c0.042-0.597-0.407-0.702-0.332-1.331C77.219-114.17,77.898-114.406,78.365-113.583z"/>
		<path fill-rule="evenodd" clip-rule="evenodd" fill="#141328" d="M93.333-113.25C92.559-110.417,90.642-114.826,93.333-113.25
			L93.333-113.25z"/>
		<path fill-rule="evenodd" clip-rule="evenodd" fill="#141328" d="M9.177-113.25c0,0.332,0,0.665,0,0.998
			c-0.59-0.076-1.666,0.335-1.33-0.666C8.142-113.177,8.597-113.276,9.177-113.25z"/>
		<path fill-rule="evenodd" clip-rule="evenodd" fill="#141328" d="M23.48-113.25c1-0.335,0.589,0.741,0.665,1.33
			c-0.333,0-0.665,0-0.998,0C23.007-112.615,23.376-112.801,23.48-113.25z"/>
		<path fill-rule="evenodd" clip-rule="evenodd" fill="#141328" d="M54.748-113.25c0.952-0.066,1.815-0.042,1.663,0.998
			C55.77-111.606,54.375-111.905,54.748-113.25z"/>
		<path fill-rule="evenodd" clip-rule="evenodd" fill="#141328" d="M2.191-112.918c0,0.333,0,0.666,0,0.998
			c-0.695,0.141-0.881-0.228-1.33-0.333C0.941-112.838,1.433-113.011,2.191-112.918z"/>
		<path fill-rule="evenodd" clip-rule="evenodd" fill="#141328" d="M87.014-112.918c0,0.444,0,0.887,0,1.331
			c-0.443,0-0.888,0-1.331,0C85.528-112.629,85.973-113.072,87.014-112.918z"/>
		<path fill-rule="evenodd" clip-rule="evenodd" fill="#141328" d="M30.132-112.585c0.586,0.08,0.759,0.572,0.666,1.331
			c-0.332,0-0.666,0-0.998,0C29.659-111.95,30.028-112.136,30.132-112.585z"/>
		<path fill-rule="evenodd" clip-rule="evenodd" fill="#141328" d="M37.783-112.253c0.443,0,0.888,0,1.331,0
			c0.141,0.695-0.229,0.881-0.333,1.331C37.905-110.822,37.689-111.383,37.783-112.253z"/>
		<path fill-rule="evenodd" clip-rule="evenodd" fill="#141328" d="M98.989-109.925c-0.444,0-0.889,0-1.331,0
			C97.36-111.473,99.421-111.63,98.989-109.925z"/>
		<path fill-rule="evenodd" clip-rule="evenodd" fill="#141328" d="M72.378-110.59c0.87-0.094,1.431,0.122,1.33,0.998
			c-0.296,0.258-0.751,0.357-1.33,0.333C72.378-109.703,72.378-110.146,72.378-110.59z"/>
		<path fill-rule="evenodd" clip-rule="evenodd" fill="#141328" d="M105.641-109.925c0.953-0.065,1.815-0.041,1.664,0.998
			C106.425-108.935,105.221-108.616,105.641-109.925z"/>
		<path fill-rule="evenodd" clip-rule="evenodd" fill="#141328" d="M54.082-107.929c-0.869,0.094-1.431-0.122-1.33-0.998
			C53.688-109.267,54.17-109.305,54.082-107.929z"/>
		<path fill-rule="evenodd" clip-rule="evenodd" fill="#141328" d="M45.435-108.927c1.151-0.233,1.193,1.167,0.665,1.664
			C44.948-107.03,44.906-108.43,45.435-108.927z"/>
		<path fill-rule="evenodd" clip-rule="evenodd" fill="#141328" d="M60.735-108.927c0.443,0,0.887,0,1.33,0
			c0.154,1.042-0.289,1.485-1.33,1.331C60.735-108.04,60.735-108.483,60.735-108.927z"/>
		<path fill-rule="evenodd" clip-rule="evenodd" fill="#141328" d="M80.361-108.927c0.846,0.041,1.29,0.484,1.33,1.331
			c-0.443,0-0.888,0-1.33,0C80.361-108.04,80.361-108.483,80.361-108.927z"/>
		<path fill-rule="evenodd" clip-rule="evenodd" fill="#141328" d="M10.507-108.594c0.695-0.141,0.881,0.228,1.331,0.333
			c-0.08,0.585-0.573,0.758-1.331,0.665C10.507-107.929,10.507-108.261,10.507-108.594z"/>
		<path fill-rule="evenodd" clip-rule="evenodd" fill="#141328" d="M34.79-108.261c0.87-0.094,1.431,0.121,1.33,0.998
			c-0.296,0.258-0.751,0.357-1.33,0.333C34.79-107.374,34.79-107.818,34.79-108.261z"/>
		<path fill-rule="evenodd" clip-rule="evenodd" fill="#141328" d="M66.39-106.931c-0.691,0.722-1.074-0.041-1.662-0.333
			C64.756-108.253,66.71-108.153,66.39-106.931z"/>
		<path fill-rule="evenodd" clip-rule="evenodd" fill="#141328" d="M15.164-107.596c0.526,0.028,1.269-0.16,1.33,0.333
			C16.858-106.096,14.454-106.373,15.164-107.596z"/>
		<path fill-rule="evenodd" clip-rule="evenodd" fill="#141328" d="M113.957-107.596c0.154,1.042-0.289,1.485-1.33,1.331
			C112.472-107.307,112.916-107.75,113.957-107.596z"/>
		<path fill-rule="evenodd" clip-rule="evenodd" fill="#141328" d="M118.946-106.931c0.877-0.1,1.093,0.461,0.998,1.331
			C119.068-105.5,118.853-106.061,118.946-106.931z"/>
		<path fill-rule="evenodd" clip-rule="evenodd" fill="#141328" d="M4.853-105.933c-0.029,0.989-1.983,0.89-1.663-0.333
			C3.881-106.987,4.265-106.225,4.853-105.933z"/>
		<path fill-rule="evenodd" clip-rule="evenodd" fill="#141328" d="M22.815-106.598c0.332,0,0.665,0,0.997,0
			c0,0.333,0,0.666,0,0.998c-0.332,0-0.665,0-0.997,0C22.815-105.933,22.815-106.266,22.815-106.598z"/>
		<path fill-rule="evenodd" clip-rule="evenodd" fill="#141328" d="M89.009-105.933c0.444,0,0.888,0,1.331,0c0,0.443,0,0.887,0,1.33
			C89.194-104.344,88.751-104.788,89.009-105.933z"/>
		<path fill-rule="evenodd" clip-rule="evenodd" fill="#141328" d="M29.468-105.6c0.869-0.093,1.664-0.113,1.33,0.998
			C29.929-104.508,29.367-104.724,29.468-105.6z"/>
		<path fill-rule="evenodd" clip-rule="evenodd" fill="#141328" d="M77.367-105.6c0.847,0.041,1.29,0.484,1.331,1.331
			c-0.387,0.279-0.893,0.438-1.664,0.333C76.929-104.708,77.088-105.214,77.367-105.6z"/>
		<path fill-rule="evenodd" clip-rule="evenodd" fill="#141328" d="M69.384-104.935c0.62,0.045,1.111,0.218,1.331,0.665
			c0.101,0.877-0.695,0.857-1.331,0.998C68.957-103.708,68.957-104.498,69.384-104.935z"/>
		<path fill-rule="evenodd" clip-rule="evenodd" fill="#141328" d="M102.98-104.935c0.907-0.243,0.669,0.661,1.33,0.665
			c-0.049,0.727-0.838,0.714-1.663,0.665C102.507-104.299,102.875-104.485,102.98-104.935z"/>
		<path fill-rule="evenodd" clip-rule="evenodd" fill="#141328" d="M7.847-104.27c0.694-0.141,0.881,0.228,1.33,0.333
			c-0.08,0.585-0.572,0.758-1.33,0.665C7.847-103.604,7.847-103.937,7.847-104.27z"/>
		<path fill-rule="evenodd" clip-rule="evenodd" fill="#141328" d="M59.405-102.939c-0.387,0.279-0.893,0.438-1.664,0.333
			C57.141-104.425,59.85-104.914,59.405-102.939z"/>
		<path fill-rule="evenodd" clip-rule="evenodd" fill="#141328" d="M28.137-101.609c-0.847-0.041-1.29-0.484-1.33-1.33
			C27.402-103.54,28.473-102.917,28.137-101.609z"/>
		<path fill-rule="evenodd" clip-rule="evenodd" fill="#141328" d="M49.759-102.606c0.086,1.084-0.396,1.601-1.331,1.663
			c-0.147-0.296-0.292-0.595-0.665-0.666C47.683-102.727,48.998-103.327,49.759-102.606z"/>
		<path fill-rule="evenodd" clip-rule="evenodd" fill="#141328" d="M54.415-102.939c0,0.443,0,0.887,0,1.33c-0.443,0-0.887,0-1.33,0
			C52.931-102.65,53.374-103.093,54.415-102.939z"/>
		<path fill-rule="evenodd" clip-rule="evenodd" fill="#141328" d="M108.302-102.606c0.773,0.114,1.56,0.215,1.331,1.331
			c-0.555,0-1.108,0-1.663,0C107.829-101.971,108.198-102.157,108.302-102.606z"/>
		<path fill-rule="evenodd" clip-rule="evenodd" fill="#141328" d="M34.79-102.274c0.526,0.028,1.269-0.16,1.33,0.333
			C36.483-100.773,34.079-101.05,34.79-102.274z"/>
		<path fill-rule="evenodd" clip-rule="evenodd" fill="#141328" d="M41.109-102.274c0.695-0.141,0.881,0.228,1.331,0.333
			c-0.08,0.585-0.572,0.758-1.331,0.666C41.109-101.609,41.109-101.941,41.109-102.274z"/>
		<path fill-rule="evenodd" clip-rule="evenodd" fill="#141328" d="M14.499-101.609c-0.093,0.771-0.889,0.765-1.33,0.333
			C13.261-102.047,14.057-102.041,14.499-101.609z"/>
		<path fill-rule="evenodd" clip-rule="evenodd" fill="#141328" d="M97.325-101.941c0.333,0,0.665,0,0.998,0
			c0,0.443,0,0.887,0,1.331C97.446-100.51,97.231-101.071,97.325-101.941z"/>
		<path fill-rule="evenodd" clip-rule="evenodd" fill="#141328" d="M83.021-98.947C79.449-98.764,83.206-102.521,83.021-98.947
			L83.021-98.947z"/>
		<path fill-rule="evenodd" clip-rule="evenodd" fill="#141328" d="M19.488-100.278c0.526,0.028,1.269-0.16,1.331,0.333
			C21.182-98.777,18.778-99.055,19.488-100.278z"/>
		<path fill-rule="evenodd" clip-rule="evenodd" fill="#141328" d="M62.065-100.278c0.537-0.094,0.573,0.314,0.998,0.333
			c0.101,0.876-0.461,1.092-1.33,0.998C61.592-99.643,61.962-99.828,62.065-100.278z"/>
		<path fill-rule="evenodd" clip-rule="evenodd" fill="#141328" d="M3.854-99.945c0.527,0.027,1.269-0.16,1.33,0.333
			C5.548-98.445,3.145-98.722,3.854-99.945z"/>
		<path fill-rule="evenodd" clip-rule="evenodd" fill="#141328" d="M56.078-99.945c0,0.443,0,0.887,0,1.33
			c-0.869,0.094-1.431-0.121-1.33-0.998C55.044-99.871,55.499-99.97,56.078-99.945z"/>
		<path fill-rule="evenodd" clip-rule="evenodd" fill="#141328" d="M90.008-99.945c0.559,1.579-1.915,1.834-1.663,0.333
			C88.73-99.892,89.235-100.051,90.008-99.945z"/>
		<path fill-rule="evenodd" clip-rule="evenodd" fill="#141328" d="M102.98-99.613c1.114-0.229,1.216,0.558,1.33,1.331
			C103.394-97.247,101.944-98.696,102.98-99.613z"/>
		<path fill-rule="evenodd" clip-rule="evenodd" fill="#141328" d="M120.61-98.947c0.838,0.08,1.378,0.981,0.664,1.663
			C120.6-97.526,119.917-98.285,120.61-98.947z"/>
		<path fill-rule="evenodd" clip-rule="evenodd" fill="#141328" d="M113.292-97.284c-0.952,0.065-1.815,0.041-1.664-0.998
			C112.271-98.929,113.665-98.63,113.292-97.284z"/>
		<path fill-rule="evenodd" clip-rule="evenodd" fill="#141328" d="M32.128-96.952c-0.496,0.528-1.896,0.486-1.662-0.666
			C30.962-98.145,32.362-98.104,32.128-96.952z"/>
		<path fill-rule="evenodd" clip-rule="evenodd" fill="#141328" d="M43.105-97.95c0,0.443,0,0.887,0,1.331
			c-0.87,0.094-1.431-0.122-1.331-0.998C42.071-97.875,42.526-97.975,43.105-97.95z"/>
		<path fill-rule="evenodd" clip-rule="evenodd" fill="#141328" d="M26.142-97.617c0.868-0.093,1.664-0.112,1.33,0.998
			C26.602-96.525,26.041-96.741,26.142-97.617z"/>
		<path fill-rule="evenodd" clip-rule="evenodd" fill="#141328" d="M73.375-97.617c0.156,1.036-0.836,1.189-1.33,0.666
			C72.125-97.537,72.617-97.71,73.375-97.617z"/>
		<path fill-rule="evenodd" clip-rule="evenodd" fill="#141328" d="M18.157-96.952c0.444,0,0.888,0,1.331,0c0,0.443,0,0.887,0,1.331
			C18.446-95.467,18.004-95.91,18.157-96.952z"/>
		<path fill-rule="evenodd" clip-rule="evenodd" fill="#141328" d="M37.45-96.619c0,0.333,0,0.666,0,0.998
			c-0.589-0.076-1.665,0.335-1.33-0.665C36.416-96.545,36.872-96.644,37.45-96.619z"/>
		<path fill-rule="evenodd" clip-rule="evenodd" fill="#141328" d="M48.761-96.286c0.332,0,0.665,0,0.998,0
			c0.093,0.87-0.122,1.431-0.998,1.33C48.761-95.399,48.761-95.843,48.761-96.286z"/>
		<path fill-rule="evenodd" clip-rule="evenodd" fill="#141328" d="M8.512-95.954c0.222,0,0.443,0,0.665,0
			c-0.061,0.283,0.13,0.314,0.332,0.333c0,0.222,0,0.443,0,0.665c-0.283-0.061-0.313,0.13-0.332,0.333c-0.222,0-0.443,0-0.665,0
			c0.061-0.283-0.13-0.314-0.333-0.333c0-0.222,0-0.443,0-0.665C8.462-95.56,8.492-95.751,8.512-95.954z"/>
		<path fill-rule="evenodd" clip-rule="evenodd" fill="#141328" d="M117.948-94.623c-0.496,0.528-1.896,0.486-1.662-0.665
			C116.782-95.816,118.183-95.774,117.948-94.623z"/>
		<path fill-rule="evenodd" clip-rule="evenodd" fill="#141328" d="M77.7-95.288c0.846,0.033,0.785,1.239,0.332,1.663
			C76.671-93.443,76.908-95.062,77.7-95.288z"/>
		<path fill-rule="evenodd" clip-rule="evenodd" fill="#141328" d="M88.677-94.623c0.87-0.094,1.431,0.121,1.331,0.998
			c-0.297,0.258-0.752,0.357-1.331,0.333C88.677-93.736,88.677-94.18,88.677-94.623z"/>
		<path fill-rule="evenodd" clip-rule="evenodd" fill="#141328" d="M67.056-94.291c1.039-0.152,1.063,0.711,0.998,1.663
			C66.708-92.254,66.408-93.649,67.056-94.291z"/>
		<path fill-rule="evenodd" clip-rule="evenodd" fill="#141328" d="M83.021-94.291c0.444,0,0.888,0,1.331,0
			c0.284,1.06-0.29,1.263-0.666,1.663C82.96-92.676,82.973-93.465,83.021-94.291z"/>
		<path fill-rule="evenodd" clip-rule="evenodd" fill="#141328" d="M107.637-92.627c-1.085,0.086-1.601-0.395-1.663-1.331
			C106.677-94.622,108.034-94.063,107.637-92.627z"/>
		<path fill-rule="evenodd" clip-rule="evenodd" fill="#141328" d="M14.499-93.625c0.332,0,0.665,0,0.998,0c0,0.333,0,0.665,0,0.998
			c-0.333,0-0.666,0-0.998,0C14.499-92.96,14.499-93.292,14.499-93.625z"/>
		<path fill-rule="evenodd" clip-rule="evenodd" fill="#141328" d="M56.078-92.627c-0.443,0-0.887,0-1.33,0
			C54.485-93.908,56.341-93.908,56.078-92.627z"/>
		<path fill-rule="evenodd" clip-rule="evenodd" fill="#141328" d="M60.402-93.625c0.527,0.027,1.27-0.16,1.331,0.333
			C62.097-92.125,59.692-92.402,60.402-93.625z"/>
		<path fill-rule="evenodd" clip-rule="evenodd" fill="#141328" d="M95.995-93.292c0.554,0,1.108,0,1.663,0c0,0.443,0,0.887,0,1.33
			c-0.555,0-1.109,0-1.663,0C95.995-92.405,95.995-92.849,95.995-93.292z"/>
		<path fill-rule="evenodd" clip-rule="evenodd" fill="#141328" d="M22.481-91.962c-0.029,0.99-1.982,0.89-1.662-0.332
			C21.511-93.016,21.895-92.254,22.481-91.962z"/>
		<path fill-rule="evenodd" clip-rule="evenodd" fill="#141328" d="M27.804-92.294c0.444,0,0.888,0,1.331,0
			c0.142,0.695-0.228,0.88-0.333,1.33C27.926-90.864,27.711-91.425,27.804-92.294z"/>
		<path fill-rule="evenodd" clip-rule="evenodd" fill="#141328" d="M36.786-90.632c-0.634,0.143-0.836,0.717-1.664,0.666
			C33.655-91.644,36.87-92.873,36.786-90.632z"/>
		<path fill-rule="evenodd" clip-rule="evenodd" fill="#141328" d="M6.849-91.297c-0.034,0.847-1.24,0.786-1.664,0.333
			C5.219-91.811,6.425-91.75,6.849-91.297z"/>
		<path fill-rule="evenodd" clip-rule="evenodd" fill="#141328" d="M47.763-91.297c0.537-0.094,0.572,0.314,0.998,0.333
			c0.1,0.876-0.461,1.092-1.331,0.998C47.289-90.662,47.657-90.847,47.763-91.297z"/>
		<path fill-rule="evenodd" clip-rule="evenodd" fill="#141328" d="M111.628-91.297c1.131,0.144,0.775,2.17-0.664,1.663
			c0.054-0.387-0.074-0.592-0.333-0.665C110.528-91.066,111.592-90.668,111.628-91.297z"/>
		<path fill-rule="evenodd" clip-rule="evenodd" fill="#141328" d="M118.282-90.299c0.442,0,0.887,0,1.33,0
			c0.141,0.695-0.229,0.881-0.333,1.33C118.402-88.868,118.188-89.429,118.282-90.299z"/>
		<path fill-rule="evenodd" clip-rule="evenodd" fill="#141328" d="M42.44-88.969c-0.497,0.528-1.896,0.486-1.663-0.665
			C41.274-90.162,42.674-90.12,42.44-88.969z"/>
		<path fill-rule="evenodd" clip-rule="evenodd" fill="#141328" d="M54.748-88.969c-0.679,0.668-0.652-0.146-1.331-0.332
			C53.478-90.266,54.999-90.103,54.748-88.969z"/>
		<path fill-rule="evenodd" clip-rule="evenodd" fill="#141328" d="M103.978-89.301c-0.285,0.898-1.922,1.415-1.995,0
			C102.407-89.756,103.553-89.756,103.978-89.301z"/>
		<path fill-rule="evenodd" clip-rule="evenodd" fill="#141328" d="M88.345-88.969c-0.055,0.387,0.072,0.592,0.332,0.666
			c-0.049,0.728-0.838,0.714-1.663,0.666c0.054-0.387-0.073-0.592-0.333-0.666C86.729-89.03,87.52-89.018,88.345-88.969z"/>
		<path fill-rule="evenodd" clip-rule="evenodd" fill="#141328" d="M64.062-88.636c0.666,0,1.331,0,1.996,0
			C66.658-86.817,63.46-86.817,64.062-88.636z"/>
		<path fill-rule="evenodd" clip-rule="evenodd" fill="#141328" d="M73.043-88.636c0.526,0.028,1.269-0.16,1.331,0.333
			C74.736-87.135,72.333-87.412,73.043-88.636z"/>
		<path fill-rule="evenodd" clip-rule="evenodd" fill="#141328" d="M83.687-88.303c0.56,1.579-1.913,1.834-1.662,0.333
			C82.409-88.25,82.916-88.409,83.687-88.303z"/>
		<path fill-rule="evenodd" clip-rule="evenodd" fill="#141328" d="M58.407-87.971c0.222,0,0.443,0,0.665,0
			c-0.062,0.283,0.13,0.314,0.333,0.333c0,0.222,0,0.443,0,0.665c-0.283-0.062-0.314,0.13-0.333,0.333c-0.222,0-0.443,0-0.665,0
			c0.061-0.283-0.13-0.314-0.333-0.333c0-0.222,0-0.443,0-0.665C58.356-87.577,58.388-87.768,58.407-87.971z"/>
		<path fill-rule="evenodd" clip-rule="evenodd" fill="#141328" d="M0.528-87.305c0.771,0.093,0.765,0.888,0.333,1.331
			C0.409-86.078,0.585-86.808,0.528-87.305z"/>
		<path fill-rule="evenodd" clip-rule="evenodd" fill="#141328" d="M23.147-86.973c-0.041,0.846-0.484,1.29-1.331,1.331
			C20.917-86.424,22.365-87.873,23.147-86.973z"/>
		<path fill-rule="evenodd" clip-rule="evenodd" fill="#141328" d="M13.834-86.64c-0.041,0.846-0.484,1.29-1.331,1.33
			C11.468-86.226,12.917-87.675,13.834-86.64z"/>
		<path fill-rule="evenodd" clip-rule="evenodd" fill="#141328" d="M31.796-86.64C31.021-83.806,29.104-88.215,31.796-86.64
			L31.796-86.64z"/>
		<path fill-rule="evenodd" clip-rule="evenodd" fill="#141328" d="M97.99-86.64c-0.2,0.687-0.515,1.26-1.663,0.998
			c0-0.333,0-0.665,0-0.998C96.765-87.067,97.554-87.067,97.99-86.64z"/>
		<path fill-rule="evenodd" clip-rule="evenodd" fill="#141328" d="M43.771-86.307c0.141,0.695-0.228,0.88-0.332,1.331
			c-0.847-0.041-1.291-0.484-1.331-1.331C42.544-86.734,43.334-86.734,43.771-86.307z"/>
		<path fill-rule="evenodd" clip-rule="evenodd" fill="#141328" d="M69.052-85.642c2.145-0.216,0.971,2.285-0.333,0.998
			C68.895-84.912,69.065-85.184,69.052-85.642z"/>
		<path fill-rule="evenodd" clip-rule="evenodd" fill="#141328" d="M47.097-85.31c1.138-0.139,1.896,0.101,1.664,1.331
			C47.513-83.729,47.14-84.354,47.097-85.31z"/>
		<path fill-rule="evenodd" clip-rule="evenodd" fill="#141328" d="M17.493-84.644c-0.08,0.585-0.572,0.758-1.331,0.666
			C16.007-85.015,16.999-85.168,17.493-84.644z"/>
		<path fill-rule="evenodd" clip-rule="evenodd" fill="#141328" d="M104.644-84.977c1.041-0.154,1.484,0.289,1.33,1.331
			C104.933-83.492,104.489-83.936,104.644-84.977z"/>
		<path fill-rule="evenodd" clip-rule="evenodd" fill="#141328" d="M6.183-84.644c0.048,1.337-0.853,0.88-1.663,0.666
			C4.568-84.706,5.358-84.693,6.183-84.644z"/>
		<path fill-rule="evenodd" clip-rule="evenodd" fill="#141328" d="M77.7-84.312C76.925-81.478,75.009-85.886,77.7-84.312
			L77.7-84.312z"/>
		<path fill-rule="evenodd" clip-rule="evenodd" fill="#141328" d="M92.668-83.313c-0.952,0.065-1.815,0.041-1.663-0.998
			C91.563-84.875,92.958-84.576,92.668-83.313z"/>
		<path fill-rule="evenodd" clip-rule="evenodd" fill="#141328" d="M113.957-84.644c0.876-0.1,1.092,0.46,0.998,1.331
			c-0.443,0-0.887,0-1.331,0C113.483-84.009,113.853-84.194,113.957-84.644z"/>
		<path fill-rule="evenodd" clip-rule="evenodd" fill="#141328" d="M85.018-82.981c-0.771,0.106-1.277-0.053-1.663-0.333
			C83.384-84.303,85.338-84.204,85.018-82.981z"/>
		<path fill-rule="evenodd" clip-rule="evenodd" fill="#141328" d="M26.474-83.313c-0.033,0.846-1.239,0.786-1.662,0.333
			C24.845-83.827,26.05-83.767,26.474-83.313z"/>
		<path fill-rule="evenodd" clip-rule="evenodd" fill="#141328" d="M38.116-83.313c0.443,0,0.887,0,1.33,0
			C39.709-82.033,37.854-82.033,38.116-83.313z"/>
		<path fill-rule="evenodd" clip-rule="evenodd" fill="#141328" d="M35.455-81.983c-0.497,0.528-1.896,0.486-1.663-0.666
			C34.288-83.176,35.688-83.135,35.455-81.983z"/>
		<path fill-rule="evenodd" clip-rule="evenodd" fill="#141328" d="M121.94-82.981c0.585,0.08,0.759,0.572,0.665,1.331
			c-0.332,0-0.665,0-0.997,0C121.467-82.346,121.836-82.531,121.94-82.981z"/>
		<path fill-rule="evenodd" clip-rule="evenodd" fill="#141328" d="M52.087-82.315c-0.176,0.268-0.347,0.54-0.333,0.998
			c-0.87,0.094-1.431-0.122-1.33-0.998C50.86-82.742,51.649-82.742,52.087-82.315z"/>
		<path fill-rule="evenodd" clip-rule="evenodd" fill="#141328" d="M57.741-82.648c0,0.333,0,0.666,0,0.998
			c-0.694,0.141-0.88-0.228-1.33-0.333C56.491-82.568,56.983-82.741,57.741-82.648z"/>
		<path fill-rule="evenodd" clip-rule="evenodd" fill="#141328" d="M63.063-82.315c0.58,0.3,1.281,0.744,0.665,1.33
			C62.693-80.829,62.54-81.822,63.063-82.315z"/>
		<path fill-rule="evenodd" clip-rule="evenodd" fill="#141328" d="M109.633-81.318c0.134,1.566-1.128,1.349-1.663,0.666
			C108.019-81.38,108.808-81.367,109.633-81.318z"/>
		<path fill-rule="evenodd" clip-rule="evenodd" fill="#141328" d="M98.323-80.985c0.619,0.046,1.111,0.219,1.33,0.666
			C99.613-78.551,97.06-79.777,98.323-80.985z"/>
		<path fill-rule="evenodd" clip-rule="evenodd" fill="#141328" d="M11.505-80.32c0.486,0.291,1.288,0.264,0.998,1.331
			c-0.443,0-0.888,0-1.33,0C11.032-79.685,11.4-79.87,11.505-80.32z"/>
		<path fill-rule="evenodd" clip-rule="evenodd" fill="#141328" d="M73.375-79.322c-0.597-0.042-0.701,0.407-1.33,0.333
			c-0.176-0.268-0.347-0.54-0.333-0.998C72.209-80.515,73.608-80.474,73.375-79.322z"/>
		<path fill-rule="evenodd" clip-rule="evenodd" fill="#141328" d="M3.522-79.987c0.771-0.106,1.277,0.054,1.662,0.333
			c0.152,1.04-0.711,1.063-1.662,0.998C3.522-79.1,3.522-79.544,3.522-79.987z"/>
		<path fill-rule="evenodd" clip-rule="evenodd" fill="#141328" d="M24.146-79.987c0.437,0.118,0.523,0.586,0.998,0.665
			c-0.029,0.99-1.983,0.891-1.663-0.333C23.866-79.601,24.072-79.728,24.146-79.987z"/>
		<path fill-rule="evenodd" clip-rule="evenodd" fill="#141328" d="M41.774-79.987c0.555,0,1.109,0,1.664,0
			C43.763-78.647,41.45-78.647,41.774-79.987z"/>
		<path fill-rule="evenodd" clip-rule="evenodd" fill="#141328" d="M118.282-79.655c-0.177,0.268-0.348,0.54-0.334,0.998
			c-1.046,0.16-1.3-0.474-1.995-0.666C115.959-80.289,117.833-80.108,118.282-79.655z"/>
		<path fill-rule="evenodd" clip-rule="evenodd" fill="#141328" d="M91.005-79.655c0.771-0.106,1.277,0.054,1.663,0.333
			c0.292,1.068-0.862,0.69-0.997,1.331C90.943-78.041,90.956-78.83,91.005-79.655z"/>
		<path fill-rule="evenodd" clip-rule="evenodd" fill="#141328" d="M30.466-79.322c0.847,0.034,0.785,1.24,0.332,1.664
			C29.952-77.692,30.012-78.898,30.466-79.322z"/>
		<path fill-rule="evenodd" clip-rule="evenodd" fill="#141328" d="M79.362-79.322c0.871-0.094,1.432,0.122,1.331,0.998
			c-0.296,0.258-0.751,0.358-1.331,0.333C79.362-78.435,79.362-78.878,79.362-79.322z"/>
		<path fill-rule="evenodd" clip-rule="evenodd" fill="#141328" d="M36.786-78.324c0.952-0.065,1.814-0.041,1.663,0.998
			C37.807-76.679,36.413-76.978,36.786-78.324z"/>
		<path fill-rule="evenodd" clip-rule="evenodd" fill="#141328" d="M58.407-78.324c0.846,0.034,0.785,1.24,0.332,1.663
			C57.893-76.695,57.954-77.9,58.407-78.324z"/>
		<path fill-rule="evenodd" clip-rule="evenodd" fill="#141328" d="M84.686-78.324c0.443,0,0.887,0,1.33,0
			c0.154,1.042-0.289,1.485-1.33,1.331C84.686-77.437,84.686-77.88,84.686-78.324z"/>
		<path fill-rule="evenodd" clip-rule="evenodd" fill="#141328" d="M48.095-77.659c0.87-0.094,1.432,0.122,1.331,0.998
			c-0.296,0.259-0.751,0.358-1.331,0.333C48.095-76.771,48.095-77.215,48.095-77.659z"/>
		<path fill-rule="evenodd" clip-rule="evenodd" fill="#141328" d="M20.819-75.996c-0.152,1.057-1.438,0.659-1.664,0
			C19.418-77.163,20.319-76.38,20.819-75.996z"/>
		<path fill-rule="evenodd" clip-rule="evenodd" fill="#141328" d="M103.646-76.328c0.233,1.151-1.167,1.193-1.663,0.665
			C102.031-76.39,102.82-76.377,103.646-76.328z"/>
		<path fill-rule="evenodd" clip-rule="evenodd" fill="#141328" d="M13.501-75.996c0.527,0.028,1.269-0.16,1.33,0.333
			C15.194-74.495,12.79-74.772,13.501-75.996z"/>
		<path fill-rule="evenodd" clip-rule="evenodd" fill="#141328" d="M8.512-74.665c-0.597-0.042-0.702,0.407-1.331,0.333
			C6.041-75.622,8.628-76.349,8.512-74.665z"/>
		<path fill-rule="evenodd" clip-rule="evenodd" fill="#141328" d="M53.75-74.332c-0.87,0.094-1.431-0.122-1.33-0.998
			C52.88-75.821,54.002-75.503,53.75-74.332z"/>
		<path fill-rule="evenodd" clip-rule="evenodd" fill="#141328" d="M71.712-75.33c-0.042,0.597,0.408,0.701,0.333,1.33
			c-0.787,0.749-2.198,0.244-1.996-0.998C70.435-75.277,70.94-75.437,71.712-75.33z"/>
		<path fill-rule="evenodd" clip-rule="evenodd" fill="#141328" d="M114.622-74.998c-0.006,1.55-1.656,1.55-1.663,0
			C113.396-75.425,114.186-75.425,114.622-74.998z"/>
		<path fill-rule="evenodd" clip-rule="evenodd" fill="#141328" d="M64.062-74.998c1.549-0.298,1.706,1.763,0,1.331
			C64.062-74.111,64.062-74.555,64.062-74.998z"/>
		<path fill-rule="evenodd" clip-rule="evenodd" fill="#141328" d="M108.302-74.665c0.848,0.041,1.291,0.484,1.331,1.331
			c-0.386,0.279-0.892,0.438-1.663,0.333C107.863-73.773,108.023-74.279,108.302-74.665z"/>
		<path fill-rule="evenodd" clip-rule="evenodd" fill="#141328" d="M96.993-74.332c0.876-0.101,1.092,0.46,0.997,1.33
			C96.872-72.233,96.271-73.441,96.993-74.332z"/>
		<path fill-rule="evenodd" clip-rule="evenodd" fill="#141328" d="M120.942-74.332c0.869-0.093,1.664-0.113,1.331,0.998
			C121.403-73.24,120.843-73.456,120.942-74.332z"/>
		<path fill-rule="evenodd" clip-rule="evenodd" fill="#141328" d="M2.191-73.667c0.333,0,0.665,0,0.998,0c0,0.333,0,0.665,0,0.998
			C2.464-72.609,2.131-72.941,2.191-73.667z"/>
		<path fill-rule="evenodd" clip-rule="evenodd" fill="#141328" d="M26.142-73.667c0,0.443,0,0.887,0,1.331
			c-0.953,0.065-1.815,0.042-1.664-0.998C24.863-73.614,25.37-73.773,26.142-73.667z"/>
		<path fill-rule="evenodd" clip-rule="evenodd" fill="#141328" d="M35.122-73.667c0.62,0.045,1.111,0.219,1.331,0.665
			C36.412-71.233,33.858-72.459,35.122-73.667z"/>
		<path fill-rule="evenodd" clip-rule="evenodd" fill="#141328" d="M29.8-73.334c0.444,0,0.887,0,1.331,0
			c0.141,0.695-0.229,0.881-0.333,1.331C29.922-71.903,29.706-72.464,29.8-73.334z"/>
		<path fill-rule="evenodd" clip-rule="evenodd" fill="#141328" d="M40.777-73.334c0.87-0.094,1.431,0.122,1.33,0.998
			C41.239-72.244,40.443-72.224,40.777-73.334z"/>
		<path fill-rule="evenodd" clip-rule="evenodd" fill="#141328" d="M83.687-73.002c1.039-0.152,1.064,0.711,0.999,1.664
			C83.252-71.22,83.401-72.166,83.687-73.002z"/>
		<path fill-rule="evenodd" clip-rule="evenodd" fill="#141328" d="M47.097-72.336c0.871-0.094,1.432,0.122,1.331,0.998
			c-0.296,0.258-0.751,0.357-1.331,0.332C47.097-71.449,47.097-71.893,47.097-72.336z"/>
		<path fill-rule="evenodd" clip-rule="evenodd" fill="#141328" d="M91.338-72.336c0.492,0.173,0.838,0.492,1.33,0.665
			c-0.049,0.728-0.837,0.714-1.663,0.665C90.864-71.701,91.233-71.887,91.338-72.336z"/>
		<path fill-rule="evenodd" clip-rule="evenodd" fill="#141328" d="M67.721-71.338c0.333,0,0.665,0,0.998,0
			c0.093,0.537-0.314,0.572-0.333,0.998c-0.222,0-0.443,0-0.665,0C67.721-70.673,67.721-71.006,67.721-71.338z"/>
		<path fill-rule="evenodd" clip-rule="evenodd" fill="#141328" d="M8.512-71.006c0.222,0,0.443,0,0.665,0
			c-0.061,0.284,0.13,0.314,0.332,0.333c0,0.222,0,0.443,0,0.665c-0.283-0.061-0.313,0.13-0.332,0.333c-0.222,0-0.443,0-0.665,0
			c0.061-0.283-0.13-0.313-0.333-0.333c0-0.222,0-0.443,0-0.665C8.462-70.612,8.492-70.803,8.512-71.006z"/>
		<path fill-rule="evenodd" clip-rule="evenodd" fill="#141328" d="M55.413-70.673c0.222,0,0.443,0,0.665,0c0,0.333,0,0.665,0,0.998
			c-0.332,0-0.665,0-0.997,0C54.987-70.213,55.396-70.248,55.413-70.673z"/>
		<path fill-rule="evenodd" clip-rule="evenodd" fill="#141328" d="M63.729-70.673c0,0.333,0,0.665,0,0.998
			c-0.694,0.141-0.88-0.228-1.33-0.333C62.479-70.593,62.971-70.767,63.729-70.673z"/>
		<path fill-rule="evenodd" clip-rule="evenodd" fill="#141328" d="M76.036-70.673c0.443,0,0.888,0,1.331,0
			c0.154,1.042-0.289,1.485-1.331,1.331C76.036-69.786,76.036-70.23,76.036-70.673z"/>
		<path fill-rule="evenodd" clip-rule="evenodd" fill="#141328" d="M23.48-70.341c0.869-0.094,1.431,0.122,1.331,0.998
			C24.188-68.69,23.208-69.15,23.48-70.341z"/>
		<path fill-rule="evenodd" clip-rule="evenodd" fill="#141328" d="M18.49-69.343c0.333,0,0.665,0,0.998,0c0,0.333,0,0.665,0,0.998
			c-0.333,0-0.665,0-0.998,0C18.49-68.678,18.49-69.01,18.49-69.343z"/>
		<path fill-rule="evenodd" clip-rule="evenodd" fill="#141328" d="M105.974-69.01c0.695-0.141,0.881,0.228,1.331,0.333
			c0,0.333,0,0.665,0,0.998c-0.438,0.427-1.227,0.427-1.664,0C105.599-68.276,106.049-68.381,105.974-69.01z"/>
		<path fill-rule="evenodd" clip-rule="evenodd" fill="#141328" d="M113.292-68.678c1.151-0.233,1.193,1.166,0.665,1.663
			C113.118-67.094,112.579-67.995,113.292-68.678z"/>
		<path fill-rule="evenodd" clip-rule="evenodd" fill="#141328" d="M36.786-68.345c0.332,0,0.664,0,0.997,0c0,0.332,0,0.665,0,0.998
			c-0.333,0-0.665,0-0.997,0C36.786-67.68,36.786-68.013,36.786-68.345z"/>
		<path fill-rule="evenodd" clip-rule="evenodd" fill="#141328" d="M96.66-68.345c0.771-0.106,1.276,0.053,1.663,0.332
			C98.403-66.401,96.233-66.352,96.66-68.345z"/>
		<path fill-rule="evenodd" clip-rule="evenodd" fill="#141328" d="M81.691-68.013c0.479,0.076,0.116,0.993,0.665,0.998
			c-0.049,0.728-0.838,0.714-1.663,0.666c0-0.443,0-0.887,0-1.331C81.165-67.651,81.636-67.625,81.691-68.013z"/>
		<path fill-rule="evenodd" clip-rule="evenodd" fill="#141328" d="M29.8-66.682c0.223,0,0.444,0,0.666,0
			c-0.062,0.283,0.129,0.313,0.332,0.333c0,0.222,0,0.443,0,0.666c-0.283-0.062-0.313,0.129-0.332,0.333c-0.222,0-0.443,0-0.666,0
			c0.062-0.283-0.129-0.314-0.332-0.333c0-0.222,0-0.443,0-0.666C29.751-66.288,29.781-66.479,29.8-66.682z"/>
		<path fill-rule="evenodd" clip-rule="evenodd" fill="#141328" d="M44.437-66.682c0.861,0.428,1.045,0.688,0.665,1.663
			c-0.847-0.041-1.29-0.484-1.331-1.331C44.157-66.295,44.362-66.422,44.437-66.682z"/>
		<path fill-rule="evenodd" clip-rule="evenodd" fill="#141328" d="M51.754-66.682c1.138-0.139,1.896,0.1,1.663,1.331
			c-0.554,0-1.108,0-1.663,0C51.754-65.794,51.754-66.238,51.754-66.682z"/>
		<path fill-rule="evenodd" clip-rule="evenodd" fill="#141328" d="M88.677-66.682c0.87-0.094,1.431,0.122,1.331,0.998
			c-0.297,0.258-0.752,0.357-1.331,0.333C88.677-65.794,88.677-66.238,88.677-66.682z"/>
		<path fill-rule="evenodd" clip-rule="evenodd" fill="#141328" d="M10.84-66.349c0.695-0.141,0.881,0.228,1.33,0.333
			c-0.176,0.268-0.347,0.54-0.332,0.998C10.962-64.918,10.746-65.479,10.84-66.349z"/>
		<path fill-rule="evenodd" clip-rule="evenodd" fill="#141328" d="M63.063-66.349c0,0.443,0,0.887,0,1.331
			C61.783-64.756,61.783-66.611,63.063-66.349z"/>
		<path fill-rule="evenodd" clip-rule="evenodd" fill="#141328" d="M4.853-66.017c0.094,0.87-0.121,1.431-0.998,1.331
			c-0.176-0.268-0.347-0.541-0.332-0.998C3.817-65.942,4.272-66.042,4.853-66.017z"/>
		<path fill-rule="evenodd" clip-rule="evenodd" fill="#141328" d="M22.481-66.017c0.223,0,0.444,0,0.666,0
			c-0.062,0.283,0.13,0.314,0.333,0.333c0,0.222,0,0.443,0,0.665c-0.283-0.062-0.313,0.13-0.333,0.333c-0.222,0-0.443,0-0.666,0
			c0.062-0.283-0.129-0.314-0.332-0.333c0-0.222,0-0.443,0-0.665C22.433-65.623,22.464-65.813,22.481-66.017z"/>
		<path fill-rule="evenodd" clip-rule="evenodd" fill="#141328" d="M71.047-65.351c0,0.222,0,0.443,0,0.666
			C69.425-64.353,70.433-66.456,71.047-65.351z"/>
		<path fill-rule="evenodd" clip-rule="evenodd" fill="#141328" d="M75.039-65.351c0.443,0,0.887,0,1.331,0
			C77.566-63.896,74.576-63.358,75.039-65.351z"/>
		<path fill-rule="evenodd" clip-rule="evenodd" fill="#141328" d="M119.279-65.351c1.501-0.251,1.246,2.222-0.333,1.663
			C118.841-64.459,119-64.965,119.279-65.351z"/>
		<path fill-rule="evenodd" clip-rule="evenodd" fill="#141328" d="M15.164-64.686c0.222,0,0.443,0,0.665,0
			c-0.061,0.282,0.13,0.313,0.333,0.332c0,0.222,0,0.443,0,0.666c-0.282-0.061-0.313,0.13-0.333,0.333c-0.222,0-0.443,0-0.665,0
			c0.062-0.283-0.13-0.313-0.333-0.333c0-0.222,0-0.443,0-0.666C15.114-64.292,15.146-64.483,15.164-64.686z"/>
		<path fill-rule="evenodd" clip-rule="evenodd" fill="#141328" d="M81.691-64.354c0,0.333,0,0.666,0,0.998
			c-0.59-0.076-1.666,0.335-1.33-0.665C80.657-64.279,81.112-64.378,81.691-64.354z"/>
		<path fill-rule="evenodd" clip-rule="evenodd" fill="#141328" d="M93.999-64.021c0.268,0.176,0.54,0.347,0.998,0.333
			c0.154,1.042-0.289,1.485-1.331,1.331C93.56-63.129,93.72-63.635,93.999-64.021z"/>
		<path fill-rule="evenodd" clip-rule="evenodd" fill="#141328" d="M35.455-63.688c0.443,0,0.887,0,1.331,0c0,0.443,0,0.887,0,1.331
			C35.744-62.203,35.301-62.646,35.455-63.688z"/>
		<path fill-rule="evenodd" clip-rule="evenodd" fill="#141328" d="M58.074-63.022c0.509,1.022-2.172,1.022-1.663,0
			C56.613-63.214,57.988-63.801,58.074-63.022z"/>
		<path fill-rule="evenodd" clip-rule="evenodd" fill="#141328" d="M29.135-62.357c0.772,0.114,1.559,0.215,1.331,1.331
			c-0.555,0-1.109,0-1.664,0C28.661-61.722,29.03-61.908,29.135-62.357z"/>
		<path fill-rule="evenodd" clip-rule="evenodd" fill="#141328" d="M47.43-62.357c0.142,0.695-0.228,0.881-0.333,1.331
			c-0.907,0.242-0.669-0.661-1.33-0.665C45.815-62.42,46.604-62.406,47.43-62.357z"/>
		<path fill-rule="evenodd" clip-rule="evenodd" fill="#141328" d="M109.3-62.357c0.847,0.041,1.29,0.484,1.331,1.331
			c-0.555,0-1.108,0-1.663,0C108.827-61.722,109.196-61.908,109.3-62.357z"/>
		<path fill-rule="evenodd" clip-rule="evenodd" fill="#141328" d="M18.157-61.692c0.877-0.101,1.093,0.46,0.998,1.33
			c-0.869,0.094-1.43-0.122-1.33-0.998C18.108-61.298,18.139-61.489,18.157-61.692z"/>
		<path fill-rule="evenodd" clip-rule="evenodd" fill="#141328" d="M41.109-61.692c0.87-0.094,1.432,0.121,1.331,0.998
			C41.818-60.041,40.838-60.502,41.109-61.692z"/>
		<path fill-rule="evenodd" clip-rule="evenodd" fill="#141328" d="M68.054-61.692c0.141,0.695-0.229,0.88-0.333,1.33
			c-0.31-0.355-1.228-0.103-0.997-0.998C67.019-61.618,67.474-61.717,68.054-61.692z"/>
		<path fill-rule="evenodd" clip-rule="evenodd" fill="#141328" d="M103.313-61.359c0.152,1.039-0.71,1.063-1.663,0.998
			c0-0.333,0-0.665,0-0.998C102.087-61.786,102.876-61.786,103.313-61.359z"/>
		<path fill-rule="evenodd" clip-rule="evenodd" fill="#141328" d="M117.283-60.029c-0.847,0.853-1.614-0.075-1.996-0.666
			C115.561-61.955,117.484-61.206,117.283-60.029z"/>
		<path fill-rule="evenodd" clip-rule="evenodd" fill="#141328" d="M2.856-61.027c0.877-0.101,1.092,0.46,0.998,1.331
			c-0.443,0-0.887,0-1.33,0C2.383-60.392,2.753-60.577,2.856-61.027z"/>
		<path fill-rule="evenodd" clip-rule="evenodd" fill="#141328" d="M52.42-61.027c0,0.333,0,0.665,0,0.998
			c-0.696,0.141-0.882-0.229-1.331-0.333C51.169-60.947,51.661-61.12,52.42-61.027z"/>
		<path fill-rule="evenodd" clip-rule="evenodd" fill="#141328" d="M90.008-60.362c0.317,1.199-1.437,0.59-1.663,0.333
			C88.184-60.681,89.869-61.101,90.008-60.362z"/>
		<path fill-rule="evenodd" clip-rule="evenodd" fill="#141328" d="M23.813-60.362c0.585,0.08,0.759,0.572,0.665,1.331
			c-0.332,0-0.665,0-0.997,0C23.339-59.726,23.708-59.912,23.813-60.362z"/>
		<path fill-rule="evenodd" clip-rule="evenodd" fill="#141328" d="M33.459-60.029c1.138-0.139,1.896,0.1,1.663,1.331
			c-0.634,0.624-0.602-0.198-1.663,0C33.459-59.142,33.459-59.585,33.459-60.029z"/>
		<path fill-rule="evenodd" clip-rule="evenodd" fill="#141328" d="M63.063-59.696c0.585,0.08,0.759,0.572,0.665,1.33
			c-0.332,0-0.665,0-0.997,0C62.591-59.061,62.959-59.247,63.063-59.696z"/>
		<path fill-rule="evenodd" clip-rule="evenodd" fill="#141328" d="M59.405-59.364c0,0.443,0,0.887,0,1.331
			c-0.444,0-0.888,0-1.331,0C57.92-59.075,58.363-59.518,59.405-59.364z"/>
		<path fill-rule="evenodd" clip-rule="evenodd" fill="#141328" d="M74.374-59.364c0,0.443,0,0.887,0,1.331
			c-0.555,0-1.109,0-1.664,0c0-0.333,0-0.665,0-0.998C73.097-59.311,73.602-59.47,74.374-59.364z"/>
		<path fill-rule="evenodd" clip-rule="evenodd" fill="#141328" d="M7.514-58.366c0.443,0,0.888,0,1.33,0
			C9.232-57.211,6.985-56.819,7.514-58.366z"/>
		<path fill-rule="evenodd" clip-rule="evenodd" fill="#141328" d="M85.018-57.368c-0.588,0.618-0.972-0.145-1.663-0.333
			C83.384-58.69,85.338-58.59,85.018-57.368z"/>
		<path fill-rule="evenodd" clip-rule="evenodd" fill="#141328" d="M94.997-58.366c0.597-0.042,0.701,0.407,1.33,0.333
			c0.154,1.042-0.289,1.485-1.33,1.331C94.57-57.14,94.57-57.929,94.997-58.366z"/>
		<path fill-rule="evenodd" clip-rule="evenodd" fill="#141328" d="M11.838-57.701c0.771,0.093,0.765,0.889,0.332,1.331
			C11.399-56.463,11.406-57.259,11.838-57.701z"/>
		<path fill-rule="evenodd" clip-rule="evenodd" fill="#141328" d="M29.468-57.701c0.584,0.081,0.758,0.573,0.664,1.331
			c-0.694,0.141-0.88-0.228-1.33-0.333C28.92-57.14,29.388-57.226,29.468-57.701z"/>
		<path fill-rule="evenodd" clip-rule="evenodd" fill="#141328" d="M67.056-57.368c0.443,0,0.887,0,1.33,0c0,0.444,0,0.888,0,1.331
			c-0.771,0.106-1.277-0.053-1.662-0.333C66.899-56.638,67.069-56.91,67.056-57.368z"/>
		<path fill-rule="evenodd" clip-rule="evenodd" fill="#141328" d="M77.367-57.368c1.067-0.292,0.689,0.863,1.331,0.998
			C78.327-54.784,76.103-56.35,77.367-57.368z"/>
		<path fill-rule="evenodd" clip-rule="evenodd" fill="#141328" d="M47.763-56.703c0.094,0.87-0.122,1.431-0.998,1.331
			c-0.176-0.268-0.347-0.54-0.332-0.998C46.729-56.628,47.184-56.728,47.763-56.703z"/>
		<path fill-rule="evenodd" clip-rule="evenodd" fill="#141328" d="M41.774-56.37c0.871-0.094,1.432,0.122,1.331,0.998
			C42.483-54.719,41.503-55.18,41.774-56.37z"/>
		<path fill-rule="evenodd" clip-rule="evenodd" fill="#141328" d="M53.417-56.37c0.586,0.08,0.759,0.572,0.665,1.331
			c-0.442,0-0.887,0-1.33,0C52.51-55.947,53.413-55.709,53.417-56.37z"/>
		<path fill-rule="evenodd" clip-rule="evenodd" fill="#141328" d="M119.612-56.37c0.537-0.094,0.572,0.314,0.998,0.333
			c0.1,0.877-0.461,1.092-1.331,0.998C119.138-55.734,119.507-55.92,119.612-56.37z"/>
		<path fill-rule="evenodd" clip-rule="evenodd" fill="#141328" d="M16.162-54.042c-0.772-0.114-1.559-0.215-1.331-1.331
			C15.748-56.407,17.197-54.958,16.162-54.042z"/>
		<path fill-rule="evenodd" clip-rule="evenodd" fill="#141328" d="M36.453-55.705c1.041-0.155,1.485,0.289,1.33,1.331
			C36.742-54.22,36.298-54.663,36.453-55.705z"/>
		<path fill-rule="evenodd" clip-rule="evenodd" fill="#141328" d="M105.974-55.372c0.443,0,0.888,0,1.331,0
			c0.154,1.041-0.289,1.485-1.331,1.331C105.974-54.485,105.974-54.929,105.974-55.372z"/>
		<path fill-rule="evenodd" clip-rule="evenodd" fill="#141328" d="M2.191-53.709c0.876-0.1,1.092,0.461,0.998,1.331
			c-0.87,0.094-1.431-0.122-1.331-0.998C2.142-53.315,2.173-53.506,2.191-53.709z"/>
		<path fill-rule="evenodd" clip-rule="evenodd" fill="#141328" d="M24.146-53.376c0.554,0,1.108,0,1.663,0
			C26.019-51.609,24.025-51.952,24.146-53.376z"/>
		<path fill-rule="evenodd" clip-rule="evenodd" fill="#141328" d="M60.735-53.044c0.318,1.199-1.436,0.59-1.663,0.333
			C58.911-53.363,60.597-53.782,60.735-53.044z"/>
		<path fill-rule="evenodd" clip-rule="evenodd" fill="#141328" d="M111.961-53.376c1.137-0.14,1.896,0.1,1.663,1.33
			c-0.555,0-1.108,0-1.663,0C111.961-52.489,111.961-52.933,111.961-53.376z"/>
		<path fill-rule="evenodd" clip-rule="evenodd" fill="#141328" d="M82.024-51.38c-0.953,0.065-1.816,0.042-1.663-0.998
			C81.003-53.025,82.397-52.727,82.024-51.38z"/>
		<path fill-rule="evenodd" clip-rule="evenodd" fill="#141328" d="M85.351-52.711c0.869-0.094,1.431,0.121,1.33,0.998
			C86.059-51.06,85.078-51.521,85.351-52.711z"/>
		<path fill-rule="evenodd" clip-rule="evenodd" fill="#141328" d="M30.132-51.713c-0.117,0.437-0.585,0.523-0.664,0.998
			c-0.908,0.242-0.67-0.662-1.331-0.666C28.144-52.292,29.706-52.171,30.132-51.713z"/>
		<path fill-rule="evenodd" clip-rule="evenodd" fill="#141328" d="M68.719-51.713c0.262,1.281-1.593,1.281-1.331,0
			C68.049-52.268,67.812-51.683,68.719-51.713z"/>
		<path fill-rule="evenodd" clip-rule="evenodd" fill="#141328" d="M100.984-51.048c-0.497,0.527-1.896,0.486-1.663-0.665
			C99.818-52.241,101.218-52.199,100.984-51.048z"/>
		<path fill-rule="evenodd" clip-rule="evenodd" fill="#141328" d="M35.788-51.38c0.141,0.695-0.229,0.88-0.333,1.331
			c-0.597,0.042-0.702-0.407-1.331-0.333C34.271-51.55,34.825-51.793,35.788-51.38z"/>
		<path fill-rule="evenodd" clip-rule="evenodd" fill="#141328" d="M91.338-51.048c0.325,1.34-1.988,1.34-1.663,0
			C90.502-51.084,90.704-51.671,91.338-51.048z"/>
		<path fill-rule="evenodd" clip-rule="evenodd" fill="#141328" d="M47.43-49.717c-0.87,0.094-1.431-0.122-1.33-0.998
			C47.035-51.055,47.517-51.093,47.43-49.717z"/>
		<path fill-rule="evenodd" clip-rule="evenodd" fill="#141328" d="M71.712-50.715c0.268,0.176,0.541,0.347,0.998,0.333
			c0.242,0.908-0.66,0.669-0.665,1.33C71.198-49.086,71.259-50.292,71.712-50.715z"/>
		<path fill-rule="evenodd" clip-rule="evenodd" fill="#141328" d="M18.823-49.385c-0.443,0-0.887,0-1.33,0
			C17.23-50.666,19.085-50.666,18.823-49.385z"/>
		<path fill-rule="evenodd" clip-rule="evenodd" fill="#141328" d="M6.849-50.05c0.443,0,0.887,0,1.33,0
			c0.141,0.695-0.229,0.881-0.332,1.33C7.36-49.01,6.558-48.983,6.849-50.05z"/>
		<path fill-rule="evenodd" clip-rule="evenodd" fill="#141328" d="M40.112-50.05c0.332,0,0.665,0,0.997,0c0,0.443,0,0.887,0,1.33
			C40.233-48.619,40.018-49.18,40.112-50.05z"/>
		<path fill-rule="evenodd" clip-rule="evenodd" fill="#141328" d="M51.089-49.717c0.332,0,0.665,0,0.998,0c0,0.333,0,0.665,0,0.998
			C51.361-48.659,51.028-48.992,51.089-49.717z"/>
		<path fill-rule="evenodd" clip-rule="evenodd" fill="#141328" d="M116.951-49.385c0.772,0.115,1.559,0.215,1.331,1.331
			c-0.555,0-1.109,0-1.664,0C116.478-48.75,116.847-48.935,116.951-49.385z"/>
		<path fill-rule="evenodd" clip-rule="evenodd" fill="#141328" d="M76.702-49.052c1-0.335,0.59,0.741,0.665,1.331
			c-0.333,0-0.665,0-0.997,0C76.229-48.417,76.597-48.603,76.702-49.052z"/>
		<path fill-rule="evenodd" clip-rule="evenodd" fill="#141328" d="M94.664-49.052c0.876-0.1,1.092,0.461,0.998,1.331
			c-0.87,0.094-1.431-0.121-1.33-0.998C94.614-48.658,94.646-48.849,94.664-49.052z"/>
		<path fill-rule="evenodd" clip-rule="evenodd" fill="#141328" d="M11.505-48.72c1.042-0.154,1.485,0.29,1.331,1.331
			c-0.771,0.106-1.278-0.054-1.663-0.333C11.349-47.989,11.52-48.261,11.505-48.72z"/>
		<path fill-rule="evenodd" clip-rule="evenodd" fill="#141328" d="M33.459-47.057c-0.952,0.066-1.815,0.042-1.663-0.998
			C32.438-48.701,33.832-48.402,33.459-47.057z"/>
		<path fill-rule="evenodd" clip-rule="evenodd" fill="#141328" d="M56.411-47.722c0.869-0.094,1.431,0.122,1.33,0.998
			c-0.296,0.258-0.751,0.358-1.33,0.333C56.411-46.834,56.411-47.278,56.411-47.722z"/>
		<path fill-rule="evenodd" clip-rule="evenodd" fill="#141328" d="M89.675-47.722c1.151-0.233,1.193,1.167,0.665,1.663
			C89.188-45.825,89.147-47.225,89.675-47.722z"/>
		<path fill-rule="evenodd" clip-rule="evenodd" fill="#141328" d="M104.644-47.389C107.27-48.805,105.489-44.533,104.644-47.389
			L104.644-47.389z"/>
		<path fill-rule="evenodd" clip-rule="evenodd" fill="#141328" d="M122.273-47.389c0.451,0.103,0.276,0.833,0.332,1.33
			C121.834-46.151,121.841-46.947,122.273-47.389z"/>
		<path fill-rule="evenodd" clip-rule="evenodd" fill="#141328" d="M22.481-46.724c1.042-0.154,1.485,0.289,1.331,1.331
			c-0.597-0.042-0.701,0.407-1.331,0.333C22.055-45.497,22.055-46.287,22.481-46.724z"/>
		<path fill-rule="evenodd" clip-rule="evenodd" fill="#141328" d="M111.961-46.391c0,0.443,0,0.887,0,1.331
			c-0.442,0-0.887,0-1.33,0C110.476-46.102,110.92-46.545,111.961-46.391z"/>
		<path fill-rule="evenodd" clip-rule="evenodd" fill="#141328" d="M64.395-46.059c0.896,0.022,1.599,0.761,0.998,1.331
			C64.516-44.627,64.301-45.188,64.395-46.059z"/>
		<path fill-rule="evenodd" clip-rule="evenodd" fill="#141328" d="M71.712-45.726c1.012-0.014,2.189-0.193,1.996,0.998
			C72.696-44.714,71.519-44.534,71.712-45.726z"/>
		<path fill-rule="evenodd" clip-rule="evenodd" fill="#141328" d="M84.353-45.726c0.537-0.094,0.572,0.314,0.998,0.333
			c0.1,0.876-0.461,1.092-1.33,0.998C83.879-45.09,84.248-45.276,84.353-45.726z"/>
		<path fill-rule="evenodd" clip-rule="evenodd" fill="#141328" d="M97.658-45.393c1.198-0.09,2.301-0.083,1.995,1.331
			C98.455-43.973,97.353-43.979,97.658-45.393z"/>
		<path fill-rule="evenodd" clip-rule="evenodd" fill="#141328" d="M40.777-45.061c0.332,0,0.665,0,0.997,0c0,0.333,0,0.666,0,0.998
			c-0.332,0-0.665,0-0.997,0C40.777-44.395,40.777-44.728,40.777-45.061z"/>
		<path fill-rule="evenodd" clip-rule="evenodd" fill="#141328" d="M3.522-44.728c0.695-0.141,0.881,0.228,1.33,0.333
			c-0.08,0.585-0.572,0.758-1.33,0.666C3.522-44.063,3.522-44.395,3.522-44.728z"/>
		<path fill-rule="evenodd" clip-rule="evenodd" fill="#141328" d="M7.847-44.063c0.876-0.101,1.092,0.461,0.997,1.331
			c-0.695,0.141-0.881-0.228-1.33-0.333C7.689-43.332,7.86-43.604,7.847-44.063z"/>
		<path fill-rule="evenodd" clip-rule="evenodd" fill="#141328" d="M14.166-44.063c0.87-0.094,1.431,0.122,1.331,0.998
			C14.874-42.411,13.895-42.872,14.166-44.063z"/>
		<path fill-rule="evenodd" clip-rule="evenodd" fill="#141328" d="M45.435-43.729c0.332,0,0.665,0,0.998,0
			c0.279,0.386,0.438,0.892,0.332,1.663c-0.443,0-0.887,0-1.33,0C45.435-42.621,45.435-43.175,45.435-43.729z"/>
		<path fill-rule="evenodd" clip-rule="evenodd" fill="#141328" d="M27.804-43.397c0.877-0.1,1.093,0.461,0.998,1.331
			c-0.332,0-0.665,0-0.998,0C27.804-42.51,27.804-42.954,27.804-43.397z"/>
		<path fill-rule="evenodd" clip-rule="evenodd" fill="#141328" d="M59.405-43.397c0.332,0,0.664,0,0.997,0c0,0.443,0,0.887,0,1.331
			C59.526-41.966,59.312-42.527,59.405-43.397z"/>
		<path fill-rule="evenodd" clip-rule="evenodd" fill="#141328" d="M91.005-43.397c1.042-0.154,1.484,0.29,1.331,1.331
			c-0.444,0-0.887,0-1.331,0C91.005-42.51,91.005-42.954,91.005-43.397z"/>
		<path fill-rule="evenodd" clip-rule="evenodd" fill="#141328" d="M34.124-42.732c1.152-0.233,1.193,1.167,0.666,1.663
			C33.638-40.835,33.597-42.235,34.124-42.732z"/>
		<path fill-rule="evenodd" clip-rule="evenodd" fill="#141328" d="M52.087-42.732c0.443,0,0.887,0,1.33,0
			c0.155,1.042-0.289,1.485-1.33,1.331C52.087-41.845,52.087-42.289,52.087-42.732z"/>
		<path fill-rule="evenodd" clip-rule="evenodd" fill="#141328" d="M118.946-42.066c0.154,1.041-0.289,1.484-1.33,1.331
			c0.042-0.597-0.408-0.702-0.333-1.331C117.721-42.494,118.51-42.494,118.946-42.066z"/>
		<path fill-rule="evenodd" clip-rule="evenodd" fill="#141328" d="M70.715-40.736c-0.643,0.646-2.036,0.348-1.663-0.998
			C70.013-42.147,70.567-41.904,70.715-40.736z"/>
		<path fill-rule="evenodd" clip-rule="evenodd" fill="#141328" d="M80.361-41.401c-0.05,0.728-0.839,0.714-1.663,0.666
			C78.464-41.888,79.864-41.929,80.361-41.401z"/>
		<path fill-rule="evenodd" clip-rule="evenodd" fill="#141328" d="M102.314-41.401c0.269,0.176,0.54,0.347,0.998,0.333
			c0.101,0.876-0.46,1.092-1.33,0.998C101.841-40.766,102.211-40.952,102.314-41.401z"/>
		<path fill-rule="evenodd" clip-rule="evenodd" fill="#141328" d="M75.371-40.736c0.319,1.198-1.436,0.589-1.663,0.333
			C73.547-41.056,75.233-41.475,75.371-40.736z"/>
		<path fill-rule="evenodd" clip-rule="evenodd" fill="#141328" d="M87.679-40.071c-0.597-0.042-0.701,0.407-1.33,0.333
			c-0.176-0.268-0.347-0.54-0.333-0.998C86.513-41.264,87.912-41.222,87.679-40.071z"/>
		<path fill-rule="evenodd" clip-rule="evenodd" fill="#141328" d="M96.327-40.736c-0.033,0.846-1.239,0.786-1.663,0.333
			C94.698-41.25,95.904-41.189,96.327-40.736z"/>
		<path fill-rule="evenodd" clip-rule="evenodd" fill="#141328" d="M20.486-40.071c0.87-0.094,1.431,0.122,1.33,0.998
			C21.194-38.419,20.215-38.88,20.486-40.071z"/>
		<path fill-rule="evenodd" clip-rule="evenodd" fill="#141328" d="M111.961-39.406c0.142,0.695-0.228,0.881-0.333,1.331
			c-0.846-0.041-1.289-0.484-1.33-1.331C110.735-39.832,111.524-39.832,111.961-39.406z"/>
		<path fill-rule="evenodd" clip-rule="evenodd" fill="#141328" d="M48.095-39.406c0.443,0,0.888,0,1.331,0
			c0.142,0.695-0.228,0.881-0.333,1.331C48.607-38.365,47.805-38.339,48.095-39.406z"/>
		<path fill-rule="evenodd" clip-rule="evenodd" fill="#141328" d="M41.442-39.073c0.526,0.027,1.269-0.16,1.331,0.333
			C43.136-37.572,40.732-37.85,41.442-39.073z"/>
		<path fill-rule="evenodd" clip-rule="evenodd" fill="#141328" d="M16.162-38.74c1.042-0.154,1.484,0.289,1.331,1.33
			c-0.444,0-0.888,0-1.331,0C16.162-37.853,16.162-38.297,16.162-38.74z"/>
		<path fill-rule="evenodd" clip-rule="evenodd" fill="#141328" d="M28.47-38.74c0.559,1.579-1.914,1.834-1.663,0.333
			C27.192-38.687,27.698-38.847,28.47-38.74z"/>
		<path fill-rule="evenodd" clip-rule="evenodd" fill="#141328" d="M52.42-38.408c1.041-0.154,1.484,0.289,1.33,1.331
			C52.708-36.923,52.266-37.366,52.42-38.408z"/>
		<path fill-rule="evenodd" clip-rule="evenodd" fill="#141328" d="M2.191-37.41c0,0.333,0,0.666,0,0.998
			c-0.695,0.141-0.881-0.228-1.33-0.333C0.941-37.33,1.433-37.503,2.191-37.41z"/>
		<path fill-rule="evenodd" clip-rule="evenodd" fill="#141328" d="M6.849-37.41c0.526,0.028,1.269-0.16,1.33,0.333
			C8.542-35.909,6.139-36.187,6.849-37.41z"/>
		<path fill-rule="evenodd" clip-rule="evenodd" fill="#141328" d="M37.45-37.41c0.333,0,0.666,0,0.999,0c0,0.333,0,0.666,0,0.998
			c-0.333,0-0.666,0-0.999,0C37.45-36.745,37.45-37.077,37.45-37.41z"/>
		<path fill-rule="evenodd" clip-rule="evenodd" fill="#141328" d="M102.314-37.41c0.443,0,0.888,0,1.331,0c0,0.444,0,0.888,0,1.331
			C102.604-35.925,102.16-36.368,102.314-37.41z"/>
		<path fill-rule="evenodd" clip-rule="evenodd" fill="#141328" d="M57.741-37.077c0.87-0.094,1.432,0.122,1.331,0.998
			C58.612-35.588,57.489-35.907,57.741-37.077z"/>
		<path fill-rule="evenodd" clip-rule="evenodd" fill="#141328" d="M92.668-37.077c0.333,0,0.665,0,0.998,0c0,0.333,0,0.665,0,0.998
			c-0.333,0-0.665,0-0.998,0C92.668-36.412,92.668-36.745,92.668-37.077z"/>
		<path fill-rule="evenodd" clip-rule="evenodd" fill="#141328" d="M85.351-35.414c-0.559,0.563-1.953,0.265-1.664-0.998
			C84.649-36.824,85.203-36.581,85.351-35.414z"/>
		<path fill-rule="evenodd" clip-rule="evenodd" fill="#141328" d="M120.277-36.412c1.041-0.154,1.485,0.289,1.331,1.331
			c-0.443,0-0.889,0-1.331,0C120.277-35.524,120.277-35.968,120.277-36.412z"/>
		<path fill-rule="evenodd" clip-rule="evenodd" fill="#141328" d="M64.395-35.414c0.876-0.101,1.091,0.461,0.998,1.331
			c-0.87,0.094-1.432-0.121-1.331-0.998C64.345-35.02,64.376-35.211,64.395-35.414z"/>
		<path fill-rule="evenodd" clip-rule="evenodd" fill="#141328" d="M75.039-35.414c0.876-0.101,1.092,0.461,0.997,1.331
			c-0.442,0-0.887,0-1.33,0C74.565-34.778,74.935-34.964,75.039-35.414z"/>
		<path fill-rule="evenodd" clip-rule="evenodd" fill="#141328" d="M31.796-35.082c0.332,0,0.666,0,0.998,0
			c0.106,0.772-0.054,1.277-0.332,1.664c-0.268-0.176-0.541-0.347-0.999-0.333C31.421-34.348,31.87-34.452,31.796-35.082z"/>
		<path fill-rule="evenodd" clip-rule="evenodd" fill="#141328" d="M81.358-34.083c0.043,0.597-0.407,0.702-0.332,1.331
			c-1.041,0.154-1.485-0.289-1.331-1.331C80.133-34.51,80.922-34.51,81.358-34.083z"/>
		<path fill-rule="evenodd" clip-rule="evenodd" fill="#141328" d="M98.323-34.416c0.952-0.065,1.815-0.042,1.663,0.998
			C99.345-32.771,97.95-33.07,98.323-34.416z"/>
		<path fill-rule="evenodd" clip-rule="evenodd" fill="#141328" d="M112.959-34.416c1.042-0.154,1.485,0.289,1.331,1.331
			c-0.443,0-0.887,0-1.331,0C112.959-33.529,112.959-33.973,112.959-34.416z"/>
		<path fill-rule="evenodd" clip-rule="evenodd" fill="#141328" d="M43.105-33.751c0.876-0.1,1.092,0.461,0.998,1.331
			c-0.443,0-0.887,0-1.33,0C42.632-33.115,43.001-33.301,43.105-33.751z"/>
		<path fill-rule="evenodd" clip-rule="evenodd" fill="#141328" d="M69.384-33.418c0.527,0.027,1.27-0.16,1.331,0.333
			C71.077-31.918,68.674-32.195,69.384-33.418z"/>
		<path fill-rule="evenodd" clip-rule="evenodd" fill="#141328" d="M12.17-33.085c0.527,0.028,1.27-0.16,1.331,0.333
			C13.864-31.585,11.46-31.862,12.17-33.085z"/>
		<path fill-rule="evenodd" clip-rule="evenodd" fill="#141328" d="M48.428-32.42c-0.029,0.989-1.983,0.89-1.663-0.333
			C47.456-33.475,47.84-32.712,48.428-32.42z"/>
		<path fill-rule="evenodd" clip-rule="evenodd" fill="#141328" d="M4.188-32.753c0.437,0.118,0.523,0.585,0.997,0.665
			c-0.028,0.99-1.983,0.891-1.662-0.332C3.908-32.366,4.113-32.494,4.188-32.753z"/>
		<path fill-rule="evenodd" clip-rule="evenodd" fill="#141328" d="M22.149-32.753c0.876-0.1,1.092,0.461,0.998,1.331
			c-0.869,0.094-1.431-0.122-1.331-0.998C22.1-32.359,22.13-32.55,22.149-32.753z"/>
		<path fill-rule="evenodd" clip-rule="evenodd" fill="#141328" d="M58.074-31.755c-0.79,0.194-1.549,0.509-1.663-0.665
			C56.908-32.948,58.308-32.906,58.074-31.755z"/>
		<path fill-rule="evenodd" clip-rule="evenodd" fill="#141328" d="M92.668-32.753c0.223,0,0.444,0,0.665,0
			c-0.061,0.283,0.131,0.314,0.333,0.333c0,0.222,0,0.443,0,0.665c-0.282-0.062-0.313,0.13-0.333,0.333c-0.221,0-0.442,0-0.665,0
			c0.062-0.283-0.129-0.314-0.332-0.333c0-0.222,0-0.443,0-0.665C92.618-32.359,92.649-32.55,92.668-32.753z"/>
		<path fill-rule="evenodd" clip-rule="evenodd" fill="#141328" d="M17.16-32.42c0.868-0.093,1.665-0.113,1.33,0.998
			C17.621-31.328,17.06-31.544,17.16-32.42z"/>
		<path fill-rule="evenodd" clip-rule="evenodd" fill="#141328" d="M38.116-31.755c0.877-0.101,1.092,0.46,0.998,1.331
			c-0.87,0.094-1.432-0.122-1.331-0.998C38.066-31.361,38.098-31.552,38.116-31.755z"/>
		<path fill-rule="evenodd" clip-rule="evenodd" fill="#141328" d="M75.704-29.759c-0.953,0.065-1.815,0.041-1.664-0.998
			C74.683-31.404,76.077-31.105,75.704-29.759z"/>
		<path fill-rule="evenodd" clip-rule="evenodd" fill="#141328" d="M84.353-30.757c0.443,0,0.888,0,1.33,0
			c0.155,1.041-0.289,1.484-1.33,1.331C84.353-29.87,84.353-30.313,84.353-30.757z"/>
		<path fill-rule="evenodd" clip-rule="evenodd" fill="#141328" d="M106.307-29.426c-0.478,0.507-1.734,0.324-1.663-0.666
			C105.14-30.62,106.54-30.578,106.307-29.426z"/>
		<path fill-rule="evenodd" clip-rule="evenodd" fill="#141328" d="M110.631-29.426c-0.771,0.106-1.277-0.054-1.663-0.333
			C108.996-30.749,110.951-30.649,110.631-29.426z"/>
		<path fill-rule="evenodd" clip-rule="evenodd" fill="#141328" d="M121.274-30.424c1.043-0.154,1.485,0.289,1.331,1.331
			c-0.443,0-0.887,0-1.331,0C121.274-29.537,121.274-29.981,121.274-30.424z"/>
		<path fill-rule="evenodd" clip-rule="evenodd" fill="#141328" d="M115.62-28.096c-0.772-0.114-1.559-0.215-1.33-1.33
			C115.206-30.462,116.655-29.013,115.62-28.096z"/>
		<path fill-rule="evenodd" clip-rule="evenodd" fill="#141328" d="M49.759-29.426c1.28-0.262,1.28,1.592,0,1.33
			C49.788-29.004,49.204-28.765,49.759-29.426z"/>
		<path fill-rule="evenodd" clip-rule="evenodd" fill="#141328" d="M33.792-29.094c0.726-0.061,1.059,0.272,0.998,0.998
			c-0.333,0-0.666,0-0.998,0C33.792-28.429,33.792-28.761,33.792-29.094z"/>
		<path fill-rule="evenodd" clip-rule="evenodd" fill="#141328" d="M3.854-28.761c0.409,0.145,0.684,0.426,0.665,0.998
			C3.365-27.473,3.379-28.275,3.854-28.761z"/>
		<path fill-rule="evenodd" clip-rule="evenodd" fill="#141328" d="M64.728-27.763c-0.692,0.721-1.075-0.041-1.664-0.333
			C63.093-29.086,65.048-28.986,64.728-27.763z"/>
		<path fill-rule="evenodd" clip-rule="evenodd" fill="#141328" d="M8.512-28.429c1.151-0.233,1.192,1.166,0.665,1.663
			C8.339-26.845,7.798-27.746,8.512-28.429z"/>
		<path fill-rule="evenodd" clip-rule="evenodd" fill="#141328" d="M25.476-28.429c0.527,0.027,1.27-0.16,1.331,0.333
			C27.169-26.928,24.766-27.205,25.476-28.429z"/>
		<path fill-rule="evenodd" clip-rule="evenodd" fill="#141328" d="M97.99-28.096c0.154,1.042-0.289,1.485-1.33,1.331
			C95.625-27.682,97.074-29.131,97.99-28.096z"/>
		<path fill-rule="evenodd" clip-rule="evenodd" fill="#141328" d="M40.777-28.096c0.443,0,0.887,0,1.33,0
			C42.37-26.815,40.515-26.815,40.777-28.096z"/>
		<path fill-rule="evenodd" clip-rule="evenodd" fill="#141328" d="M69.716-27.431c-0.049,0.728-0.838,0.714-1.662,0.665
			c0.053-0.387-0.074-0.592-0.333-0.665C67.956-28.626,69.282-27.898,69.716-27.431z"/>
		<path fill-rule="evenodd" clip-rule="evenodd" fill="#141328" d="M53.75-27.098c0.869-0.093,1.664-0.112,1.331,0.998
			C54.21-26.006,53.649-26.222,53.75-27.098z"/>
		<path fill-rule="evenodd" clip-rule="evenodd" fill="#141328" d="M16.827-26.766c0.877-0.1,1.092,0.461,0.998,1.331
			c-0.87,0.094-1.431-0.121-1.331-0.998C16.778-26.372,16.809-26.563,16.827-26.766z"/>
		<path fill-rule="evenodd" clip-rule="evenodd" fill="#141328" d="M107.637-26.766c0.106,0.771-0.054,1.277-0.332,1.663
			c-0.494-0.393-1.486-0.288-1.331-1.33C106.359-26.712,106.865-26.871,107.637-26.766z"/>
		<path fill-rule="evenodd" clip-rule="evenodd" fill="#141328" d="M78.698-26.1c0.477,1.661-1.709,1.628-1.664,0.333
			C77.421-26.047,77.926-26.206,78.698-26.1z"/>
		<path fill-rule="evenodd" clip-rule="evenodd" fill="#141328" d="M119.279-26.1c0,0.444,0,0.887,0,1.331
			c-0.87,0.094-1.431-0.122-1.331-0.998C118.245-26.026,118.7-26.125,119.279-26.1z"/>
		<path fill-rule="evenodd" clip-rule="evenodd" fill="#141328" d="M4.188-25.768c0.869-0.094,1.431,0.122,1.33,0.998
			C4.896-24.116,3.915-24.577,4.188-25.768z"/>
		<path fill-rule="evenodd" clip-rule="evenodd" fill="#141328" d="M20.819-25.768c0.437,0.118,0.523,0.585,0.997,0.665
			c-0.028,0.99-1.983,0.891-1.663-0.333C20.54-25.381,20.746-25.508,20.819-25.768z"/>
		<path fill-rule="evenodd" clip-rule="evenodd" fill="#141328" d="M31.131-25.435c0.094,0.87-0.122,1.431-0.999,1.331
			c-0.176-0.268-0.346-0.54-0.332-0.998C30.096-25.361,30.551-25.46,31.131-25.435z"/>
		<path fill-rule="evenodd" clip-rule="evenodd" fill="#141328" d="M75.039-24.437c-0.497,0.528-1.896,0.486-1.664-0.666
			C73.872-25.63,75.272-25.589,75.039-24.437z"/>
		<path fill-rule="evenodd" clip-rule="evenodd" fill="#141328" d="M84.353-25.435c0.333,0,0.665,0,0.998,0c0,0.333,0,0.666,0,0.998
			c-0.333,0-0.665,0-0.998,0C84.353-24.77,84.353-25.103,84.353-25.435z"/>
		<path fill-rule="evenodd" clip-rule="evenodd" fill="#141328" d="M64.728-25.103c0,0.333,0,0.666,0,0.998
			c-0.695,0.141-0.881-0.228-1.331-0.333C63.477-25.022,63.969-25.195,64.728-25.103z"/>
		<path fill-rule="evenodd" clip-rule="evenodd" fill="#141328" d="M10.175-23.771c-0.477,0.507-1.734,0.323-1.663-0.666
			C9.008-24.965,10.407-24.923,10.175-23.771z"/>
		<path fill-rule="evenodd" clip-rule="evenodd" fill="#141328" d="M58.074-24.437c0.677,0.242,1.358,1.001,0.665,1.664
			C57.588-22.541,57.546-23.94,58.074-24.437z"/>
		<path fill-rule="evenodd" clip-rule="evenodd" fill="#141328" d="M112.627-23.771c0.771-0.106,1.277,0.053,1.663,0.333
			c-0.289,0.487-0.498,1.054-1.331,0.998C112.7-22.737,112.602-23.192,112.627-23.771z"/>
		<path fill-rule="evenodd" clip-rule="evenodd" fill="#141328" d="M92.003-22.441c-0.496,0.528-1.896,0.486-1.663-0.665
			C90.837-23.634,92.236-23.593,92.003-22.441z"/>
		<path fill-rule="evenodd" clip-rule="evenodd" fill="#141328" d="M46.433-22.108c-0.497,0.528-1.896,0.486-1.664-0.665
			C45.266-23.302,46.665-23.26,46.433-22.108z"/>
		<path fill-rule="evenodd" clip-rule="evenodd" fill="#141328" d="M98.989-23.106c0.332,0,0.664,0,0.997,0c0,0.333,0,0.665,0,0.998
			c-0.333,0-0.665,0-0.997,0C98.989-22.441,98.989-22.773,98.989-23.106z"/>
		<path fill-rule="evenodd" clip-rule="evenodd" fill="#141328" d="M48.095-22.108c0.869-0.093,1.665-0.112,1.331,0.998
			C48.556-21.017,47.995-21.232,48.095-22.108z"/>
		<path fill-rule="evenodd" clip-rule="evenodd" fill="#141328" d="M69.716-21.11c-0.496,0.527-1.896,0.486-1.662-0.666
			C68.55-22.304,69.95-22.262,69.716-21.11z"/>
		<path fill-rule="evenodd" clip-rule="evenodd" fill="#141328" d="M116.618-21.443c0.537-0.094,0.572,0.314,0.998,0.333
			c0.1,0.876-0.461,1.092-1.33,0.998C116.146-20.808,116.514-20.994,116.618-21.443z"/>
		<path fill-rule="evenodd" clip-rule="evenodd" fill="#141328" d="M14.499-19.78c-0.597-0.042-0.702,0.407-1.33,0.333
			C12.028-20.736,14.616-21.464,14.499-19.78z"/>
		<path fill-rule="evenodd" clip-rule="evenodd" fill="#141328" d="M33.459-20.778c0.223,0,0.444,0,0.665,0
			c-0.061,0.283,0.13,0.314,0.333,0.333c0,0.222,0,0.443,0,0.666c-0.283-0.062-0.313,0.129-0.333,0.333c-0.221,0-0.442,0-0.665,0
			c0.062-0.283-0.13-0.314-0.332-0.333c0-0.222,0-0.444,0-0.666C33.409-20.384,33.44-20.575,33.459-20.778z"/>
		<path fill-rule="evenodd" clip-rule="evenodd" fill="#141328" d="M54.415-20.445c0.263,1.281-1.593,1.281-1.33,0
			C53.745-20.999,53.507-20.415,54.415-20.445z"/>
		<path fill-rule="evenodd" clip-rule="evenodd" fill="#141328" d="M4.853-20.445c1.041-0.154,1.484,0.289,1.33,1.331
			C5.142-18.961,4.698-19.404,4.853-20.445z"/>
		<path fill-rule="evenodd" clip-rule="evenodd" fill="#141328" d="M21.816-20.445c0.772-0.106,1.277,0.053,1.664,0.333
			c0.151,1.039-0.711,1.063-1.664,0.998C21.816-19.559,21.816-20.002,21.816-20.445z"/>
		<path fill-rule="evenodd" clip-rule="evenodd" fill="#141328" d="M39.779-20.445c0.579,0.3,1.281,0.744,0.665,1.331
			C39.409-18.959,39.256-19.951,39.779-20.445z"/>
		<path fill-rule="evenodd" clip-rule="evenodd" fill="#141328" d="M107.97-20.112c0.443,0,0.887,0,1.33,0
			c0.142,0.695-0.228,0.88-0.332,1.33C108.481-19.072,107.68-19.046,107.97-20.112z"/>
		<path fill-rule="evenodd" clip-rule="evenodd" fill="#141328" d="M83.354-19.447c0.443,0,0.887,0,1.331,0c0,0.443,0,0.887,0,1.331
			C83.54-17.859,83.096-18.302,83.354-19.447z"/>
		<path fill-rule="evenodd" clip-rule="evenodd" fill="#141328" d="M77.7-17.119C74.337-16.79,77.739-20.192,77.7-17.119
			L77.7-17.119z"/>
		<path fill-rule="evenodd" clip-rule="evenodd" fill="#141328" d="M27.804-18.117c0.333,0,0.666,0,0.998,0c0,0.333,0,0.665,0,0.998
			c-0.332,0-0.665,0-0.998,0C27.804-17.452,27.804-17.784,27.804-18.117z"/>
		<path fill-rule="evenodd" clip-rule="evenodd" fill="#141328" d="M100.984-18.117c0.876-0.101,1.092,0.46,0.998,1.331
			c-0.444,0-0.888,0-1.331,0C100.511-17.481,100.88-17.667,100.984-18.117z"/>
		<path fill-rule="evenodd" clip-rule="evenodd" fill="#141328" d="M0.528-17.784c0.443,0,0.887,0,1.33,0
			C2.247-16.629,0-16.238,0.528-17.784z"/>
		<path fill-rule="evenodd" clip-rule="evenodd" fill="#141328" d="M64.728-17.784c0.221,0,0.442,0,0.665,0
			c-0.062,0.283,0.129,0.314,0.332,0.333c0,0.222,0,0.443,0,0.666c-0.282-0.062-0.313,0.13-0.332,0.332c-0.223,0-0.444,0-0.665,0
			c0.061-0.282-0.131-0.313-0.333-0.332c0-0.222,0-0.443,0-0.666C64.677-17.391,64.708-17.582,64.728-17.784z"/>
		<path fill-rule="evenodd" clip-rule="evenodd" fill="#141328" d="M60.402-17.452c0.443,0,0.888,0,1.331,0c0,0.443,0,0.887,0,1.331
			C60.692-15.967,60.248-16.41,60.402-17.452z"/>
		<path fill-rule="evenodd" clip-rule="evenodd" fill="#141328" d="M47.43-17.119c0.87-0.093,1.431,0.122,1.331,0.998
			c-0.297,0.258-0.751,0.358-1.331,0.333C47.43-16.231,47.43-16.675,47.43-17.119z"/>
		<path fill-rule="evenodd" clip-rule="evenodd" fill="#141328" d="M70.382-17.119c1.041-0.154,1.484,0.289,1.33,1.331
			C70.671-15.634,70.228-16.077,70.382-17.119z"/>
		<path fill-rule="evenodd" clip-rule="evenodd" fill="#141328" d="M92.668-16.786c0.333,0,0.665,0,0.998,0c0,0.443,0,0.887,0,1.33
			C92.556-15.122,92.575-15.917,92.668-16.786z"/>
		<path fill-rule="evenodd" clip-rule="evenodd" fill="#141328" d="M52.42-16.121c0.868-0.093,1.664-0.112,1.33,0.998
			C52.88-15.029,52.319-15.245,52.42-16.121z"/>
		<path fill-rule="evenodd" clip-rule="evenodd" fill="#141328" d="M5.185-15.789c0.871-0.094,1.432,0.122,1.331,0.998
			c-0.296,0.258-0.751,0.357-1.331,0.333C5.185-14.901,5.185-15.345,5.185-15.789z"/>
		<path fill-rule="evenodd" clip-rule="evenodd" fill="#141328" d="M119.612-15.789c1.151-0.233,1.193,1.167,0.665,1.664
			C119.126-13.892,119.084-15.292,119.612-15.789z"/>
		<path fill-rule="evenodd" clip-rule="evenodd" fill="#141328" d="M110.298-15.123c0.318,1.199-1.436,0.589-1.662,0.333
			C108.474-15.442,110.16-15.862,110.298-15.123z"/>
		<path fill-rule="evenodd" clip-rule="evenodd" fill="#141328" d="M16.494-14.791c0,0.333,0,0.666,0,0.998
			c-0.694,0.141-0.881-0.228-1.33-0.333C15.245-14.71,15.736-14.884,16.494-14.791z"/>
		<path fill-rule="evenodd" clip-rule="evenodd" fill="#141328" d="M33.792-14.791c0.876-0.1,1.092,0.46,0.998,1.331
			c-0.87,0.094-1.431-0.121-1.331-0.998C33.742-14.396,33.772-14.588,33.792-14.791z"/>
		<path fill-rule="evenodd" clip-rule="evenodd" fill="#141328" d="M19.488-14.458c0.87-0.094,1.431,0.122,1.331,0.998
			C20.196-12.807,19.216-13.268,19.488-14.458z"/>
		<path fill-rule="evenodd" clip-rule="evenodd" fill="#141328" d="M41.442-14.458c0.443,0,0.887,0,1.331,0c0,0.443,0,0.887,0,1.331
			C41.731-12.973,41.288-13.417,41.442-14.458z"/>
		<path fill-rule="evenodd" clip-rule="evenodd" fill="#141328" d="M85.351-14.125c1.011-0.014,2.189-0.193,1.996,0.998
			C86.69-12.51,84.896-12.633,85.351-14.125z"/>
		<path fill-rule="evenodd" clip-rule="evenodd" fill="#141328" d="M56.743-13.792c1.042-0.154,1.485,0.289,1.331,1.331
			c-0.771,0.106-1.277-0.054-1.663-0.333C56.587-13.062,56.758-13.334,56.743-13.792z"/>
		<path fill-rule="evenodd" clip-rule="evenodd" fill="#141328" d="M91.671-13.127c0.262,1.281-1.594,1.281-1.331,0
			C91.001-13.682,90.763-13.097,91.671-13.127z"/>
		<path fill-rule="evenodd" clip-rule="evenodd" fill="#141328" d="M11.173-13.127c0.537-0.094,0.572,0.315,0.997,0.333
			c0.101,0.876-0.46,1.092-1.33,0.998C10.698-12.492,11.068-12.678,11.173-13.127z"/>
		<path fill-rule="evenodd" clip-rule="evenodd" fill="#141328" d="M27.804-12.129c0.318,1.199-1.436,0.589-1.662,0.333
			C25.98-12.449,27.666-12.868,27.804-12.129z"/>
		<path fill-rule="evenodd" clip-rule="evenodd" fill="#141328" d="M67.056-12.462c0.222,0,0.443,0,0.665,0
			c-0.062,0.283,0.13,0.313,0.333,0.333c0,0.222,0,0.443,0,0.666c-0.283-0.062-0.314,0.129-0.333,0.333c-0.222,0-0.443,0-0.665,0
			c0.061-0.283-0.13-0.314-0.332-0.333c0-0.222,0-0.443,0-0.666C67.006-12.068,67.037-12.259,67.056-12.462z"/>
		<path fill-rule="evenodd" clip-rule="evenodd" fill="#141328" d="M81.358-11.464c-1.044,0.369-0.878,0.155-1.663-0.333
			C79.725-12.786,81.679-12.687,81.358-11.464z"/>
		<path fill-rule="evenodd" clip-rule="evenodd" fill="#141328" d="M114.955-12.462c0,0.443,0,0.887,0,1.331
			c-0.87,0.094-1.431-0.122-1.331-0.998C113.921-12.388,114.375-12.487,114.955-12.462z"/>
		<path fill-rule="evenodd" clip-rule="evenodd" fill="#141328" d="M104.976-12.129c0.527,0.028,1.27-0.16,1.331,0.333
			C106.67-10.629,104.266-10.906,104.976-12.129z"/>
		<path fill-rule="evenodd" clip-rule="evenodd" fill="#141328" d="M99.986-11.797c0,0.443,0,0.887,0,1.331
			c-0.952,0.065-1.815,0.042-1.663-0.998C98.709-11.743,99.215-11.903,99.986-11.797z"/>
		<path fill-rule="evenodd" clip-rule="evenodd" fill="#141328" d="M51.754-11.464c0.877-0.101,1.093,0.46,0.998,1.33
			c-0.443,0-0.887,0-1.331,0C51.28-10.829,51.649-11.014,51.754-11.464z"/>
		<path fill-rule="evenodd" clip-rule="evenodd" fill="#141328" d="M62.065-11.464c0.586,0.08,0.759,0.572,0.666,1.33
			c-0.695,0.141-0.881-0.228-1.331-0.333C61.519-10.903,61.986-10.989,62.065-11.464z"/>
		<path fill-rule="evenodd" clip-rule="evenodd" fill="#141328" d="M7.847-10.799c0,0.443,0,0.887,0,1.331
			C6.894-9.403,6.03-9.427,6.183-10.466C6.569-10.746,7.075-10.905,7.847-10.799z"/>
		<path fill-rule="evenodd" clip-rule="evenodd" fill="#141328" d="M17.493-10.134c1.041-0.154,1.484,0.289,1.33,1.331
			C17.781-8.649,17.339-9.092,17.493-10.134z"/>
		<path fill-rule="evenodd" clip-rule="evenodd" fill="#141328" d="M72.045-9.801c0.095,0.87-0.121,1.431-0.998,1.331
			c-0.176-0.268-0.347-0.54-0.332-0.998C71.011-9.727,71.466-9.826,72.045-9.801z"/>
		<path fill-rule="evenodd" clip-rule="evenodd" fill="#141328" d="M77.034-9.468c0.908-0.242,0.67,0.661,1.331,0.666
			C78.149-7.209,75.887-8.144,77.034-9.468z"/>
		<path fill-rule="evenodd" clip-rule="evenodd" fill="#141328" d="M86.681-9.468c0.443,0,0.888,0,1.331,0c0,0.443,0,0.887,0,1.331
			C86.866-7.879,86.423-8.323,86.681-9.468z"/>
		<path fill-rule="evenodd" clip-rule="evenodd" fill="#141328" d="M33.459-9.136c0.87-0.094,1.431,0.122,1.331,0.998
			C33.921-8.045,33.126-8.025,33.459-9.136z"/>
		<path fill-rule="evenodd" clip-rule="evenodd" fill="#141328" d="M39.446-8.138c-0.497,0.527-1.896,0.486-1.663-0.665
			C38.28-9.331,39.68-9.289,39.446-8.138z"/>
		<path fill-rule="evenodd" clip-rule="evenodd" fill="#141328" d="M24.146-7.473c-0.953,0.065-1.815,0.042-1.664-0.998
			C23.317-8.757,24.265-8.906,24.146-7.473z"/>
		<path fill-rule="evenodd" clip-rule="evenodd" fill="#141328" d="M100.984-8.803c1.198-0.09,2.301-0.083,1.996,1.33
			C102.265-6.854,100.718-7.423,100.984-8.803z"/>
		<path fill-rule="evenodd" clip-rule="evenodd" fill="#141328" d="M0.861-8.138c0.876-0.101,1.091,0.46,0.997,1.331
			c-0.869,0.094-1.431-0.122-1.33-0.998C0.811-7.744,0.842-7.935,0.861-8.138z"/>
		<path fill-rule="evenodd" clip-rule="evenodd" fill="#141328" d="M45.435-7.805c0,0.443,0,0.887,0,1.331
			C43.886-6.177,43.729-8.237,45.435-7.805z"/>
		<path fill-rule="evenodd" clip-rule="evenodd" fill="#141328" d="M57.077-7.473c0.869-0.093,1.43,0.122,1.33,0.998
			C57.538-6.381,56.742-6.362,57.077-7.473z"/>
		<path fill-rule="evenodd" clip-rule="evenodd" fill="#141328" d="M111.628-7.473c0.953-0.065,1.816-0.041,1.664,0.998
			C112.649-5.828,111.256-6.127,111.628-7.473z"/>
		<path fill-rule="evenodd" clip-rule="evenodd" fill="#141328" d="M95.329-5.81c-0.869,0.094-1.431-0.121-1.33-0.998
			C94.935-7.147,95.416-7.185,95.329-5.81z"/>
		<path fill-rule="evenodd" clip-rule="evenodd" fill="#141328" d="M108.636-7.14c1.17-0.251,1.488,0.871,0.997,1.331
			C108.756-5.709,108.541-6.27,108.636-7.14z"/>
		<path fill-rule="evenodd" clip-rule="evenodd" fill="#141328" d="M25.809-5.81c0.537-0.093,0.572,0.314,0.998,0.333
			c-0.063,0.27-0.334,0.332-0.333,0.665c-0.222,0-0.443,0-0.665,0C25.809-5.144,25.809-5.477,25.809-5.81z"/>
		<path fill-rule="evenodd" clip-rule="evenodd" fill="#141328" d="M81.026-5.81c0.82-0.044,1.603-0.05,1.995,0.333
			c-0.119,0.878-0.799,1.196-1.995,0.998C81.026-4.922,81.026-5.366,81.026-5.81z"/>
		<path fill-rule="evenodd" clip-rule="evenodd" fill="#141328" d="M9.509-5.477c0.877-0.101,1.092,0.46,0.998,1.33
			C10.021-4.437,9.219-4.41,9.509-5.477z"/>
		<path fill-rule="evenodd" clip-rule="evenodd" fill="#141328" d="M116.286-5.477c0.819-0.044,1.602-0.05,1.996,0.333
			c0.241,0.908-0.662,0.669-0.666,1.331C116.681-3.876,116.199-4.392,116.286-5.477z"/>
		<path fill-rule="evenodd" clip-rule="evenodd" fill="#141328" d="M14.166-5.144c0.695-0.141,0.881,0.228,1.331,0.333
			C15.437-3.847,13.916-4.01,14.166-5.144z"/>
		<path fill-rule="evenodd" clip-rule="evenodd" fill="#141328" d="M51.421-5.144c0.444,0,0.888,0,1.331,0
			C53.949-3.689,50.959-3.151,51.421-5.144z"/>
		<path fill-rule="evenodd" clip-rule="evenodd" fill="#141328" d="M4.52-4.479c0.527,0.028,1.269-0.16,1.331,0.333
			C6.214-2.978,3.81-3.255,4.52-4.479z"/>
		<path fill-rule="evenodd" clip-rule="evenodd" fill="#141328" d="M63.063-2.815c-0.597,0.042-0.701-0.407-1.33-0.333
			C61.622-5.144,64.381-4.368,63.063-2.815z"/>
		<path fill-rule="evenodd" clip-rule="evenodd" fill="#141328" d="M67.388-4.479c0.869-0.093,1.665-0.112,1.331,0.998
			C67.849-3.387,67.288-3.602,67.388-4.479z"/>
		<path fill-rule="evenodd" clip-rule="evenodd" fill="#141328" d="M88.677-4.479c0,0.333,0,0.666,0,0.998
			c-0.695,0.141-0.881-0.228-1.33-0.333C87.427-4.398,87.919-4.572,88.677-4.479z"/>
		<path fill-rule="evenodd" clip-rule="evenodd" fill="#141328" d="M31.463-3.813c0.095,0.87-0.121,1.431-0.997,1.331
			c-0.177-0.268-0.348-0.54-0.334-0.998C30.429-3.739,30.884-3.838,31.463-3.813z"/>
		<path fill-rule="evenodd" clip-rule="evenodd" fill="#141328" d="M104.311-3.481c0.952-0.065,1.815-0.042,1.663,0.998
			C105.332-1.836,103.938-2.135,104.311-3.481z"/>
		<path fill-rule="evenodd" clip-rule="evenodd" fill="#141328" d="M20.819-3.148c0.42,0.467,1.755,0.02,1.33,1.331
			c-0.771,0.106-1.277-0.054-1.663-0.333C20.663-2.418,20.833-2.69,20.819-3.148z"/>
		<path fill-rule="evenodd" clip-rule="evenodd" fill="#141328" d="M37.118-2.815c0.87-0.094,1.431,0.122,1.331,0.998
			C37.827-1.165,36.847-1.625,37.118-2.815z"/>
		<path fill-rule="evenodd" clip-rule="evenodd" fill="#141328" d="M75.704-2.483c0.869-0.094,1.431,0.122,1.33,0.998
			C76.165-1.392,75.37-1.373,75.704-2.483z"/>
		<path fill-rule="evenodd" clip-rule="evenodd" fill="#141328" d="M57.409-2.15c1.151-0.233,1.193,1.166,0.665,1.663
			C56.923-0.254,56.882-1.653,57.409-2.15z"/>
		<path fill-rule="evenodd" clip-rule="evenodd" fill="#141328" d="M93.999-2.15c0.142,0.695-0.229,0.881-0.333,1.331
			c-0.311-0.355-1.227-0.103-0.998-0.998C92.964-2.076,93.419-2.175,93.999-2.15z"/>
		<path fill-rule="evenodd" clip-rule="evenodd" fill="#141328" d="M46.1-1.817c0,0.443,0,0.887,0,1.33
			C44.552-0.189,44.394-2.25,46.1-1.817z"/>
		<path fill-rule="evenodd" clip-rule="evenodd" fill="#141328" d="M15.497-1.485c0.222,0,0.443,0,0.665,0
			c-0.062,0.283,0.13,0.314,0.332,0.333c0,0.222,0,0.443,0,0.665c-0.282-0.061-0.313,0.13-0.332,0.333c-0.222,0-0.443,0-0.665,0
			c0.061-0.283-0.13-0.314-0.333-0.333c0-0.222,0-0.443,0-0.665C15.447-1.091,15.479-1.282,15.497-1.485z"/>
		<path fill-rule="evenodd" clip-rule="evenodd" fill="#141328" d="M67.388-1.485c0.443,0,0.888,0,1.331,0c0,0.443,0,0.887,0,1.331
			C67.677,0,67.233-0.444,67.388-1.485z"/>
		<path fill-rule="evenodd" clip-rule="evenodd" fill="#141328" d="M82.356-1.485c0.877-0.1,1.092,0.461,0.998,1.331
			c-0.443,0-0.887,0-1.33,0C81.883-0.85,82.252-1.035,82.356-1.485z"/>
		<path fill-rule="evenodd" clip-rule="evenodd" fill="#141328" d="M2.524-0.82c0.443,0,0.887,0,1.33,0c0,0.222,0,0.443,0,0.666
			c-0.443,0-0.887,0-1.33,0C2.524-0.376,2.524-0.598,2.524-0.82z"/>
		<path fill-rule="evenodd" clip-rule="evenodd" fill="#141328" d="M98.655-0.82c0.444,0,0.888,0,1.331,0c0,0.222,0,0.443,0,0.666
			c-0.443,0-0.887,0-1.331,0C98.655-0.376,98.655-0.598,98.655-0.82z"/>
	</g>
</pattern>
<polygon fill="#D3E8DD" points="2413.104,655.393 2273.822,655.393 2309.587,824.17 2476.055,824.17 "/>
<pattern  id="SVGID_1_" xlink:href="#Punkte_x5F_dunkel" patternTransform="matrix(1.4164 0 0 1.4164 3943.7461 2955.064)">
</pattern>
<rect x="1099.99" y="846.359" fill="url(#SVGID_1_)" stroke="#33365B" stroke-width="2" width="339.933" height="148.912"/>
</svg>
