<?xml version="1.0" encoding="utf-8"?>
<!-- Generator: Adobe Illustrator 15.1.0, SVG Export Plug-In . SVG Version: 6.00 Build 0)  -->
<!DOCTYPE svg PUBLIC "-//W3C//DTD SVG 1.1//EN" "http://www.w3.org/Graphics/SVG/1.1/DTD/svg11.dtd">
<svg version="1.1" id="Vordergrund" xmlns="http://www.w3.org/2000/svg" xmlns:xlink="http://www.w3.org/1999/xlink" x="0px"
	 y="0px" width="4040px" height="1280px" viewBox="0 0 4040 1280" enable-background="new 0 0 4040 1280" xml:space="preserve">
<g id="CNC_Fräse">
	<g>
		<path fill="#141328" d="M2395.21,792.276c0,0-1.666-181.046-3.666-184.886s-10.667-2.469-6.667-12.154s9.999-24.291,19.333-15.988
			s18.381,5.426,12.19,18.197s-11.449,5.008-9.486,17.557s0.022,177.185,0.022,177.185l0,0"/>
		<path fill="#33365B" stroke="#141328" d="M2461.067,588.396c-17.232-0.17-39.504-0.804-44.915,0.11
			c-8.753,1.478-3.372-2.263-12.35-6.48c-8.975-4.218-6.889,2.08-12.61,8.671c-5.724,6.593,4.533,10.661,11.334,13.373
			c6.802,2.713,5.771-3.33,8.437-4.76c1.597-0.857,28.112-1.682,49.125-2.204C2458.506,593.997,2459.17,590.816,2461.067,588.396z"
			/>
		<path fill="#33365B" stroke="#141328" d="M2495.377,635.966c0.28-3.039,2.351-4.875,4.695-5.505
			c-8.718-12.798-18.05-26.667-21.322-29.976c-6.241-6.313-4.995-1.331-6.706-11.103c-1.708-9.768,1.515-3.94-7.167-4.833
			c-8.686-0.894-5.5,4.488-3.81,11.611c1.69,7.125,3.156,4.93,5.859,6.289c1.516,0.761,15.558,19.4,27.604,35.635
			C2494.906,637.368,2495.311,636.69,2495.377,635.966z"/>
		<path fill="#33365B" stroke="#141328" d="M2505.317,627.661c-1.339-7.852-10.142-2.97-15.988,0.258
			c-5.848,3.228-0.99,5.996-1.523,8.704c-0.36,1.832-19.122,26.04-31.235,41.526c2.093,0.076,4.24,1.338,5.237,3.041
			c0.372,0.635,0.603,1.27,0.723,1.896c10.152-12.375,27.062-31.602,29.894-36.553c4.021-7.03,3.547-1.07,11.716-4.963
			C2512.307,637.68,2506.656,635.508,2505.317,627.661z"/>
		<path fill="#33365B" stroke="#141328" d="M2454.21,714.537c0,9.345,0.199,13.47,2.557,13.47c2.209,0,2.658-1.461,2.658-6.461
			c0-3.135-0.186-4.312-0.36-6.837"/>
		<path fill="#33365B" stroke="#141328" d="M2452.375,695.021c-1.908,2.883-3.688,1.373-4.354,5.318s-1.43,10.543-0.573,12.875
			c0.856,2.334,2.386,1.363,7.183,2.375s0,0,6.122,0c4.992,0,4.458-2.51,5.125-9.625s-1.083-6.223-3.75-8.625
			c-0.896-0.807-1.519-1.543-1.951-2.209"/>
		<path fill="#33365B" stroke="#141328" d="M2452.035,695.277c1.615,0.75,3.591,0.881,6.342,0.506c3.25-0.443,7-1.443,7.833-7.383
			c0.999-7.121,1.001-10.516-1.666-12.516s-4.277-2.469-4.277-2.469c-1.666,0.334-9.724-0.213-11.057,4.127
			c-1.333,4.342-3.458,10.229-1.189,13.773C2449.271,693.271,2450.488,694.559,2452.035,695.277"/>
		<ellipse fill="#141328" stroke="#33365B" cx="2402.544" cy="593.464" rx="3.232" ry="2.697"/>
		<ellipse fill="#141328" stroke="#33365B" cx="2498.127" cy="634.383" rx="3.917" ry="2.5"/>
		<path fill="#33365B" stroke="#141328" d="M2476.21,593.07c0,6.854-1.26,8.95-9.157,8.95c-7.896,0-10.581-2.097-10.581-8.95
			c0-6.854,2.685-12.41,10.581-12.41C2474.95,580.66,2476.21,586.215,2476.21,593.07z"/>
	</g>
</g>
</svg>
