<?xml version="1.0" encoding="utf-8"?>
<!-- Generator: Adobe Illustrator 15.1.0, SVG Export Plug-In . SVG Version: 6.00 Build 0)  -->
<!DOCTYPE svg PUBLIC "-//W3C//DTD SVG 1.1//EN" "http://www.w3.org/Graphics/SVG/1.1/DTD/svg11.dtd">
<svg version="1.1" id="Vordergrund" xmlns="http://www.w3.org/2000/svg" xmlns:xlink="http://www.w3.org/1999/xlink" x="0px"
	 y="0px" width="2120px" height="2360px" viewBox="0 0 2120 2360" enable-background="new 0 0 2120 2360" xml:space="preserve">
<pattern  x="639.055" y="342.359" width="699.168" height="560.037" patternUnits="userSpaceOnUse" id="sdcjnsdj" viewBox="0 -560.037 699.168 560.037" overflow="visible">
	<g>
		<polygon fill="none" points="0,0 699.168,0 699.168,-560.037 0,-560.037 		"/>
		<path fill-rule="evenodd" clip-rule="evenodd" fill="#6DB698" d="M5-560c0.667,0,1.333,0,2,0c1.824,60.793,1.985,127.777,1,175
			C5.31-256.006,9.246-128.574,2,0C1.333,0,0.667,0,0,0C5.279-185.336,7.439-371.319,5-560z"/>
		<path fill-rule="evenodd" clip-rule="evenodd" fill="#6DB698" d="M15-560c0.667,0,1.333,0,2,0c-0.116,101.273-4,264.959-4,409
			c0,50.928-0.893,101.559-1,151c-0.667,0-1.333,0-2,0c1.917-88.135-0.066-193.663,2-294c0.305-14.807,0.637-32.791,1-51
			C14.52-421.202,14.835-490.26,15-560z"/>
		<path fill-rule="evenodd" clip-rule="evenodd" fill="#6DB698" d="M24-560c1,0,2,0,3,0c-6.772,117.881-3.332,224.918-6,347
			c-1.229,56.203-3.026,139.047-2,213c-0.333,0-0.667,0-1,0c-3.893-101.039,2-200.002,2-292C20-380.868,21.827-475.022,24-560z"/>
		<path fill-rule="evenodd" clip-rule="evenodd" fill="#6DB698" d="M31-560c0.667,0,1.333,0,2,0c0.092,18.051,0.259,47.682,0,72
			c-0.52,48.852-1,137.621-1,204c0,96.09-4.655,187.338-4,284c-0.667,0-1.333,0-2,0c1.135-103.326,0.809-196.69,4-289
			c1.792-51.818-0.356-88.324,0-132C30.337-462.293,29.788-516.143,31-560z"/>
		<path fill-rule="evenodd" clip-rule="evenodd" fill="#6DB698" d="M41-560c0.667,0,1.333,0,2,0c0.59,67.338-5.571,140.908-4,196
			c0.624,21.877,1.77,46.461,2,73c0.887,102.074-1.896,181.077-1,291c-0.667,0-1.333,0-2,0c0.789-48.156,0.154-85.229,0-129
			c-0.222-62.87,2.874-144.346,0-213C34.61-422.965,42.811-489.84,41-560z"/>
		<path fill-rule="evenodd" clip-rule="evenodd" fill="#6DB698" d="M51-560c0.667,0,1.333,0,2,0c0.712,98.484-3.307,194.725-2,260
			c1.863,93.139-1.376,198.295,0,300c-0.333,0-0.667,0-1,0C47.257-191.288,49.766-380.241,51-560z"/>
		<path fill-rule="evenodd" clip-rule="evenodd" fill="#6DB698" d="M57-560c0.667,0,1.333,0,2,0c1.771,68.781-0.407,133.361,0,220
			c0.313,66.439,0.396,139.172,1,188c0.706,57.135-1.019,101.244,0,152c-1,0-2,0-3,0c-1.614-79.025,2.263-144.84,1-195
			C55.038-312.674,58.177-441.506,57-560z"/>
		<path fill-rule="evenodd" clip-rule="evenodd" fill="#6DB698" d="M70-560c0.667,0,1.333,0,2,0c0.189,62.896-0.96,130.314-2,206
			c-0.696,50.662-2,121.334-2,198c0,50.657,0.443,103.889-1,156c-0.333,0-0.667,0-1,0c-0.649-49.533,0.528-108.914,1-143
			c0.706-50.977,0.008-101.588,1-143c1.238-51.711,0.206-105.586,1-137C70.501-482.385,71.033-516.434,70-560z"/>
		<path fill-rule="evenodd" clip-rule="evenodd" fill="#6DB698" d="M81-560c0.667,0,1.333,0,2,0c-5.239,145.107-4.145,291.346-7,414
			c-1.088,46.717-0.01,95.436,1,146c-0.667,0-1.333,0-2,0c-3.423-86.582,1.115-186.096,2-277C77.946-374.176,76.071-472.178,81-560z
			"/>
		<path fill-rule="evenodd" clip-rule="evenodd" fill="#6DB698" d="M89-560c0.667,0,1.333,0,2,0c-2.195,45.176,0.668,98.148,0,145
			c-1.73,121.299-2.605,252.629-5,415c-0.667,0-1.333,0-2,0c-0.709-84.654,3-184.338,3-273C87-368.616,88.335-466.336,89-560z"/>
		<path fill-rule="evenodd" clip-rule="evenodd" fill="#6DB698" d="M98-560c0.667,0,1.333,0,2,0c1.197,47.838,3.474,94.1,3,142
			c-0.936,94.6-5.729,199.063-5,283c0.413,47.523,5.163,90.441,3,135c-0.333,0-0.667,0-1,0c-1.276-59.217-4.441-143.676-4-200
			c0.558-71.15,4.26-140.176,5-215C101.479-463.44,100.091-511.999,98-560z"/>
		<path fill-rule="evenodd" clip-rule="evenodd" fill="#6DB698" d="M109-560c0.667,0,1.333,0,2,0c-0.77,87.953,2,156.371,2,267
			c0,51.688-1,104.646-1,155c0,55.152-0.838,92.822-1,138c-0.667,0-1.333,0-2,0c0.795-89.912,2.341-197.581,2-284
			C110.619-380.514,108.34-456.801,109-560z"/>
		<path fill-rule="evenodd" clip-rule="evenodd" fill="#6DB698" d="M123-560c0.667,0,1.333,0,2,0c1.564,93.098,1.664,201.295-1,297
			c-0.54,19.389,0.644,43.055,0,70c-1.151,48.178,0.91,116.055-5,193c-0.667,0-1.333,0-2,0C123.697-174.583,123.675-377.143,123-560
			z"/>
		<path fill-rule="evenodd" clip-rule="evenodd" fill="#6DB698" d="M133-560c0.667,0,1.333,0,2,0c-1.202,93.924-2.843,202.914-4,284
			c-0.731,51.246-1,77.775-1,126c0,48.348,0.452,96.123-1,150c-0.667,0-1.333,0-2,0c1.6-49.004,0.05-98.168,1-151
			c0.685-38.038,1.479-96.975,2-130c0.246-15.625,0-44.082,0-69C130-434.282,133.697-488.288,133-560z"/>
		<path fill-rule="evenodd" clip-rule="evenodd" fill="#6DB698" d="M142-560c0.667,0,1.333,0,2,0c-4.008,80.527-3.195,178.709-5,270
			c-1.867,94.436-3.893,189.639-2,290c-0.667,0-1.333,0-2,0c-1.473-44.895-1.055-97.344,0-136
			C138.889-278.569,136.414-431.604,142-560z"/>
		<path fill-rule="evenodd" clip-rule="evenodd" fill="#6DB698" d="M148-560c1,0,2,0,3,0c0.244,45.676-3.085,96.023-1,146
			c2.854,68.408-3,182.709-3,273c0,47.646-2.805,92.328-1,141c-1,0-2,0-3,0C144.747-181.469,149.631-376.399,148-560z"/>
		<path fill-rule="evenodd" clip-rule="evenodd" fill="#6DB698" d="M158-560c0.667,0,1.333,0,2,0c-1.924,99.771-2.58,186.209-2,277
			c0.431,67.43,0.489,177.563-1,283c-0.333,0-0.667,0-1,0c1.096-75.164-1.375-159.897,0-210c1.882-68.578-2.664-152.344,0-219
			C157.88-476.028,157.972-515.36,158-560z"/>
		<path fill-rule="evenodd" clip-rule="evenodd" fill="#6DB698" d="M169-560c0.667,0,1.333,0,2,0c-1.666,93.502-1.542,183.768-2,288
			c-0.338,76.957-1.438,164.264,0,272c-0.667,0-1.333,0-2,0c-1.366-48.414,0-88.084,0-137c0-96.268-1.929-203.665,1-285
			C169.799-471.946,167.995-517.993,169-560z"/>
		<path fill-rule="evenodd" clip-rule="evenodd" fill="#6DB698" d="M175-560c0.667,0,1.333,0,2,0c0.02,183.193-0.014,373.619,0,560
			c-0.667,0-1.333,0-2,0c-0.988-31.691,0-69.152,0-126c0-105.426-0.74-203.004,0-287C175.332-450.598,174.732-515.112,175-560z"/>
		<path fill-rule="evenodd" clip-rule="evenodd" fill="#6DB698" d="M188-560c0.333,0,0.667,0,1,0c0.564,126.006-3,286.502-3,427
			c0,46.4-1.758,85.783-1,133c-0.667,0-1.333,0-2,0C183.779-199.797,186.029-371.428,188-560z"/>
		<path fill-rule="evenodd" clip-rule="evenodd" fill="#6DB698" d="M199-560c0.667,0,1.333,0,2,0c-3.278,77.654-5,173.633-5,273
			c0,95.416-5.377,191.432-2,287c-0.667,0-1.333,0-2,0C191.635-186,193.738-384.719,199-560z"/>
		<path fill-rule="evenodd" clip-rule="evenodd" fill="#6DB698" d="M206-560c1,0,2,0,3,0c-2.487,94.189,0.327,211.434-2,292
			c-2.312,80-2.348,171.526-3,268c-1,0-2,0-3,0c-0.207-76.469,2.592-144.01,3-211c0.421-69.189,3.973-136.963,2-215
			C204.926-468.499,206.365-509.352,206-560z"/>
		<path fill-rule="evenodd" clip-rule="evenodd" fill="#6DB698" d="M216-560c0.667,0,1.333,0,2,0c-0.511,45.547,4.089,88.631,3,138
			c-0.795,36.08-3.239,85.297-4,123c-1.053,52.152-2,100.008-2,152c0,47.25,5.18,94.893,4,147c-0.667,0-1.333,0-2,0
			c1.516-47.436-3.513-92.451-4-139C211.402-291.565,224.115-431.055,216-560z"/>
		<path fill-rule="evenodd" clip-rule="evenodd" fill="#6DB698" d="M227-560c0.667,0,1.333,0,2,0c0.848,211.779,2.893,350.404,0,560
			c-0.667,0-1.333,0-2,0c0.488-47.219-0.6-96.502,0-137C229.098-278.547,227.211-404.213,227-560z"/>
		<path fill-rule="evenodd" clip-rule="evenodd" fill="#6DB698" d="M240-560c1,0,2,0,3,0c2.959,94.148-1,186.527-1,284
			c0,50.334-1,77.211-1,134c0,46.848-1.324,94.615-4,142c-0.667,0-1.333,0-2,0c3.506-102.35,5-178.627,5-273
			C240-382.061,243.696-462.85,240-560z"/>
		<path fill-rule="evenodd" clip-rule="evenodd" fill="#6DB698" d="M251-560c0.667,0,1.333,0,2,0c-2.889,124.92-2.994,222.447-5,347
			c-1.326,82.315-0.279,123.208-1,213c-0.667,0-1.333,0-2,0c-1.165-25.695,1.334-50.477,1-69c-0.638-35.354,0.53-97.145,1-143
			c0.623-60.846,0.707-146.916,2-202C250.274-468.319,250.13-506.969,251-560z"/>
		<path fill-rule="evenodd" clip-rule="evenodd" fill="#6DB698" d="M260-560c0.667,0,1.333,0,2,0
			c-6.736,101.512-2.482,170.387-5,283c-1.65,73.855-3.345,155.993-4,209c-0.266,21.506,1.214,44.82,2,68c-1,0-2,0-3,0
			c-2.398-119.301,2.771-227.391,4-357C256.49-408.713,255.47-486.831,260-560z"/>
		<path fill-rule="evenodd" clip-rule="evenodd" fill="#6DB698" d="M266-560c1,0,2,0,3,0c-0.613,176.5-3.957,369.623-6,560
			c-0.667,0-1.333,0-2,0c0.414-28.158-0.643-49.918,0-76c1.965-79.813,4.361-190.581,4-274C264.729-412.803,265.232-490.889,266-560
			z"/>
		<path fill-rule="evenodd" clip-rule="evenodd" fill="#6DB698" d="M276-560c0.667,0,1.333,0,2,0c1.072,53.729-5.418,145.141-4,191
			c3.446,111.443,0.646,237.5,1,369c-0.667,0-1.333,0-2,0c-0.754-95.176,2.35-187.602,2-286c-0.165-46.387-4.333-94.74-2-143
			C275.15-473.475,275.757-516.106,276-560z"/>
		<path fill-rule="evenodd" clip-rule="evenodd" fill="#6DB698" d="M286-560c0.667,0,1.333,0,2,0c-0.895,169.576-4.02,380.33-1,560
			c-1,0-2,0-3,0C283.602-192.192,284.073-368.622,286-560z"/>
		<path fill-rule="evenodd" clip-rule="evenodd" fill="#6DB698" d="M292-560c1,0,2,0,3,0c-1.08,99.566-0.217,208.684-1,303
			c-0.306,36.842,2.063,80.795,1,129c-0.857,38.902-0.652,87.482-1,128c-0.667,0-1.333,0-2,0c-0.824-51.553,1-94.863,1-135
			c0-96.208-2.708-203.706-1-302C292.681-476.186,293.424-522.346,292-560z"/>
		<path fill-rule="evenodd" clip-rule="evenodd" fill="#6DB698" d="M306-560c0.333,0,0.667,0,1,0c1.429,40.113-0.434,86.705-1,128
			c-0.498,36.328,0.412,104.314-1,146c-1.643,48.488-1.269,88.891-2,131c-0.968,55.747,0.75,101.473-1,155c-0.333,0-0.667,0-1,0
			c-0.114-98.289,0.502-202.719,2-286C304.714-381.231,303.886-469.038,306-560z"/>
		<path fill-rule="evenodd" clip-rule="evenodd" fill="#6DB698" d="M316-560c0.667,0,1.333,0,2,0c0.127,39.619-3.607,85.93-4,129
			c-0.435,47.619,0.937,101.455,0,149c-1.878,95.307-5.825,193.249-2,282c-0.667,0-1.333,0-2,0c-1.252-20.668-1.076-46.91-1-66
			c0.217-54.057,1.05-139.971,3-210c1.386-49.756-0.822-100.859,0-149C312.705-466.293,315.161-515.141,316-560z"/>
		<path fill-rule="evenodd" clip-rule="evenodd" fill="#6DB698" d="M324-560c0.667,0,1.333,0,2,0c0.615,172.523-2.572,348.764-5,560
			c-0.667,0-1.333,0-2,0c-0.193-98.848,1.666-184.19,3-280C323.178-364.639,322.413-473.917,324-560z"/>
		<path fill-rule="evenodd" clip-rule="evenodd" fill="#6DB698" d="M334-560c0.667,0,1.333,0,2,0c0.053,45.172,2.259,91.939,2,140
			c-0.386,71.805-5.589,155.074-5,221c0.189,21.246-0.604,40.828,0,66c1.184,49.426,4.686,99.479,3,133c-0.667,0-1.333,0-2,0
			c1.37-65.178-5.552-150.814-4-204c1.411-48.369,2.819-104.723,4-147c0.645-23.09,1.494-45.75,2-73
			C336.602-456.364,334.776-502.03,334-560z"/>
		<path fill-rule="evenodd" clip-rule="evenodd" fill="#6DB698" d="M344-560c0.667,0,1.333,0,2,0c-1.691,87.668,4.091,172.969,2,274
			c-1.974,95.367,0.275,190.573-2,286c-0.667,0-1.333,0-2,0c0.561-94.154,2-182.856,2-285C346-393.204,343.098-475.047,344-560z"/>
		<path fill-rule="evenodd" clip-rule="evenodd" fill="#6DB698" d="M358-560c0.667,0,1.333,0,2,0c1.186,95.799,1.964,192.502,0,291
			c-1.522,76.354-1.293,174.125-5,269c-1,0-2,0-3,0c2.383-45.793,4-93.305,4-141c0-95.52,3-184.264,3-281
			C359-469.391,358.534-515.516,358-560z"/>
		<path fill-rule="evenodd" clip-rule="evenodd" fill="#6DB698" d="M368-560c0.667,0,1.333,0,2,0
			c-1.117,125.809-3.504,245.535-5,356c-0.521,38.412-1.103,102.448-1,149c0.046,20.836,1.413,37.51,0,55c-0.333,0-0.667,0-1,0
			c-1.381-39.869,0-88.08,0-137c0-54.042,0.123-85.862,2-136c0.964-25.705-0.515-51.959,0-75
			C366.296-406.038,367.236-486.292,368-560z"/>
		<path fill-rule="evenodd" clip-rule="evenodd" fill="#6DB698" d="M377-560c0.667,0,1.333,0,2,0c-3.749,87.807-4.276,205.906-5,275
			c-0.991,94.645-4.83,188.391-2,285c-0.667,0-1.333,0-2,0c-2.758-100.98,0.572-199.006,3-287c1.054-38.186,0-91.637,0-140
			C373-479.508,377.459-517.022,377-560z"/>
		<path fill-rule="evenodd" clip-rule="evenodd" fill="#6DB698" d="M384-560c0.667,0,1.333,0,2,0c0.41,40.438-2.285,74.559-1,139
			c2.079,104.285-5.292,292.209-4,421c-1,0-2,0-3,0c-1.238-93.328,4-187.336,4-280C382-370.836,383.057-466.862,384-560z"/>
		<path fill-rule="evenodd" clip-rule="evenodd" fill="#6DB698" d="M394-560c0.667,0,1.333,0,2,0c-1.189,43.246-2.108,97.957-4,144
			c-1.858,45.227,2,90.355,2,138c0,80.396-1.719,209.075-2,278c-0.667,0-1.333,0-2,0c-0.91-101.852,4.378-201.87,2-303
			c-0.793-33.715-1.365-89.475-1-119C391.604-470.922,393.097-516.065,394-560z"/>
		<path fill-rule="evenodd" clip-rule="evenodd" fill="#6DB698" d="M404-560c0.333,0,0.667,0,1,0c0.615,0.891,1.209,1.789,0,2
			c2.757,94.893-3.313,167.299-2,273c0.561,45.143,0.569,102.336,1,142c0.434,40.004-1.875,91.52,0,143c-0.667,0-1.333,0-2,0
			c-1.719-93.738-0.107-197.758-1-285c-0.262-25.617,0.758-52.717,1-70C402.867-416.877,403.712-486.92,404-560z"/>
		<path fill-rule="evenodd" clip-rule="evenodd" fill="#6DB698" d="M410-560c0.667,0,1.333,0,2,0c0.244,159.557-0.169,378.369,0,560
			c-0.667,0-1.333,0-2,0c0-67.459,0-135.955,0-202c0-70.887-2.299-131.162-1-185C410.286-440.344,410.116-502.43,410-560z"/>
		<path fill-rule="evenodd" clip-rule="evenodd" fill="#6DB698" d="M423-560c0.667,0,1.333,0,2,0c-0.172,82.52-3,168.322-3,275
			c0,98.91-1.977,192.817-2,285c-0.333,0-0.667,0-1,0c-0.641-36.77-0.51-76.783,0-118c0.644-52.084,0.513-100.928,1-157
			c0.185-21.264,0.881-37.42,1-60C421.37-405.344,422.339-493,423-560z"/>
		<path fill-rule="evenodd" clip-rule="evenodd" fill="#6DB698" d="M433-560c1,0,2,0,3,0c-3.974,95.395-5,190.719-5,280
			c0,89.102-5.442,183.59-2,280c-0.667,0-1.333,0-2,0C425.822-193.756,429.916-398.524,433-560z"/>
		<path fill-rule="evenodd" clip-rule="evenodd" fill="#6DB698" d="M441-560c1,0,2,0,3,0c-2.913,73.48,1.032,201.539-2,279
			c-3.637,92.902-1.374,183.237-3,281c-0.667,0-1.333,0-2,0c-2.581-85.248,3-185.479,3-284C440-374.561,441.696-466.09,441-560z"/>
		<path fill-rule="evenodd" clip-rule="evenodd" fill="#6DB698" d="M451-560c0.667,0,1.333,0,2,0c5.13,97.367,1.287,197.531-1,288
			c-1.096,43.352-3.87,93.143-2,140c1.829,45.801,5.749,91.439,4,132c-0.667,0-1.333,0-2,0c2.286-44.314-4-91.418-4-139
			c0-99.653,3.595-200.002,6-286C455.328-472.479,450.854-514.672,451-560z"/>
		<path fill-rule="evenodd" clip-rule="evenodd" fill="#6DB698" d="M461-560c1,0,2,0,3,0c-1.84,100.068,2.935,183.492,2,284
			c-0.464,49.902-1,67.186-1,125c0,48.789-1.245,97.941-1,151c-1,0-2,0-3,0C465.38-189.04,463.385-355.518,461-560z"/>
		<path fill-rule="evenodd" clip-rule="evenodd" fill="#6DB698" d="M475-560c1,0,2,0,3,0c3.286,148.484-2,273.004-2,423
			c0,48.932-0.85,90.785-4,137c-0.667,0-1.333,0-2,0c1.961-45.674,3.615-100.182,4-135c0.533-48.176,1-98.444,1-147
			C475-390.875,478.964-457.844,475-560z"/>
		<path fill-rule="evenodd" clip-rule="evenodd" fill="#6DB698" d="M485-560c1,0,2,0,3,0c-4.406,138.324-0.824,283.197-6,427
			c-1.26,35,1.168,87.75,0,133c-0.667,0-1.333,0-2,0c-1.012-101.016,2-190.674,2-280C482-364.719,486.407-470.762,485-560z"/>
		<path fill-rule="evenodd" clip-rule="evenodd" fill="#6DB698" d="M495-560c0.667,0,1.333,0,2,0c-2.966,59.033-4.274,146.443-5,204
			c-0.313,24.859-0.36,50.752-1,78c-1.718,73.199-2.028,153.456-2,205c0.01,17-0.535,49.271,1,73c-0.667,0-1.333,0-2,0
			c-4.12-99.975,2-201.04,2-289c0-47.516,1-82.67,1-136C491-474.1,493.997-516.807,495-560z"/>
		<path fill-rule="evenodd" clip-rule="evenodd" fill="#6DB698" d="M501-560c1,0,2,0,3,0c-1.334,83.164-1.213,198.449-2,278
			c-0.907,91.662-3.795,183.256-4,282c-0.667,0-1.333,0-2,0c1.133-97.732-0.313-185.649,4-288
			C504.055-384.215,497.673-469.866,501-560z"/>
		<path fill-rule="evenodd" clip-rule="evenodd" fill="#6DB698" d="M511-560c0.667,0,1.333,0,2,0c-3.07,82.506-2,187.381-2,288
			c0,107.484-1.156,177.397-1,272c-0.667,0-1.333,0-2,0c1.119-79.729,1-143.803,1-217c0-47.967,0.11-86.678-1-138
			C506.35-431.262,511.199-486.307,511-560z"/>
		<path fill-rule="evenodd" clip-rule="evenodd" fill="#6DB698" d="M521-560c0.667,0,1.333,0,2,0
			c-1.142,181.783-3.707,377.492-1,560c-0.667,0-1.333,0-2,0c-1.007-40.363-1-86.146-1-135C519-285.674,519.707-419.512,521-560z"/>
		<path fill-rule="evenodd" clip-rule="evenodd" fill="#6DB698" d="M527-560c1,0,2,0,3,0c-0.459,50.037,0.553,96.846-1,140
			c-1.52,42.211,2.614,85.797,1,131c-1.911,53.555-1.215,87.506,0,129c1.577,53.866-1.298,98.596,0,160c-1,0-2,0-3,0
			C526.664-180.633,527.533-391.663,527-560z"/>
		<path fill-rule="evenodd" clip-rule="evenodd" fill="#6DB698" d="M540-560c0.667,0,1.333,0,2,0c2.101,65.297-2.523,150.043-2,203
			c0.404,40.828-1,87.678-1,132c0,73.526-1.707,148.268-1,225c-0.667,0-1.333,0-2,0c-0.536-51.162,0.809-97.846,1-140
			c0.178-39.045-0.471-97.401,1-144c1.543-48.883,1-95.574,1-144C539-474.756,542.031-519.674,540-560z"/>
		<path fill-rule="evenodd" clip-rule="evenodd" fill="#6DB698" d="M551-560c0.667,0,1.333,0,2,0c-0.611,44.529-2.649,94.092-4,138
			c-1.48,48.131,1.195,96.936,0,146c-2.194,90.113-4.333,182.124-2,276c-0.667,0-1.333,0-2,0c-2.954-97.639,1.041-193.344,2-285
			C548.083-388.497,546.645-460.274,551-560z"/>
		<path fill-rule="evenodd" clip-rule="evenodd" fill="#6DB698" d="M559-560c0.667,0,1.333,0,2,0c0.625,46.725-2.113,78.58-1,116
			c4.342,145.977-5.38,295.506-3,444c-1,0-2,0-3,0C556.097-181.18,558.938-380.315,559-560z"/>
		<path fill-rule="evenodd" clip-rule="evenodd" fill="#6DB698" d="M569-560c0.667,0,1.333,0,2,0c0.289,42.434,3.104,99.762,2,141
			c-2.282,85.182-5,172.305-5,275c0,48.572,6.071,96.129,4,144c-0.667,0-1.333,0-2,0c1.57-47.16-3.297-90.924-4-137
			c-1.504-98.473,1.806-191.831,6-282C574.191-466.102,567.078-512.358,569-560z"/>
		<path fill-rule="evenodd" clip-rule="evenodd" fill="#6DB698" d="M579-560c0.667,0,1.333,0,2,0c-0.068,68.012,3,201.309,3,285
			c0,46.504-3.228,99.17-2,142c0.947,33.068-0.351,74.881,0,133c-0.667,0-1.333,0-2,0c-1.18-100.383,2.529-205.727,1-302
			C579.367-404.784,579.617-479.428,579-560z"/>
		<path fill-rule="evenodd" clip-rule="evenodd" fill="#6DB698" d="M593-560c0.667,0,1.333,0,2,0c3.745,80.678,0,174.863,0,276
			c0,95.926-0.223,196.499-5,284c-0.667,0-1.333,0-2,0c4.348-65.32,2.126-146.172,3-211C592.264-304.717,596.297-444.952,593-560z"
			/>
		<path fill-rule="evenodd" clip-rule="evenodd" fill="#6DB698" d="M603-560c1,0,2,0,3,0c-1.374,39.143-1.59,112.143-3,162
			c-0.188,6.662,1.895,13.48-1,19C599.083-430.715,605.586-507.723,603-560z"/>
		<path fill-rule="evenodd" clip-rule="evenodd" fill="#6DB698" d="M612-560c0.667,0,1.333,0,2,0c-1.809,46.766-2.127,101.859-3,154
			c-0.094,5.574,1.515,13.074-3,16C609.054-444.225,610.522-506.395,612-560z"/>
		<path fill-rule="evenodd" clip-rule="evenodd" fill="#6DB698" d="M619-560c0.667,0,1.333,0,2,0c-0.751,39.1-1.133,83.205,0,122
			c1.562,53.461-0.72,100.873-1,153c-0.522,97.232-4.453,189.329-4,285c-0.667,0-1.333,0-2,0c-2.492-140.082,6.83-277.45,5-413
			C618.361-460.333,616.885-517.668,619-560z"/>
		<path fill-rule="evenodd" clip-rule="evenodd" fill="#6DB698" d="M629-560c0.667,0,1.333,0,2,0c-1.23,60.613-3.386,135.332-3,207
			c0.124,23.074,0.904,38.945,1,63c0.387,96.588-1.732,196.866-1,290c-0.667,0-1.333,0-2,0c1.882-76.617-0.738-111.422,1-171
			c2.232-76.529-1-162.789-1-237C626-459.03,628.645-507.85,629-560z"/>
		<path fill-rule="evenodd" clip-rule="evenodd" fill="#6DB698" d="M638-560c1,0,2,0,3,0c1.513,93.684-3.99,197.887-2,274
			c2.352,89.912-2.232,192.852,1,286c-0.667,0-1.333,0-2,0C634.868-199.739,638.671-382.711,638-560z"/>
		<path fill-rule="evenodd" clip-rule="evenodd" fill="#6DB698" d="M645-560c0.667,0,1.333,0,2,0c1.574,107.561-1.562,287.943,1,406
			c1.141,52.537-0.93,100.352,0,154c-0.667,0-1.333,0-2,0C643.802-174.815,645.575-373.688,645-560z"/>
		<path fill-rule="evenodd" clip-rule="evenodd" fill="#6DB698" d="M658-560c0.667,0,1.333,0,2,0c1.446,45.65-0.826,95.959-2,147
			c-0.813,35.389-0.553,89.867-1,124c-0.472,35.955-0.029,92.23-1,130c-1.285,49.979,0.942,100.454,0,159c-0.667,0-1.333,0-2,0
			c-1.147-151.551,3-288.418,3-432C657-476.088,659.425-518.963,658-560z"/>
		<path fill-rule="evenodd" clip-rule="evenodd" fill="#6DB698" d="M669-560c0.667,0,1.333,0,2,0c-0.437,43.801-3.878,97.525-4,135
			c-0.458,140.248-3.648,259.355-2,425c-0.667,0-1.333,0-2,0c-2.916-97.074,1.037-203.971,2-285
			C666.329-396.807,664.155-476.678,669-560z"/>
		<path fill-rule="evenodd" clip-rule="evenodd" fill="#6DB698" d="M677-560c0.667,0,1.333,0,2,0c-2.94,76.771,1.351,130.967,0,205
			c-1.338,73.354-3.26,203.217-4,278c-0.245,24.846,0.183,50.424,0,77c-1,0-2,0-3,0c-0.014-150.127,5.259-292.817,4-420
			C675.515-469.045,675.72-523.407,677-560z"/>
		<path fill-rule="evenodd" clip-rule="evenodd" fill="#6DB698" d="M687-560c0.667,0,1.333,0,2,0c-0.895,42.248,4.121,90.291,2,137
			c-2.146,47.268-2.651,95.529-4,144c-1.334,47.943-2.316,95.955-1,143c1.298,46.398,6.051,92.215,4,136c-0.667,0-1.333,0-2,0
			c1.594-47.348-3.582-95.838-4-144c-0.867-99.803,1.666-184.133,5-285C690.371-470.485,685.934-519.907,687-560z"/>
		<path fill-rule="evenodd" clip-rule="evenodd" fill="#6DB698" d="M697-560c1.162-0.162,1.779,0.221,2,1c0,61.334,0,122.666,0,184
			C696.348-441.272,697.648-486.973,697-560z"/>
		<path fill-rule="evenodd" clip-rule="evenodd" fill="#6DB698" d="M608,0c-0.667,0-1.333,0-2,0c-3.266-108.262,1.216-218.733,2-303
			c0.268-28.736,2.041-54.621,1-77c-0.102-2.191-3.329-6.914,0-8c4.08,1.01,1,5.881,1,8c0,9.422,0.201,18.139,0,29
			C607.688-226.508,605.977-110.539,608,0z"/>
		<path fill-rule="evenodd" clip-rule="evenodd" fill="#6DB698" d="M600,0c-0.667,0-1.333,0-2,0c1.664-117.883-0.452-256.653,4-376
			C602.333-253.93,600.273-99.229,600,0z"/>
		<path fill-rule="evenodd" clip-rule="evenodd" fill="#6DB698" d="M699-373c0,1.334,0,2.666,0,4
			C697.38-368.286,697.38-373.715,699-373z"/>
		<path fill-rule="evenodd" clip-rule="evenodd" fill="#6DB698" d="M699-366c0,2,0,4,0,6C697.359-359.836,697.359-366.165,699-366z"
			/>
		<path fill-rule="evenodd" clip-rule="evenodd" fill="#6DB698" d="M699-358c0,1.334,0,2.666,0,4
			C697.38-353.286,697.38-358.715,699-358z"/>
		<path fill-rule="evenodd" clip-rule="evenodd" fill="#6DB698" d="M699-166c-0.666,55,1.333,112.667-1,166
			C698.666-55,696.667-112.666,699-166z"/>
	</g>
</pattern>
<g id="Gebäude_vorne">
	<g>
		<rect y="1378.014" fill="#009E78" width="422.93" height="981.986"/>
		<g>
			<rect y="1716.029" fill="#D3E8DD" width="191.498" height="195.449"/>
			<g>
				<g>
					<g>
						<g>
							<polygon fill="#7DBEA4" points="190.801,1911.479 191.339,1909.339 189.802,1908.662 							"/>
							<path fill="#7DBEA4" d="M196.32,1901.336l-0.643-3.68c-4.444,2.108-3.154-0.727-6.328,5.009
								c0.688,2.012,2.229,6.443,3.971,5.856c-0.188-1.443-1.881-3.564-1.337-5.712c1.277,0.922,1.129,3.228,2.79,4.304
								c1.374-3.466-1.078-2.176-0.464-5.988L196.32,1901.336z"/>
							<path fill="#7DBEA4" d="M191.899,1896.989c0.762,0.336,1.525,0.688,2.149,0.624
								C193.287,1897.269,192.342,1895.487,191.899,1896.989z"/>
							<path fill="#7DBEA4" d="M191.439,1894.752c0.166-2.319,1.637,0.039,1.881-0.198l-2.86-2.632L191.439,1894.752z"/>
							<path fill="#7DBEA4" d="M191.632,1885.12c-0.076-0.376-0.164-0.732-0.272-1.077
								C190.903,1884.417,191.293,1884.719,191.632,1885.12z"/>
							<path fill="#7DBEA4" d="M191.293,1880.389c-0.991,0.944-0.405,2.14,0.066,3.654c0.06-0.049,0.097-0.09,0.186-0.148
								c0.831-1.327,2.874-0.076,2.34,2.063c0.454,2.241-1.561,2.037-0.234,3.979l1.647-2.663
								C195.049,1883.754,192.102,1881.756,191.293,1880.389z"/>
							<path fill="#7DBEA4" d="M191.632,1885.12c0.076,0.397,0.129,0.818,0.129,1.259
								C192.102,1885.822,191.899,1885.447,191.632,1885.12z"/>
							<polygon fill="#7DBEA4" points="191.393,1889.962 191.813,1891.162 192.678,1890.87 							"/>
							<path fill="#7DBEA4" d="M191.128,1872.483c2.775,0.555-0.296,5.651,1.864,6.264c-0.117-3.11,1.913-5.607,3.444-4.923
								l-0.861-3.45C194.526,1869.219,192.44,1870.682,191.128,1872.483z"/>
							<path fill="#7DBEA4" d="M198.159,1865.726c-0.234-0.224-0.392-0.485-0.475-0.785
								C197.797,1865.316,197.937,1865.637,198.159,1865.726z"/>
							<path fill="#7DBEA4" d="M193.384,1848.284l2.798,8.06c-0.893-0.747-1.769-0.45-2.083-2.286
								c-0.375,3.568,1.401,4.03,1.119,6.968c-2.59,0.889-0.188-5.187-2.502-3.493c0.077,2.067,0.193,5.185,2.386,6.845
								l-1.771,3.296l2.851-1.116c0.815-1.34-2.229-2.696-0.254-3.521c1.219-0.415,1.449,0.92,1.737,1.865
								c-0.571-2.126,2.22-5.817,1.846-10.141C199.22,1850.206,194.749,1851.286,193.384,1848.284z"/>
							<polygon fill="#7DBEA4" points="196.511,1847.979 197.621,1847.44 196.121,1847.811 							"/>
							<path fill="#7DBEA4" d="M192.802,1839.183l1.784,4.196c-0.247,0.452-0.838,0.699-1.36,1.004
								c0.659-0.16,1.771,0.965,2.309,0.785c2.567-1.936-0.82-5.136-1.271-7.385c1.158-5.95,1.377,0.269,3.803-2.043
								c-0.064,1.667-0.679,1.73-0.855,4.039c2.892-3.643,0.238-8.222-0.48-10.559c-0.258,0.683-1.052,0.856-0.82,2.146
								l-0.844-2.425C193.026,1831.449,192.476,1833.595,192.802,1839.183z"/>
							<path fill="#7DBEA4" d="M192.827,1846.681c-0.19-1.563,0-2.139,0.364-2.278C192.5,1844.81,191.996,1845.34,192.827,1846.681z
								"/>
							<path fill="#7DBEA4" d="M196.657,1827.962c-0.161,0.262-0.104,0.69,0.072,1.259
								C196.835,1828.938,196.864,1828.563,196.657,1827.962z"/>
							<path fill="#7DBEA4" d="M193.613,1830.344l0.271-2.938l-1.218,1.156C192.802,1828.972,192.992,1830.414,193.613,1830.344z"/>
							<path fill="#7DBEA4" d="M197.538,1713.119c-1.042,1.306-1.559,3.238-1.356,6.547c-1.392,0.134-1.122-4.102-1.919-5.23
								c-0.448,2.35-0.857,2.55-1.322,2.582c-0.465,0.002-0.986-0.142-1.659,0.803c-0.067,1.669,0.352,2.567,0.741,3.748
								c0.195,0.582,0.382,1.219,0.498,1.976c0.116,0.751,0.159,1.664,0.067,2.515c-0.392-0.171-1.008-0.107-1.493,0.359
								c0.878,4.305,2.18,11.604,0.984,15.812c-0.522,4.056,0.134,7.065,0.761,11.522c-0.729,14.646,0.704,29.927-0.598,45.683
								l2.711,2.228c-1.354,0.767,0.008,3.754-1.753,3.31c0.338-0.863,0.054-1.68,0.021-2.715c-2.385,3.372,0.197,8.94-0.656,12.984
								c0.486-0.46,2.84-1.119,3.259,0.096c-3.021-0.326,0.053,4.776-3.411,5.958c-0.861,4.05,2.638,0.159,2.157,4.367
								c1.777,0.446,0.86-4.04,2.203-4.802c1.44,1.323-0.61,3.813,1.259,3.629c0.883-6.758-2.818-19.307-3.826-29.627l1.671,1.084
								c-1.193-5.294-1.254-13.838,1.464-18.067c-1.582,0.998,0.856-7.794-2.753-7.013c0.825-1.333,0.691-1.736,0.998-3.639
								l-1.145-0.511c0.028-2.717,1.786-2.274,1.675-5.385c-1.546,2.03-2.013-0.217-3.298-1.123
								c1.733-3.564,3.252-7.71,4.676-10.871c-0.504,0.249-1.075,0.53-1.743,1.615c0.548-2.146-0.938-1.781-1.468-2.356
								c-0.077-2.075,1.933-1.857,2.941-1.756c0.615-3.806-3.211-5.504-1.928-8.348l-1.6,0.99c-0.388-3.913,1.37-7.223,0.831-11.54
								c2.192-2.095,1.891,3.557,2.833,5.347c0.461-0.882,0.584-2.741,1.302-3.341c-0.558-0.92-1.217-2.158-1.868-3.455
								c-0.651-1.02-1.294-3.364-1.822-4.728c0.636,0.599,1.104,0.65,1.452,0.212c0.347-0.43,0.573-1.333,0.725-2.436
								C197.452,1717.333,197.457,1714.401,197.538,1713.119z"/>
							<path fill="#7DBEA4" d="M198.661,1729.949c0.345,0.544,0.636,0.99,0.876,1.251c-0.138-0.415-0.284-0.811-0.18-1.442
								C199.076,1729.699,198.851,1729.789,198.661,1729.949z"/>
							<path fill="#7DBEA4" d="M197.538,1713.119c0.094-0.107,0.165-0.259,0.259-0.357
								C197.647,1712.151,197.586,1712.424,197.538,1713.119z"/>
							<path fill="#7DBEA4" d="M191.937,1742.789c0.064-0.17,0.089-0.374,0.142-0.56c0.032-0.243,0.023-0.46,0.058-0.715
								L191.937,1742.789z"/>
							<path fill="#7DBEA4" d="M199.2,1746.024c-0.561,0.842-1.135,2.006-1.708,3.313
								C198.212,1748.968,198.774,1748.667,199.2,1746.024z"/>
							<path fill="#7DBEA4" d="M197.401,1772.457c0.283,0.813,0.762,0.345,1.286,0.908
								C198.749,1771.696,198.229,1771.123,197.401,1772.457z"/>
							<polygon fill="#7DBEA4" points="199.076,1725.203 198.584,1719.411 198.151,1717.479 							"/>
							<path fill="#7DBEA4" d="M133.985,1716.763c2.906,1.902,7.167,0.738,10.743,1.125c6.57-0.996,0.83-4.172,7.063-4.402
								l-1.074,3.928c6.233-0.231,15.06,0.58,20.348-2.865c0.46,0.479,1.565,1.067-0.051,1.629c4.151-0.151,2.152-5.59,7.695-4.289
								c-5.173,2.438,1.693,2.318,0.274,4.752l-0.807,0.273c1.757-0.125,3.806-0.512,5.689-0.846
								c1.93-0.335,3.974-0.618,5.149-0.537c0.412-0.506,0.294-1.145,0.48-1.671c0.194-0.527,0.791-0.943,2.957-1.004
								c-1.537-0.202-0.068-1.343,0.881-2.353c-2.981,0.558-4.866,0.664-6.573,0.798c-0.843,0.066-1.621,0.141-2.37,0.28
								c-0.726,0.141-1.516,0.348-2.106,0.682c-1.793-1.326,1.214-0.433-0.59-1.733l-2.579,1.215c-1.908-0.304,1.957-1.318-1-1.594
								c-0.339,0.763-2.746,1.606-5.06,1.428l0.665-0.451c-1.768,0.524-4.28-0.12-3.418,2.062l-2.099-2.174l0.371,1.486
								c-4.859-0.581-6.677-4.14-12.945-2.283c1.495,0.445,0.121,1.248-0.684,1.526c2.609,1.034,3.226-1.115,5.697-1.318
								c0.37,1.485-3.832,3.267-0.822,4.152c-3.31-1.765-6.229,0.228-7.646-3.484c-3.984-0.23-5.473,1.579-9.515,0.722l0.111-0.557
								c-0.75,2.457-3.286-1.108-6.273,1.406l2.132,0.553c-0.101,1.002-1.142,1.035-2.58,1.219c0.167-0.393,0.167-0.393-0.3-0.873
								c-0.446,1.775-4.999,2.063-5.568,2.587c1.904,0.306,4.257-1.157,6.5-1.616
								C135.544,1715.576,135.889,1717.067,133.985,1716.763z"/>
							<path fill="#7DBEA4" d="M175.005,1710.271l-1.285,0.856C174.245,1710.983,174.725,1710.726,175.005,1710.271z"/>
							<path fill="#7DBEA4" d="M115.962,1713.651c-2.542-0.406,0.684-1.52-1.686-2.316c-2.586,1.232,2.955,2.534,0.44,4.379
								c-1.565-1.074-4.095,0.779-5.136,0.815c1.15-1.052,0.493-3.404,0.025-3.894c-0.976,0.664-3.173-0.507-4.847-0.572
								c4.106,1.475-3.454,0.877,0.249,2.484c-0.274,1.4-4.132,2.426-5.703,1.348c0.115-1.008,1.384-0.797,2.421-0.84
								c0.85-1.916-2.6-1.025-3.193-2.77c-3.912,2.654-16.426,2.471-12.869,6.739c1.335,0.816,2.476-0.212,3.921-0.398
								c-4.056-0.856-0.025-2.251,0.32-3.018c1.736,0.685,4.716-0.669,4.042,0.86l-2.758,1.6c8.831,0.804,20.89,0.498,31.044-0.126
								l-4.395-0.084c0.51-1.157,2.586-1.23,4.196-1.788l-2.153-2.807c1.269,0.205,2.479-0.211,2.378,0.797
								c1.542-1.188,0.842-1.91-0.084-2.88c3.278-0.489,3.812,0.604,6.336-1.233c-5.441-2.306-4.598,1.917-10.844-0.105
								L115.962,1713.651z"/>
							<polygon fill="#7DBEA4" points="127.898,1712.105 126.583,1713.529 128.588,1712.823 							"/>
							<path fill="#7DBEA4" d="M125.807,1718.31c-0.061-0.621,0.745-0.896,0.68-1.512
								C123.945,1716.38,124.246,1717.24,125.807,1718.31z"/>
							<path fill="#7DBEA4" d="M95.182,1712.161l-3.278,0.492l2.134,0.547C93.979,1712.574,94.783,1712.31,95.182,1712.161z"/>
							<path fill="#7DBEA4" d="M72.17,1719.503c4.553-0.285,6.508-1.604,11.649-0.176c2.522-1.838-1.181-3.448-0.095-5.121
								c-2.549-0.408-2.236,2.707-4.875,3.313c-0.988-1.59-3.876,0.347-6.404-0.018C72.757,1718.155,72.757,1718.899,72.17,1719.503
								z"/>
							<path fill="#7DBEA4" d="M56.499,1713.426c-2.076-0.022-4.177,1.214-5.826,0.451c0.23-0.998,1.476-1.37,2.727-1.099
								c-0.791-2.264-2.298,0.35-4.553-1.16c0.199,0.247,1.021,0.631,0.39,1.123c-5.601-0.533-3.149,1.857-10.409,0.563
								c-1.055,0.624-2.089,0.609-1.916,2.112c-4.12-1.901-2.039-1.887-7.001-3.551c0.193,0.876,1.814,2.892,1.783,4.767
								c-7.01-2.643-7.16,0.375-11.631-1.605c0.499-0.094,1.105-0.586,2.306-0.326c-0.581-2.631-3.754,0.478-6.233-0.043
								l0.236-2.241c-1.146,0.176-2.713,0.631-4.355,0.839c-0.821,0.104-1.66,0.146-2.475,0.059
								c-0.355-0.044-0.918-0.119-1.441-0.234c-0.525-0.116-1.053-0.272-1.591-0.477c0.223-0.375,0.473-0.75,0.75-1.125
								c-3.661,0.734-7.134,1.007-10.664,1.146l0.197,7.197c0.035,1.14,0.08,2.247,0.146,3.302c0.066,1.04,0.153,2.143,0.274,2.752
								l-1.392,2.682c1.706,6.892,0.786-6.853,4.14-1.801c-4.14,0.754,1.346,3.557-0.301,7.479c-1.645,1.85-0.858-3.963-2.736-1.916
								c2.117,0.869,0.611,2.089,1.221,4.183c-1.997-0.452-0.27,4.361-2.525,3.079l3.706,7.344c-1.134,1.181-0.94,3.31-0.653,4.872
								c0.024-3.958,2.977,1.092,3.902-3.357c-0.481-3.231-0.892-7.556-1.05-12.084c-0.079-2.264-0.095-4.579-0.025-6.834
								c0.069-2.193,0.225-4.67,0.489-6.02c-1.376-0.647-1.369-1.959-1.298-3.154c0.071-1.231,0.206-2.289-0.917-3.999
								c0.464,0.333,0.895,0.535,1.328,0.781c0.551,0.385,1.071,0.77,1.527,1.181c1.686-0.292,1.311-0.669,0.265-1.098
								c-1.001-0.429-2.745-0.909-2.599-1.41c1.02-0.179,2.387,0.144,3.368,0.635c1.001,0.491,1.651,1.152,1.82,1.65
								c1.467,0.072,1.492-0.115,1.277-0.507c-0.198-0.391-0.797-0.984-0.047-1.725c1.101,1.006,1.875,2.012,2.483,3.018
								c11.659-0.93,27.093-2.968,40.37-1.245l-0.996-1.887c6.003,1.037,10.059-4.193,15.385-0.15l1.827-1.617
								c-1.004,0.917,1.035,2.83-0.544,4.113c1.641-0.646,3.379,0.074,5.071-0.512l-3.007-0.897
								c2.107-1.603,4.432-0.612,5.134,0.788c4.484-1.892-2.668-3.26-3.666-4.845c-6.315,3.486-6.36-3.419-12.427-1.958
								C52.583,1711.763,56.729,1712.421,56.499,1713.426z"/>
							<path fill="#7DBEA4" d="M64.314,1718.591c0.397-0.146,0.698-0.327,0.92-0.504
								C64.918,1718.202,64.622,1718.363,64.314,1718.591z"/>
							<path fill="#7DBEA4" d="M-1.329,1751.796c0,0.468,0.024,1.029,0.111,1.771C-0.743,1754.166-1.077,1753.207-1.329,1751.796z"
								/>
							<path fill="#7DBEA4" d="M72.445,1717.501c0-0.012,0-0.012-0.014-0.035c-0.012,0.023-0.031,0.023-0.045,0.035H72.445z"/>
							<polygon fill="#7DBEA4" points="75.458,1712.873 73.786,1712.813 74.077,1713.672 							"/>
							<path fill="#7DBEA4" d="M-3.698,1769.538l0.992,0.02C-3.019,1769.397-3.333,1769.333-3.698,1769.538z"/>
							<path fill="#7DBEA4" d="M-4.303,1817.577l0.051-1.033C-4.401,1816.861-4.378,1817.231-4.303,1817.577z"/>
							<path fill="#7DBEA4" d="M21.372,1913.722c3.132-0.609,7.305-1.207,9.615-2.813l-0.225,0.996c1.68-0.484,7.11-2.074,3.61-3.85
								l-0.85,0.869c-3.978,1.468-2.886-1.646-5.997-2.287c-3.748,0.465-5.894,4.207-9.203,3.322
								c-1.459,0.107-1.231-0.896-0.805-1.641c-3.325-0.273-4.623,2.599-6.915,2.971c-0.167-1.387-0.622-2.191-1.281-2.613
								c-0.186-0.105-0.317-0.187-0.429-0.247c-0.124-0.061-0.252-0.1-0.388-0.122c-0.271-0.043-0.57-0.015-0.915,0.06
								c-0.685,0.149-1.574,0.484-2.645,0.811c-1.06,0.325-2.306,0.64-3.389,0.746c-0.152-1.215,0.116-2.943,1.368-4.451
								c-0.152-0.453-0.226-1.025-0.273-1.645l-0.058-0.965l-0.059-1.23c-0.097-1.926-0.302-3.958-1.043-5.948
								c1.881,2.113,0.158-3.744,2.279-2.874c-4.373-1.117,1.943-11.406-3.553-12.121c1.541-5.382-0.366-0.225,0.925-6.438
								c0.616,0.006,0.616,1.056,0.729,1.467c1.135-2.471-2.344-3.786,0.17-5.823c0.404-4.976-1.494-0.85-2.971-3.787
								c0.643-5.191,1.395-3.729,3.66-6.591c-2.625-0.46-1.354-3.563-2.711-6.087c-0.126,0.626-0.645,4.151-1.643,1.846
								c0.422-6.028-1.726-4.822-2.432-10.448c2.896-2.854,0.09,5.62,2.372,0.672c1.351,3.563,1.216,6.266,3.328,8.174
								c0.153-4.79-0.308-10.62-1.523-15.845c0.388-2.9,1.368,1.489,1.627-0.8c1.282-5.172-2.95-7.955-1.67-12.095l1.491,0.863
								c-1.983-2.536,0.439-9.152-0.662-13.947c-0.748,0.604-1.257,1.014-1.752,0.374c3.756,0.078-1.951-6.685,0.694-11.419
								c-2.376,0.372-3.718-4.228-3.959-7.145c0.647-1.025,1.644-0.806,2.276-0.794c-1.418,4.766,2.582,4.625,3.691,8.393
								c-1.236-3.147,0.045-8.328-1.688-11.061l1.869,1.072c0.272-4.36-4.228-3.813-2.442-8.365l1.37,0.446
								c-0.189-9.158,2.256-19.927-0.82-27.265c-1.125-0.645-3.773,3.055-4.658,3.251c0.979,4.382,2.971,6.911,3.949,10.25
								l-2.145-0.031c1.471,0.76,2.342,4.78,3.498,2.555c1.099,2.721-1.889,2.051-0.664,5.187c-2.244-0.243-2.485-2.12-4.352-2.153
								l1.1,2.721c-0.867-0.85-0.754,1.648-1.632,0.814c2.716,5.036-1.056,7.048,0.167,12.271l0.398-2.911
								c1.248,0.025,1.119,1.693,1.484,2.942c-1.758,1.425-1.518,2.264-2.285,4.951c0.984,2.306,3.229,3.592,3.211,6.712
								c-2.373-0.671-1.291,5.181-3.287,5.768c2.365,0.664,0.844,6.048,2.206,6.481c0.483,1.675,0.231,3.967-1.036,3.941
								c-0.063-0.248-0.302-0.734-0.405-1.259l-0.079,1.668c-0.274-0.16-0.478-0.104-0.521-0.294c-0.06,1.486,1.663,1.5,0.491,3.41
								c-0.621-0.02-0.611-1.048-0.863-1.891c-0.404,3.953,3.58,6.938,1.438,10.219c1.111,0.646,1.211,5.224,3.729,4.228
								c-0.896,1.231-2.888,0.779-2.534,4.116c2.113,1.908-0.778,3.727,0.586,6.249c-2.229-3.372-0.623-0.012-2.744-2.963
								c-0.879,2.272,1.971,5.652,1.584,9.606c-0.504,0.394-1.137,0.388-1.641,0.797c0.744,1.476,2.479,3.162,0.718,4.584
								l1.509-0.177c-0.772,2.699-0.292,6.443-1.941,9.33l2.855,3.371c-3.023,4.528-0.307,10.603,2.285,14.187
								c-0.129,1.659-0.65,4.152-1.283,4.137c-0.217-0.385-0.65-1.035-1.037-1.805c-0.105,2.443-1.734,5.426,0.642,6.792
								c0.727,2.51-1.643,1.84-2.024,3.705c0.666,1.009,0.968,2.21,1.065,3.499c0.048,0.644,0.046,1.31,0.012,1.984
								c-0.034,0.803-0.099,1.667-0.175,2.524c-0.153,1.72-0.352,3.526-0.436,5.165c-0.085,1.631-0.056,3.077,0.245,3.882
								c1.433-0.306,2.732-0.892,3.876-1.924c-0.537-0.007-1.142-0.073-1.786-0.167l0.5-4.187c0.15-1.453,0.245-2.877,0.163-4.3
								c0.614,0.896,1.614,0.01,1.728,1.125c0.075,0.982-0.079,1.874-0.289,2.846c-0.21,0.963-0.477,1.996-0.626,3.041
								c0.763,0.155,1.809,0.185,3.164-0.106c-0.798,1.083-1.653,2.165-2.565,3.248
								C10.493,1916.782,15.885,1909.063,21.372,1913.722z"/>
							<path fill="#7DBEA4" d="M-2.166,1882.11l-1.649,2.87l1.402-0.308C-2.642,1883.786-2.642,1882.88-2.166,1882.11z"/>
							<path fill="#7DBEA4" d="M-2.413,1884.673c0.152,0.591,0.391,1.164,0.662,1.677c0.029-0.628-0.029-1.234-0.305-1.747
								L-2.413,1884.673z"/>
							<path fill="#7DBEA4" d="M32.813,1913.173c0.633,0.129,1.878,0.388,3.13,0.021
								C35.118,1912.808,33.452,1912.678,32.813,1913.173z"/>
							<polygon fill="#7DBEA4" points="36.165,1912.192 34.716,1911.685 34.506,1912.06 							"/>
							<path fill="#7DBEA4" d="M120.244,1909.365l4.623-1.978c0.805,1.002,6.028-0.208,4.336,1.518
								c2.75-2.35,8.729-0.063,6.51-3.457c-13.542,1.169-32.229-0.824-47.887,2.196l2.522-1.351
								c-8.149,2.688-11.17-2.962-17.716,2.379l0.875-2.748c-3.73-0.768-7.139,3.958-11.041,1.064l0.396,1.119
								c-1.035-0.004-1.444-0.504-2.491-0.514l0.415,0.504c-2.727,1.1-4.387,0.973-7.077,0.209
								c-0.191-0.876,1.259-0.375,2.089-0.607c-1.234-0.893-3.347,0.973-5.43,0.952c-1.647-0.761,0.021-1.247,0.244-1.622
								c-6.266,1.213-9.119-1.68-13.559,2.414c-0.435,0.75,1.629,1.395-0.657,1.746c4.132,1.291,7.49-0.325,11.259-1.427
								l-1.048-0.013c2.99-3.973,2.274,0.902,7.088-0.819c-1.271,1.614-3.358,1.603-4.202,2.469
								c5.563,3.036,7.946-2.317,11.618,1.589l-0.416,0.113c0.825,0.375,2.292-0.365,3.543-0.727
								c-0.407-0.504-1.641-0.764-2.471-1.146c1.259-0.365,1.906-2.114,2.339-2.856c1.423,1.755,1.883-0.863,4.157,0.021
								c0.805,1.624-1.896,1.488-2.74,2.364l2.725-1.116c2.491-0.104,2.456,1.778,3.693,2.657c2.101-1.244-1.238-0.879,0.468-2.622
								c2.672,2.017,14.112,1.454,19.556-0.122c-1.887,0.228-0.659,1.74-2.947,1.476c0.83,0.369,3.744-0.478,3.769-1.726
								c3.768-1.102,8.539-0.324,12.055,0.823l-1.014-1.257c2.951-2.098,7.461,1.56,12.678,0.326l-0.113-0.021
								c1.678-0.271,3.12-3.315,6.2-2.686C121.731,1907.993,120.071,1907.865,120.244,1909.365z"/>
							<path fill="#7DBEA4" d="M138.605,1906.47l-1.693,1.744c1.867,0.389,4.19-1.849,3.794-2.977
								c-1.245,0.371-2.906-0.398-3.136,0.605C137.789,1906.092,137.771,1906.714,138.605,1906.47z"/>
							<path fill="#7DBEA4" d="M173.553,1906.192c0.682-0.398,0.509-1.055,0.797-1.539c-7.402,0.215-16.529,0.906-19.478-0.453
								c-2.499-0.508-2.945,2.105-6.081,2.713l-1.417-1.756c-1.693,1.113-6.86-0.803-5.04,2.084c0.205,0.252,1.481-1.36,2.936-0.85
								l-0.234,0.996l3.334-0.346l-1.06,1.248c4.547,1.777,3.188-3.744,8.78-2.584l-0.045,2.508c3.75,0.144,5.634-0.721,8.928,0.797
								c0,0,0.027-1.248-0.6-0.744c-0.632-0.135-1.442-1.138-1.008-1.888c5.652-1.962-0.863,1.497,3.072,2.52
								c4.816-1.717,13.986-3.157,16.656-1.14c-2.261-1.514,1.105-3.12,3.799-2.977c1.228,0.883-0.861,1.488-1.288,2.236
								c1.249,0.27,2.267,0.899,3.531,0.527c-1.635-1.38-0.569-3.258,2.362-4.107
								C185.074,1901.892,179.995,1906.485,173.553,1906.192z"/>
							<path fill="#7DBEA4" d="M175.467,1904.079c-0.665,0.083-0.957,0.302-1.117,0.574c0.875-0.029,1.75-0.053,2.567-0.059
								L175.467,1904.079z"/>
						</g>
					</g>
				</g>
			</g>
		</g>
		<g>
			<rect x="191.498" y="1414.705" fill="#D3E8DD" width="125.689" height="136.283"/>
			<g>
				<g>
					<g>
						<g>
							<polygon fill="#7DBEA4" points="316.606,1550.988 317.055,1549.539 315.774,1549.082 							"/>
							<path fill="#7DBEA4" d="M321.206,1544.121l-0.536-2.491c-3.704,1.428-2.628-0.492-5.273,3.392
								c0.574,1.361,1.858,4.362,3.309,3.965c-0.157-0.978-1.567-2.413-1.114-3.867c1.064,0.624,0.941,2.186,2.325,2.913
								c1.145-2.346-0.898-1.473-0.387-4.054L321.206,1544.121z"/>
							<path fill="#7DBEA4" d="M317.522,1541.179c0.635,0.228,1.271,0.466,1.791,0.423
								C318.678,1541.367,317.891,1540.162,317.522,1541.179z"/>
							<path fill="#7DBEA4" d="M317.139,1539.664c0.138-1.57,1.364,0.026,1.567-0.135l-2.384-1.781L317.139,1539.664z"/>
							<path fill="#7DBEA4" d="M317.299,1533.143c-0.063-0.254-0.137-0.496-0.227-0.729
								C316.692,1532.667,317.017,1532.871,317.299,1533.143z"/>
							<path fill="#7DBEA4" d="M317.017,1529.939c-0.826,0.64-0.338,1.449,0.055,2.474c0.05-0.032,0.081-0.061,0.155-0.1
								c0.692-0.899,2.395-0.052,1.95,1.397c0.378,1.517-1.3,1.379-0.195,2.692l1.373-1.802
								C320.146,1532.218,317.69,1530.865,317.017,1529.939z"/>
							<path fill="#7DBEA4" d="M317.299,1533.143c0.063,0.27,0.107,0.555,0.107,0.853
								C317.69,1533.618,317.522,1533.365,317.299,1533.143z"/>
							<polygon fill="#7DBEA4" points="317.1,1536.421 317.45,1537.233 318.17,1537.035 							"/>
							<path fill="#7DBEA4" d="M316.879,1524.588c2.313,0.375-0.247,3.826,1.554,4.24c-0.098-2.105,1.594-3.796,2.87-3.333
								l-0.718-2.335C319.711,1522.377,317.973,1523.368,316.879,1524.588z"/>
							<path fill="#7DBEA4" d="M322.738,1520.013c-0.195-0.151-0.326-0.329-0.396-0.532
								C322.437,1519.735,322.553,1519.952,322.738,1520.013z"/>
							<path fill="#7DBEA4" d="M318.759,1508.204l2.332,5.456c-0.744-0.505-1.474-0.305-1.736-1.548
								c-0.313,2.416,1.168,2.729,0.933,4.718c-2.158,0.602-0.156-3.512-2.085-2.365c0.064,1.4,0.161,3.511,1.988,4.635
								l-1.476,2.231l2.375-0.757c0.68-0.906-1.858-1.824-0.211-2.383c1.016-0.281,1.208,0.623,1.448,1.263
								c-0.476-1.439,1.85-3.938,1.538-6.865C323.622,1509.505,319.896,1510.236,318.759,1508.204z"/>
							<polygon fill="#7DBEA4" points="321.365,1507.997 322.29,1507.633 321.04,1507.884 							"/>
							<path fill="#7DBEA4" d="M318.274,1502.042l1.487,2.841c-0.206,0.307-0.698,0.474-1.134,0.68
								c0.549-0.108,1.476,0.653,1.924,0.531c2.14-1.31-0.684-3.477-1.06-4.999c0.965-4.028,1.147,0.182,3.169-1.383
								c-0.054,1.128-0.565,1.172-0.713,2.733c2.41-2.466,0.199-5.565-0.4-7.147c-0.215,0.462-0.876,0.579-0.684,1.453l-0.703-1.642
								C318.461,1496.807,318.002,1498.259,318.274,1502.042z"/>
							<path fill="#7DBEA4" d="M318.295,1507.118c-0.159-1.059,0-1.447,0.304-1.542
								C318.022,1505.852,317.603,1506.211,318.295,1507.118z"/>
							<path fill="#7DBEA4" d="M321.487,1494.445c-0.134,0.177-0.086,0.468,0.06,0.853
								C321.635,1495.106,321.659,1494.852,321.487,1494.445z"/>
							<path fill="#7DBEA4" d="M318.95,1496.058l0.226-1.988l-1.015,0.782C318.274,1495.129,318.433,1496.105,318.95,1496.058z"/>
							<path fill="#7DBEA4" d="M322.221,1418.379c-0.868,0.571-1.299,1.809-1.13,4.004c-1.16-0.197-0.935-3.063-1.599-4.025
								c-0.374,1.465-0.714,1.486-1.102,1.378c-0.388-0.128-0.822-0.37-1.383,0.081c-0.112,2.15,1.396,3.237,1.088,5.639
								c-0.326-0.117-0.84-0.073-1.244,0.242c0.731,2.915,1.816,7.856,0.82,10.705c-0.436,2.746,0.111,4.783,0.634,7.801
								c-0.607,9.917,0.587,20.262-0.498,30.929l2.259,1.508c-1.128,0.519,0.006,2.542-1.461,2.241
								c0.282-0.585,0.045-1.138,0.017-1.838c-1.987,2.282,0.165,6.052-0.547,8.79c0.405-0.312,2.367-0.757,2.716,0.064
								c-2.517-0.22,0.044,3.234-2.843,4.034c-0.718,2.742,2.198,0.108,1.798,2.957c1.481,0.302,0.717-2.735,1.836-3.252
								c1.2,0.896-0.509,2.583,1.049,2.457c0.736-4.574-2.349-13.07-3.188-20.058l1.393,0.733c-0.995-3.584-1.045-9.368,1.22-12.231
								c-1.318,0.676,0.714-5.277-2.294-4.748c0.688-0.902,0.576-1.176,0.832-2.463l-0.954-0.347
								c0.023-1.839,1.488-1.539,1.396-3.646c-1.288,1.375-1.677-0.146-2.748-0.76c1.444-2.413,2.71-5.22,3.896-7.36
								c-0.42,0.169-0.896,0.359-1.453,1.094c0.457-1.453-0.781-1.206-1.223-1.595c-0.064-1.405,1.61-1.258,2.451-1.189
								c0.513-2.577-2.676-3.727-1.606-5.651l-1.333,0.67c-0.323-2.649,1.142-4.89,0.692-7.813c1.827-1.418,1.576,2.408,2.361,3.619
								c0.384-0.596,0.487-1.854,1.085-2.262c-0.93-1.245-2.196-3.354-3.075-4.911c1.06,0.746,1.561,0.186,1.814-0.686
								c0.063-0.15,0.111-0.636,0.148-1.011c0.037-0.397,0.063-0.805,0.084-1.194L322.221,1418.379z"/>
							<path fill="#7DBEA4" d="M323.157,1428.088c0.287,0.368,0.53,0.671,0.73,0.848c-0.115-0.281-0.237-0.549-0.15-0.977
								C323.502,1427.92,323.314,1427.98,323.157,1428.088z"/>
							<path fill="#7DBEA4" d="M322.221,1418.379c0.078-0.046,0.138-0.129,0.216-0.17
								C322.312,1417.755,322.261,1417.922,322.221,1418.379z"/>
							<path fill="#7DBEA4" d="M317.553,1436.781c0.054-0.115,0.074-0.253,0.118-0.379c0.027-0.165,0.02-0.312,0.048-0.484
								L317.553,1436.781z"/>
							<path fill="#7DBEA4" d="M323.606,1438.972c-0.467,0.57-0.946,1.357-1.423,2.243
								C322.782,1440.964,323.251,1440.761,323.606,1438.972z"/>
							<path fill="#7DBEA4" d="M322.107,1456.867c0.236,0.55,0.635,0.233,1.072,0.615
								C323.23,1456.353,322.797,1455.965,322.107,1456.867z"/>
							<path fill="#7DBEA4" d="M323.502,1424.875l-0.41-2.227c-0.06-0.151-0.12-0.239-0.18-0.441l-0.18-0.705l0.096,0.657
								c0.032,0.233,0.064,0.283,0.097,0.434l0.192,0.761L323.502,1424.875z"/>
							<path fill="#7DBEA4" d="M282.208,1415.316c1.967,1.585,4.852,0.615,7.273,0.938c4.448-0.83,0.562-3.477,4.782-3.669
								l-0.727,3.273c4.22-0.193,10.196,0.483,13.776-2.388c0.312,0.398,1.06,0.89-0.034,1.357c1.405-0.063,1.769-1.228,2.251-2.241
								c0.259-0.507,0.681-0.976,1.347-1.25c0.666-0.274,1.651-0.354,2.923-0.083c-1.459,0.508-1.994,0.883-2.157,1.19
								c-0.155,0.309,0.083,0.55,0.377,0.791c0.624,0.482,1.356,0.964,0.449,1.979l-0.585,0.228
								c1.435-0.138,3.577-0.658,5.522-0.954c0.151,0.675,0.244,1.366,0.198,1.96c0.422-0.265,0.954-1.031,1.393-1.472
								c0.439-0.435,0.786-0.478,0.836,0.923c0.168-1.258,1.12-1.49,1.96-1.933c-0.411-1.26-0.527-2.306-0.626-3.239
								c-1.404,0.124-2.572,0.22-4.062,0.84c-0.492-0.553-0.165-0.643,0.213-0.73c0.358-0.087,0.766-0.172,0.155-0.714
								c-1.152,0.337-2.226,0.675-3.223,1.012c-0.899-0.126-0.327-0.401,0.167-0.673c0.485-0.271,0.882-0.54-0.729-0.655
								c-0.296,0.318-1.142,0.653-2.143,0.89c-0.503,0.118-1.05,0.212-1.614,0.267c-0.321,0.028-0.49,0.046-0.683,0.052
								c-0.195,0.006-0.392,0.001-0.587-0.018l0.45-0.376c-1.197,0.437-2.897-0.101-2.314,1.718l-1.421-1.812l0.25,1.238
								c-3.29-0.484-4.521-3.449-8.764-1.902c1.012,0.371,0.082,1.04-0.463,1.271c1.767,0.862,2.184-0.929,3.857-1.099
								c0.25,1.238-2.594,2.723-0.557,3.461c-2.241-1.471-4.217,0.189-5.176-2.904c-2.697-0.191-3.706,1.316-6.442,0.602
								l0.075-0.464c-0.508,2.048-2.225-0.924-4.248,1.172l1.443,0.461c-0.068,0.835-0.773,0.862-1.747,1.016
								c0.114-0.327,0.114-0.327-0.203-0.728c-0.302,1.479-3.385,1.72-3.77,2.155c1.29,0.255,2.882-0.964,4.401-1.347
								C283.264,1414.327,283.498,1415.57,282.208,1415.316z"/>
							<path fill="#7DBEA4" d="M310.216,1409.906c-0.226,0.119-0.514,0.237-0.67,0.356l-0.435,0.357
								c0.178-0.06,0.347-0.144,0.497-0.26C309.842,1410.244,310.052,1410.096,310.216,1409.906z"/>
							<path fill="#7DBEA4" d="M270.007,1412.724c-1.721-0.339,0.463-1.267-1.141-1.931c-1.751,1.027,2,2.112,0.298,3.649
								c-1.06-0.896-2.772,0.649-3.477,0.68c0.778-0.877,0.333-2.837,0.017-3.245c-0.661,0.554-2.148-0.422-3.282-0.477
								c2.78,1.229-2.338,0.73,0.169,2.07c-0.186,1.167-2.797,2.021-3.861,1.123c0.078-0.84,0.937-0.664,1.639-0.7
								c0.575-1.597-1.76-0.854-2.161-2.308c-2.648,2.212-11.121,2.059-8.713,5.616c0.904,0.68,1.676-0.177,2.655-0.332
								c-2.746-0.714-0.017-1.876,0.216-2.515c1.176,0.57,3.193-0.558,2.737,0.717l-1.867,1.333
								c5.979,0.67,14.143,0.415,21.017-0.105l-2.975-0.069c0.346-0.965,1.751-1.025,2.841-1.49l-1.458-2.339
								c0.859,0.171,1.678-0.176,1.61,0.664c1.043-0.99,0.57-1.592-0.057-2.4c2.22-0.407,2.581,0.504,4.29-1.027
								c-3.684-1.922-3.113,1.598-7.342-0.088L270.007,1412.724z"/>
							<polygon fill="#7DBEA4" points="278.088,1411.436 277.197,1412.622 278.555,1412.033 							"/>
							<path fill="#7DBEA4" d="M276.672,1416.605c-0.041-0.518,0.504-0.747,0.46-1.26
								C275.412,1414.997,275.615,1415.714,276.672,1416.605z"/>
							<path fill="#7DBEA4" d="M255.938,1411.481l-2.22,0.41l1.445,0.456C255.124,1411.826,255.668,1411.605,255.938,1411.481z"/>
							<path fill="#7DBEA4" d="M240.359,1417.6c3.082-0.237,4.406-1.336,7.887-0.146c1.708-1.531-0.8-2.873-0.065-4.268
								c-1.726-0.34-1.513,2.256-3.3,2.761c-0.669-1.325-2.625,0.289-4.336-0.015C240.756,1416.477,240.756,1417.097,240.359,1417.6
								z"/>
							<path fill="#7DBEA4" d="M229.749,1412.535c-1.405-0.019-2.828,1.012-3.944,0.376c0.156-0.831,0.999-1.142,1.846-0.915
								c-0.536-1.887-1.556,0.291-3.083-0.967c0.135,0.206,0.691,0.525,0.264,0.936c-3.792-0.444-2.132,1.548-7.048,0.469
								c-0.714,0.521-1.415,0.508-1.297,1.761c-2.79-1.585-1.38-1.572-4.74-2.959c0.13,0.729,1.229,2.409,1.208,3.972
								c-4.747-2.202-4.848,0.313-7.875-1.338c0.338-0.078,0.748-0.488,1.561-0.271c-0.393-2.192-2.542,0.397-4.22-0.036l0.16-1.867
								c-0.776,0.146-1.837,0.525-2.949,0.698c-0.484,0.087-1.305,0.121-2.01,0.049c-0.727-0.072-1.461-0.251-2.254-0.592
								c0.092-0.313,0.203-0.625,0.332-0.938c-2.364,0.611-4.673,0.839-7.041,0.955c0.154,3.4,0.112,6.612,0.514,9.224
								c-0.193,0.372-0.386,0.767-0.58,1.186l-0.58,0.91c0.711,2.333,0.875,1.173,1.21-0.143c0.084-0.353,0.178-0.614,0.295-1.018
								c0.117-0.37,0.255-0.672,0.427-0.843c0.343-0.356,0.819-0.123,1.518,0.782c-3.45,0.514,1.122,2.409-0.25,5.064
								c-1.371,1.252-0.715-2.683-2.28-1.298c1.764,0.589,0.509,1.415,1.017,2.832c-1.664-0.306-0.225,2.953-2.104,2.085
								l3.088,4.972c-0.945,0.8-0.784,2.241-0.544,3.299c0.021-2.68,2.48,0.739,3.252-2.273c-0.401-2.188-0.743-5.115-0.875-8.181
								c-0.066-1.532-0.079-3.1-0.021-4.627c0.058-1.639,0.188-2.759,0.407-3.765c-1.146-0.654-1.141-1.541-1.082-2.339
								c0.059-0.822,0.171-1.518-0.764-2.851c0.387,0.299,0.747,0.503,1.107,0.737c0.433,0.32,0.845,0.641,1.218,0.983
								c1.096-0.244,0.783-0.558,0.008-0.915c-0.745-0.356-2-0.758-1.98-1.175c0.663-0.149,1.638,0.119,2.379,0.529
								c0.755,0.409,1.298,0.96,1.49,1.375c1.005,0.061,0.992-0.097,0.785-0.422c-0.195-0.326-0.693-0.821-0.301-1.438
								c0.893,0.838,1.604,1.676,2.132,2.515l1.085-0.155l1.563-0.171l3.265-0.365c2.23-0.245,4.557-0.485,6.918-0.656
								c4.723-0.342,9.582-0.408,14.076,0.31l-0.674-1.572c4.064,0.864,6.81-3.494,10.417-0.125l1.236-1.348
								c-0.68,0.764,0.701,2.358-0.368,3.428c1.111-0.539,2.288,0.062,3.433-0.427l-2.036-0.748c1.426-1.335,3-0.51,3.476,0.657
								c3.036-1.576-1.807-2.717-2.482-4.037c-4.275,2.905-4.306-2.85-8.414-1.632
								C227.098,1411.149,229.904,1411.698,229.749,1412.535z"/>
							<path fill="#7DBEA4" d="M235.04,1416.84c0.27-0.122,0.473-0.272,0.623-0.42C235.449,1416.516,235.248,1416.65,235.04,1416.84
								z"/>
							<path fill="#7DBEA4" d="M190.39,1438.92c0,0.317,0.021,0.697,0.093,1.198C190.878,1440.524,190.6,1439.876,190.39,1438.92z"
								/>
							<path fill="#7DBEA4" d="M240.545,1415.932c0-0.01,0-0.01-0.009-0.029c-0.008,0.02-0.021,0.02-0.03,0.029H240.545z"/>
							<polygon fill="#7DBEA4" points="242.585,1412.075 241.453,1412.025 241.649,1412.74 							"/>
							<path fill="#7DBEA4" d="M188.416,1450.932l0.826,0.014C188.982,1450.837,188.72,1450.793,188.416,1450.932z"/>
							<path fill="#7DBEA4" d="M187.912,1483.455l0.043-0.699C187.83,1482.971,187.85,1483.222,187.912,1483.455z"/>
							<path fill="#7DBEA4" d="M202.007,1552.857c2.121-0.508,4.946-1.006,6.509-2.344l-0.152,0.83
								c1.138-0.403,4.814-1.729,2.444-3.208l-0.575,0.725c-2.693,1.223-1.954-1.372-4.06-1.906
								c-2.538,0.388-3.99,3.506-6.231,2.769c-0.988,0.09-0.834-0.747-0.545-1.367c-0.319-0.028-0.466-0.016-0.625,0.028
								c-0.162,0.044-0.319,0.12-0.479,0.219c-0.319,0.197-0.652,0.485-1.019,0.789c-0.724,0.608-1.61,1.285-2.469,1.439
								c1.201-2.669,0.711-2.754-0.871-2.28c-0.319-0.414-0.891-0.959-1.097-1.897c-0.206-0.901-0.047-2.138,1.096-2.874
								c-0.127-0.275-0.188-0.945-0.228-1.528l-0.097-1.888c-0.081-1.304-0.252-2.68-0.87-4.027
								c1.567,1.431,0.132-2.534,1.899-1.946c-3.644-0.756,1.62-7.722-2.96-8.206c1.284-3.643-0.305-0.151,0.77-4.358
								c0.514,0.005,0.514,0.716,0.608,0.994c0.946-1.673-1.953-2.563,0.142-3.942c0.337-3.369-1.245-0.576-2.476-2.564
								c0.536-3.515,1.162-2.525,3.051-4.463c-2.188-0.311-1.128-2.412-2.26-4.12c-0.105,0.423-0.537,2.811-1.368,1.249
								c0.352-4.081-1.438-3.265-2.026-7.074c2.413-1.932,0.074,3.806,1.976,0.456c1.125,2.412,1.013,4.242,2.773,5.534
								c0.128-3.244-0.256-7.19-1.27-10.729c0.324-1.963,1.14,1.009,1.356-0.541c1.068-3.502-2.458-5.386-1.392-8.188l1.243,0.585
								c-1.653-1.717,0.366-6.197-0.552-9.443c-0.624,0.409-1.047,0.687-1.46,0.254c3.13,0.053-1.626-4.526,0.579-7.731
								c-1.98,0.252-3.098-2.862-3.3-4.837c0.54-0.694,1.37-0.545,1.897-0.537c-1.182,3.227,2.152,3.131,3.076,5.682
								c-1.03-2.131,0.038-5.639-1.406-7.488l1.558,0.726c0.227-2.951-3.523-2.581-2.035-5.663l1.141,0.302
								c-0.157-6.2,1.88-13.49-0.684-18.458c-0.938-0.438-3.145,2.067-3.882,2.2c0.815,2.967,2.476,4.68,3.291,6.939l-1.787-0.021
								c1.226,0.515,1.952,3.236,2.915,1.729c0.916,1.842-1.573,1.388-0.553,3.512c-1.87-0.165-2.072-1.437-3.627-1.458l0.917,1.842
								c-0.723-0.575-0.629,1.116-1.36,0.552c2.263,3.409-0.88,4.771,0.139,8.308l0.332-1.972c1.04,0.017,0.933,1.146,1.236,1.992
								c-1.465,0.965-1.265,1.532-1.904,3.352c0.82,1.562,2.69,2.433,2.676,4.545c-1.978-0.454-1.075,3.507-2.739,3.904
								c1.972,0.45,0.703,4.095,1.838,4.389c0.403,1.134,0.193,2.686-0.863,2.668c-0.053-0.167-0.251-0.497-0.338-0.853l-0.066,1.13
								c-0.228-0.108-0.398-0.07-0.433-0.199c-0.05,1.007,1.385,1.016,0.409,2.309c-0.518-0.013-0.509-0.71-0.719-1.279
								c-0.337,2.676,2.983,4.697,1.197,6.918c0.927,0.437,1.01,3.536,3.108,2.862c-0.746,0.834-2.406,0.527-2.112,2.787
								c1.762,1.291-0.648,2.522,0.488,4.229c-1.858-2.282-0.519-0.008-2.286-2.005c-0.732,1.538,1.642,3.826,1.319,6.504
								c-0.42,0.266-0.947,0.262-1.367,0.539c0.62,0.999,2.065,2.141,0.598,3.104l1.257-0.12c-0.643,1.828-0.243,4.362-1.617,6.316
								l2.379,2.283c-2.52,3.065-0.255,7.178,1.904,9.604c-0.107,1.123-0.542,2.811-1.069,2.8c-0.181-0.26-0.542-0.7-0.864-1.222
								c-0.088,1.655-1.445,3.674,0.535,4.599c0.605,1.7-1.368,1.246-1.687,2.509c1.391,1.735,0.876,4.19,0.546,6.522
								c-0.33,2.823-0.477,5.773,1.65,4.903c0.01-0.754,0.228-1.947,0.42-3.167c0.192-1.221,0.36-2.487,0.271-3.85
								c0.511,0.71,1.345,0.161,1.439,1.147c0.048,0.73-0.015,1.132-0.125,1.583c-0.109,0.448-0.266,0.899-0.406,1.378
								c-0.281,0.938-0.497,2.062-0.143,2.961c-0.902,0.624-1.804,1.209-2.706,1.756c-0.38,1.063-0.585,2.073-0.667,2.963
								c1.144,0.127,2.578-0.047,3.916-0.328c1.35-0.281,2.605-0.668,3.678-0.967
								C198.926,1551.428,200.419,1551.185,202.007,1552.857z"/>
							<path fill="#7DBEA4" d="M189.693,1527.146l-1.375,1.944l1.168-0.209C189.296,1528.28,189.296,1527.667,189.693,1527.146z"/>
							<path fill="#7DBEA4" d="M189.486,1528.881c0.127,0.4,0.326,0.788,0.552,1.135c0.024-0.425-0.024-0.835-0.254-1.182
								L189.486,1528.881z"/>
							<path fill="#7DBEA4" d="M209.753,1552.4c0.429,0.107,1.272,0.323,2.119,0.018
								C211.314,1552.096,210.186,1551.987,209.753,1552.4z"/>
							<polygon fill="#7DBEA4" points="212.022,1551.583 211.042,1551.16 210.9,1551.473 							"/>
							<path fill="#7DBEA4" d="M268.947,1549.228l3.13-1.648c0.545,0.835,4.081-0.173,2.936,1.265
								c1.862-1.958,5.91-0.052,4.407-2.881c-9.168,0.975-21.82-0.687-32.421,1.83l1.708-1.125
								c-5.517,2.239-7.562-2.469-11.994,1.982l0.592-2.29c-2.525-0.64-4.833,3.298-7.475,0.887l0.268,0.933
								c-0.701-0.003-0.978-0.42-1.687-0.428l0.281,0.42c-1.846,0.916-2.971,0.811-4.792,0.174
								c-0.129-0.729,0.853-0.313,1.415-0.506c-0.835-0.744-2.266,0.811-3.676,0.793c-1.115-0.634,0.015-1.039,0.165-1.352
								c-4.242,1.011-6.174-1.399-9.18,2.012c-0.294,0.625,1.103,1.162-0.445,1.455c2.797,1.076,5.071-0.271,7.623-1.188
								l-0.71-0.011c2.024-3.311,1.54,0.752,4.799-0.683c-0.86,1.345-2.273,1.335-2.845,2.057c3.766,2.53,5.38-1.931,7.866,1.324
								l-0.281,0.095c0.558,0.313,1.552-0.305,2.399-0.605c-0.276-0.42-1.111-0.637-1.673-0.955c0.852-0.304,1.29-1.762,1.583-2.38
								c0.963,1.462,1.275-0.72,2.815,0.017c0.545,1.354-1.284,1.24-1.855,1.971l1.845-0.931c1.687-0.087,1.663,1.482,2.5,2.215
								c1.422-1.037-0.838-0.732,0.316-2.186c1.809,1.681,9.555,1.212,13.24-0.102c-1.277,0.189-0.446,1.45-1.995,1.229
								c0.562,0.308,2.535-0.397,2.552-1.438c2.55-0.918,5.781-0.271,8.161,0.686l-0.686-1.047c1.998-1.748,5.051,1.3,8.583,0.271
								l-0.076-0.018c1.136-0.227,2.112-2.763,4.197-2.238C269.954,1548.084,268.829,1547.978,268.947,1549.228z"/>
							<path fill="#7DBEA4" d="M281.378,1546.814l-1.146,1.453c1.264,0.324,2.837-1.54,2.569-2.48
								c-0.843,0.31-1.967-0.332-2.123,0.505C280.825,1546.499,280.813,1547.018,281.378,1546.814z"/>
							<path fill="#7DBEA4" d="M305.038,1546.583c0.462-0.332,0.345-0.879,0.54-1.282c-5.012,0.179-11.191,0.755-13.188-0.378
								c-1.691-0.423-1.994,1.755-4.117,2.261l-0.959-1.463c-1.146,0.928-4.645-0.669-3.412,1.736
								c0.138,0.21,1.002-1.134,1.987-0.708l-0.158,0.83l2.258-0.288l-0.718,1.04c3.078,1.481,2.159-3.12,5.944-2.153l-0.03,2.09
								c2.539,0.12,3.814-0.601,6.044,0.664c0,0,0.019-1.04-0.406-0.62c-0.428-0.112-0.977-0.948-0.682-1.573
								c3.827-1.635-0.584,1.248,2.08,2.1c3.26-1.431,9.469-2.631,11.276-0.949c-1.53-1.262,0.749-2.601,2.572-2.48
								c0.832,0.735-0.583,1.24-0.872,1.863c0.846,0.225,1.535,0.75,2.391,0.439c-1.107-1.149-0.385-2.715,1.599-3.423
								C312.838,1542.999,309.399,1546.827,305.038,1546.583z"/>
							<path fill="#7DBEA4" d="M306.334,1544.822c-0.45,0.069-0.648,0.251-0.756,0.479c0.592-0.024,1.185-0.044,1.738-0.049
								L306.334,1544.822z"/>
						</g>
					</g>
				</g>
			</g>
		</g>
		<g>
			<rect x="140.085" y="2086.368" fill="#D3E8DD" width="125.689" height="273.632"/>
			<g>
				<g>
					<g>
						<g>
							<polygon fill="#7DBEA4" points="265.194,2360 265.643,2357.792 264.362,2357.094 							"/>
							<path fill="#7DBEA4" d="M269.794,2349.533l-0.536-3.798c-3.704,2.177-2.628-0.75-5.273,5.169
								c0.574,2.076,1.858,6.65,3.309,6.045c-0.157-1.491-1.567-3.679-1.114-5.896c1.064,0.951,0.941,3.331,2.325,4.44
								c1.145-3.576-0.898-2.244-0.387-6.179L269.794,2349.533z"/>
							<path fill="#7DBEA4" d="M266.11,2345.048c0.635,0.346,1.271,0.71,1.791,0.644
								C267.266,2345.336,266.479,2343.497,266.11,2345.048z"/>
							<path fill="#7DBEA4" d="M265.727,2342.738c0.138-2.393,1.364,0.041,1.567-0.205l-2.384-2.715L265.727,2342.738z"/>
							<path fill="#7DBEA4" d="M265.887,2332.799c-0.063-0.389-0.137-0.756-0.227-1.112
								C265.28,2332.072,265.604,2332.385,265.887,2332.799z"/>
							<path fill="#7DBEA4" d="M265.604,2327.915c-0.826,0.976-0.338,2.209,0.055,3.771c0.05-0.05,0.081-0.093,0.155-0.153
								c0.692-1.369,2.395-0.078,1.95,2.131c0.378,2.313-1.3,2.102-0.195,4.104l1.373-2.747
								C268.734,2331.389,266.278,2329.327,265.604,2327.915z"/>
							<path fill="#7DBEA4" d="M265.887,2332.799c0.063,0.41,0.107,0.845,0.107,1.299
								C266.278,2333.523,266.11,2333.137,265.887,2332.799z"/>
							<polygon fill="#7DBEA4" points="265.688,2337.795 266.038,2339.034 266.758,2338.732 							"/>
							<path fill="#7DBEA4" d="M265.467,2319.758c2.313,0.573-0.247,5.832,1.554,6.464c-0.098-3.21,1.594-5.786,2.87-5.08
								l-0.718-3.561C268.299,2316.389,266.561,2317.898,265.467,2319.758z"/>
							<path fill="#7DBEA4" d="M271.326,2312.784c-0.195-0.231-0.326-0.501-0.396-0.811
								C271.024,2312.361,271.141,2312.691,271.326,2312.784z"/>
							<path fill="#7DBEA4" d="M267.347,2294.785l2.332,8.316c-0.744-0.771-1.474-0.465-1.736-2.359
								c-0.313,3.683,1.168,4.159,0.933,7.19c-2.158,0.917-0.156-5.352-2.085-3.604c0.064,2.135,0.161,5.351,1.988,7.064l-1.476,3.4
								l2.375-1.152c0.68-1.382-1.858-2.781-0.211-3.632c1.016-0.429,1.208,0.949,1.448,1.925c-0.476-2.194,1.85-6.004,1.538-10.465
								C272.21,2296.768,268.484,2297.882,267.347,2294.785z"/>
							<polygon fill="#7DBEA4" points="269.953,2294.469 270.878,2293.914 269.628,2294.296 							"/>
							<path fill="#7DBEA4" d="M266.862,2285.392l1.487,4.331c-0.206,0.467-0.698,0.722-1.134,1.035
								c0.549-0.164,1.476,0.996,1.924,0.811c2.14-1.997-0.684-5.3-1.06-7.621c0.965-6.14,1.147,0.278,3.169-2.107
								c-0.054,1.72-0.565,1.786-0.713,4.168c2.41-3.76,0.199-8.484-0.4-10.896c-0.215,0.704-0.876,0.883-0.684,2.214l-0.703-2.502
								C267.049,2277.411,266.59,2279.625,266.862,2285.392z"/>
							<path fill="#7DBEA4" d="M266.883,2293.13c-0.159-1.613,0-2.207,0.304-2.352C266.61,2291.198,266.19,2291.746,266.883,2293.13
								z"/>
							<path fill="#7DBEA4" d="M270.075,2273.813c-0.134,0.27-0.086,0.712,0.06,1.3
								C270.223,2274.82,270.247,2274.433,270.075,2273.813z"/>
							<path fill="#7DBEA4" d="M267.538,2276.271l0.226-3.031l-1.015,1.193C266.862,2274.854,267.021,2276.343,267.538,2276.271z"/>
							<path fill="#7DBEA4" d="M270.809,2160.241c-0.868,0.271-1.299,1.384-1.13,3.728c-1.16-0.28-0.935-3.319-1.599-4.741
								c-0.747,3.102-1.362-0.046-2.484,0.738c-0.112,3.453,1.396,4.988,1.088,8.685c-0.326-0.177-0.84-0.11-1.244,0.37
								c0.731,4.443,1.816,11.976,0.82,16.318c-0.436,4.186,0.111,7.291,0.634,11.891c-0.607,15.115,0.587,30.884-0.498,47.144
								l2.259,2.299c-1.128,0.791,0.006,3.874-1.461,3.415c0.282-0.891,0.045-1.733,0.017-2.802
								c-1.987,3.479,0.165,9.227-0.547,13.399c0.405-0.475,2.367-1.154,2.716,0.099c-2.517-0.336,0.044,4.93-2.843,6.148
								c-0.718,4.18,2.198,0.165,1.798,4.508c1.481,0.461,0.717-4.17,1.836-4.956c1.2,1.366-0.509,3.937,1.049,3.745
								c0.736-6.974-2.349-19.924-3.188-30.574l1.393,1.118c-0.995-5.463-1.045-14.28,1.22-18.645
								c-1.318,1.029,0.714-8.044-2.294-7.237c0.688-1.375,0.576-1.792,0.832-3.755l-0.954-0.526
								c0.023-2.805,1.488-2.348,1.396-5.558c-1.288,2.096-1.677-0.224-2.748-1.159c1.444-3.678,2.71-7.956,3.896-11.219
								c-0.42,0.258-0.896,0.547-1.453,1.668c0.457-2.215-0.781-1.839-1.223-2.433c-0.064-2.142,1.61-1.916,2.451-1.812
								c0.513-3.929-2.676-5.68-1.606-8.615l-1.333,1.022c-0.323-4.039,1.142-7.454,0.692-11.909
								c1.827-2.162,1.576,3.671,2.361,5.517c0.384-0.909,0.487-2.827,1.085-3.447c-0.93-1.898-2.196-5.112-3.075-7.486
								C270.79,2167.452,270.674,2161.764,270.809,2160.241z"/>
							<path fill="#7DBEA4" d="M271.745,2172.665c0.287,0.562,0.53,1.022,0.73,1.292c-0.115-0.429-0.237-0.837-0.15-1.489
								C272.09,2172.408,271.902,2172.5,271.745,2172.665z"/>
							<path fill="#7DBEA4" d="M270.809,2160.241c0.078-0.021,0.138-0.078,0.216-0.093
								C270.9,2159.702,270.849,2159.833,270.809,2160.241z"/>
							<path fill="#7DBEA4" d="M266.141,2185.916c0.054-0.175,0.074-0.387,0.118-0.577l0.048-0.738L266.141,2185.916z"/>
							<path fill="#7DBEA4" d="M272.194,2189.255c-0.467,0.868-0.946,2.069-1.423,3.419
								C271.37,2192.292,271.839,2191.982,272.194,2189.255z"/>
							<path fill="#7DBEA4" d="M270.695,2216.532c0.236,0.839,0.635,0.356,1.072,0.938
								C271.818,2215.748,271.385,2215.156,270.695,2216.532z"/>
							<polygon fill="#7DBEA4" points="272.09,2167.768 271.68,2164.373 271.32,2163.13 							"/>
							<path fill="#7DBEA4" d="M265.164,2098.948c-1.586,2.999-0.615,7.396-0.938,11.087c0.83,6.779,3.477,0.856,3.668,7.288
								l-3.272-1.107c0.193,6.432-0.483,15.541,2.388,20.998c-0.399,0.475-0.89,1.615-1.357-0.053
								c0.125,4.284,4.658,2.221,3.574,7.94c-2.033-5.338-1.933,1.748-3.96,0.284l-0.229-0.833
								c0.209,3.631,1.288,8.434,1.152,10.831c0.844,0.099,2.128-1.997,2.229,1.219c0.168-1.303,1.12-0.776,1.96-0.672
								c-0.929-3.32-0.354-5.12-1.466-7.138c1.104-1.851,0.36,1.253,1.444-0.609l-1.012-2.661c0.252-1.969,1.099,2.02,1.328-1.032
								c-0.636-0.35-1.339-2.834-1.19-5.221l0.376,0.686c-0.437-1.824,0.1-4.417-1.717-3.527l1.812-2.167l-1.239,0.383
								c0.485-5.015,3.45-6.892,1.903-13.359c-0.371,1.542-1.04,0.124-1.272-0.706c-0.862,2.693,0.929,3.328,1.099,5.879
								c-1.238,0.382-2.722-3.954-3.461-0.849c1.471-3.415-0.189-6.429,2.904-7.891c0.191-4.111-1.316-5.647-0.602-9.819
								l0.464,0.115c-2.047-0.774,0.924-3.392-1.172-6.475l-0.46,2.2c-0.835-0.104-0.863-1.179-1.016-2.663
								c0.327,0.173,0.327,0.173,0.728-0.31c-1.479-0.461-1.72-5.159-2.156-5.746c-0.255,1.965,0.964,4.393,1.346,6.707
								C266.153,2100.558,264.91,2100.913,265.164,2098.948z"/>
							<path fill="#7DBEA4" d="M270.574,2141.28l-0.714-1.325C269.979,2140.496,270.194,2140.991,270.574,2141.28z"/>
							<path fill="#7DBEA4" d="M260.164,2084.387c-1.621-0.17-1.421-0.486-1.111-0.843c0.15-0.179,0.321-0.368,0.235-0.554
								c-0.043-0.093-0.152-0.185-0.366-0.274c-0.107-0.044-0.24-0.089-0.404-0.132c-0.171-0.044-0.375-0.086-0.501-0.128
								c-1.332,0.514-0.579,1.042,0.205,1.634c0.504,0.295,0.952,0.607,1.061,0.941c0.115,0.334-0.113,0.689-0.802,1.074
								c-1.634-0.896-4.231,0.649-5.31,0.68c1.187-0.877,0.509-2.837,0.026-3.245c-1.008,0.554-3.274-0.422-5.002-0.477
								c4.238,1.229-3.564,0.73,0.257,2.07c-0.284,1.167-4.264,2.021-5.885,1.123c0.119-0.84,1.428-0.664,2.498-0.7
								c0.877-1.597-2.683-0.854-3.294-2.308c-4.037,2.212-16.952,2.059-13.281,5.616c1.378,0.68,2.554-0.177,4.047-0.332
								c-4.186-0.714-0.026-1.876,0.33-2.515c1.792,0.57,4.868-0.558,4.171,0.717l-2.846,1.333c4.491,0.33,9.792,0.436,15.267,0.396
								c2.737-0.021,5.519-0.077,8.265-0.16l3.228-0.143l3.206-0.176l0.022,0.336l0.007-0.365l-3.198-0.063
								c0.816-0.917,2.7-1.018,4.685-1.425l0.066,0.182l0.262-0.509c0.015-0.692-0.151-1.385-0.497-2.077
								c0.917,0.1,1.948,0.022,2.464,0.109c-0.062,0.493-0.206,0.867-0.554,1.138c0.495,0.511,0.893,0.525,1.268,0.074
								c0.375-0.444,0.728-1.337,1.132-2.454c0.204,2.423,0.078,4.069,0.092,5.415c0.015,1.385,0.169,2.443,0.936,4.521
								c0.667-3.353,0.678-5.595,0.479-7.105c-0.198-1.552-0.607-2.501-0.782-4.16c-1.804,0.154-3.708,0.126-6.766-0.39
								C262.326,2082.271,261.122,2083.328,260.164,2084.387z"/>
							<path fill="#7DBEA4" d="M269.044,2092.114c-0.396-0.581-0.791-1.091-1.187-1.53c0.196,0.812,0.393,1.676,0.588,2.595
								C268.646,2092.843,268.845,2092.488,269.044,2092.114z"/>
							<path fill="#7DBEA4" d="M263.875,2091.371c0.518-0.3,0.747,0.299,1.26,0.07c0.174-1.277,0.082-1.793-0.166-1.673
								C264.722,2089.877,264.32,2090.565,263.875,2091.371z"/>
							<path fill="#7DBEA4" d="M238.312,2083.145l-3.383,0.41l2.203,0.456C237.07,2083.489,237.899,2083.269,238.312,2083.145z"/>
							<path fill="#7DBEA4" d="M214.564,2089.263c4.698-0.237,6.716-1.336,12.021-0.146c2.603-1.531-1.219-2.873-0.099-4.268
								c-2.631-0.34-2.307,2.256-5.03,2.761c-1.02-1.325-4,0.289-6.609-0.015C215.169,2088.14,215.169,2088.76,214.564,2089.263z"/>
							<path fill="#7DBEA4" d="M198.391,2084.198c-2.142-0.019-4.31,1.012-6.012,0.376c0.237-0.831,1.522-1.142,2.814-0.915
								c-0.817-1.887-2.372,0.291-4.699-0.967c0.205,0.206,1.054,0.525,0.402,0.936c-5.78-0.444-3.25,1.548-10.742,0.469
								c-1.088,0.521-2.156,0.508-1.978,1.761c-4.252-1.585-2.104-1.572-7.225-2.959c0.199,0.729,1.873,2.409,1.84,3.972
								c-7.235-2.202-7.39,0.313-12.003-1.338c0.515-0.078,1.141-0.488,2.379-0.271c-0.6-2.192-3.874,0.397-6.432-0.036l0.243-1.867
								c-2.388,0.292-6.42,1.52-9.497,0.155c0.325-0.313,0.478-0.625,0.726-0.938l-0.489,0.11c-0.191,0.035-0.471,0.068-0.701,0.102
								l-1.435,0.179c-0.949,0.109-1.884,0.199-2.813,0.272c-1.858,0.148-3.696,0.234-5.523,0.292l0.164,7.389l0.051,1.725
								l0.032,0.837l0.038,0.729c0.055,0.807,0.128,1.582,0.229,2.319l-1.16,2.768c1.422,7.112,0.656-7.071,3.45-1.858
								c-3.45,0.778,1.122,3.671-0.25,7.718c-1.371,1.908-0.715-4.089-2.28-1.978c1.764,0.897,0.509,2.156,1.017,4.316
								c-1.664-0.467-0.225,4.501-2.104,3.178l3.088,7.579c-0.945,1.219-0.784,3.415-0.544,5.028
								c0.021-4.085,2.48,1.126,3.252-3.466c-0.401-3.335-0.743-7.797-0.875-12.47c-0.066-2.336-0.079-4.726-0.021-7.053
								c0.029-1.163,0.076-2.312,0.143-3.43l0.116-1.653l0.07-0.807c0.025-0.274,0.051-0.536,0.078-0.718
								c-1.146-0.395-1.141-1.75-1.082-2.997c0.059-1.285,0.171-2.402-0.764-3.944c0.387,0.251,0.746,0.374,1.106,0.543
								c0.493,0.32,0.952,0.641,1.341,0.983c1.797-0.244,1.485-0.558,0.492-0.915c-0.949-0.357-2.652-0.758-2.402-1.175
								c1.088-0.149,2.435,0.119,3.349,0.528c0.936,0.41,1.475,0.961,1.55,1.376c1.5,0.06,1.563-0.097,1.418-0.422
								c-0.126-0.326-0.626-0.821,0.294-1.438l2.528,2.515c12.032-0.775,27.959-2.474,41.661-1.038l-1.028-1.572
								c6.195,0.864,10.38-3.494,15.877-0.125l1.885-1.348c-1.036,0.764,1.068,2.358-0.562,3.428
								c1.694-0.539,3.488,0.062,5.234-0.427l-3.104-0.748c2.174-1.335,4.574-0.51,5.298,0.657c4.628-1.576-2.754-2.717-3.784-4.037
								c-6.517,2.905-6.563-2.85-12.824-1.632C194.35,2082.813,198.628,2083.361,198.391,2084.198z"/>
							<path fill="#7DBEA4" d="M206.456,2088.503c0.41-0.122,0.72-0.272,0.949-0.42
								C207.08,2088.179,206.774,2088.313,206.456,2088.503z"/>
							<path fill="#7DBEA4" d="M138.978,2123.279c0,0.482,0.021,1.062,0.093,1.826
								C139.466,2125.725,139.188,2124.735,138.978,2123.279z"/>
							<path fill="#7DBEA4" d="M214.847,2087.595c0-0.01,0-0.01-0.014-0.029c-0.012,0.02-0.032,0.02-0.046,0.029H214.847z"/>
							<polygon fill="#7DBEA4" points="217.957,2083.738 216.231,2083.688 216.531,2084.403 							"/>
							<path fill="#7DBEA4" d="M137.004,2141.588l0.826,0.021C137.57,2141.443,137.308,2141.377,137.004,2141.588z"/>
							<path fill="#7DBEA4" d="M136.5,2191.163l0.043-1.065C136.418,2190.425,136.438,2190.807,136.5,2191.163z"/>
							<path fill="#7DBEA4" d="M138.216,2310.123c0.508,3.232,1.006,7.538,2.344,9.922l-0.83-0.231
								c0.404,1.733,1.729,7.337,3.208,3.725l-0.724-0.876c-1.223-4.105,1.372-2.979,1.905-6.189
								c-0.387-3.867-3.506-6.082-2.769-9.497c-0.089-1.507,0.747-1.271,1.367-0.831c0.229-3.432-2.166-4.771-2.476-7.136
								c6.264-0.938-1.704-10.554,2.279-15.628c-0.509-3.221,0.04-7.505-1.195-11.611c1.567,2.18,0.132-3.864,1.899-2.967
								c-3.644-1.153,1.62-11.771-2.96-12.509c1.284-5.554-0.305-0.231,0.77-6.644c0.514,0.006,0.514,1.09,0.608,1.515
								c0.946-2.551-1.953-3.908,0.142-6.01c0.337-5.135-1.245-0.877-2.476-3.908c0.536-5.358,1.162-3.85,3.051-6.802
								c-2.188-0.475-1.128-3.677-2.26-6.282c-0.105,0.646-0.537,4.284-1.368,1.905c0.352-6.221-1.438-4.977-2.026-10.783
								c2.413-2.944,0.074,5.801,1.976,0.694c1.125,3.677,1.013,6.466,2.773,8.436c0.128-4.944-0.256-10.96-1.27-16.353
								c0.324-2.992,1.14,1.537,1.356-0.824c1.068-5.338-2.458-8.21-1.392-12.482l1.243,0.891
								c-1.653-2.616,0.366-9.444-0.552-14.393c-0.624,0.623-1.047,1.046-1.46,0.387c3.13,0.08-1.626-6.899,0.579-11.785
								c-1.98,0.385-3.098-4.362-3.3-7.373c0.54-1.059,1.37-0.831,1.897-0.818c-1.182,4.917,2.152,4.772,3.076,8.66
								c-1.03-3.248,0.038-8.594-1.406-11.414l1.558,1.106c0.227-4.5-3.523-3.935-2.035-8.633l1.141,0.461
								c-0.157-9.452,1.88-20.564-0.684-28.137c-0.938-0.666-3.145,3.151-3.882,3.354c0.815,4.521,2.476,7.133,3.291,10.578
								l-1.787-0.032c1.226,0.784,1.952,4.934,2.915,2.637c0.916,2.808-1.573,2.116-0.553,5.353
								c-1.87-0.252-2.072-2.188-3.627-2.223l0.917,2.808c-0.723-0.877-0.629,1.701-1.36,0.841c2.263,5.197-0.88,7.272,0.139,12.663
								l0.332-3.005c1.04,0.026,0.933,1.748,1.236,3.037c-1.465,1.471-1.265,2.335-1.904,5.108c0.82,2.38,2.69,3.707,2.676,6.927
								c-1.978-0.691-1.075,5.347-2.739,5.952c1.972,0.686,0.703,6.241,1.838,6.689c0.403,1.728,0.193,4.093-0.863,4.067
								c-0.053-0.256-0.251-0.759-0.338-1.3l-0.066,1.722c-0.228-0.165-0.398-0.106-0.433-0.304c-0.05,1.535,1.385,1.549,0.409,3.52
								c-0.518-0.02-0.509-1.082-0.719-1.95c-0.337,4.078,2.983,7.16,1.197,10.545c0.927,0.666,1.01,5.391,3.108,4.362
								c-0.746,1.271-2.406,0.805-2.112,4.248c1.762,1.97-0.648,3.846,0.488,6.448c-1.858-3.479-0.519-0.012-2.286-3.057
								c-0.732,2.345,1.642,5.832,1.319,9.913c-0.42,0.407-0.947,0.4-1.367,0.823c0.62,1.522,2.065,3.262,0.598,4.73l1.257-0.184
								c-0.643,2.786-0.243,6.65-1.617,9.629l2.379,3.479c-2.52,4.672-0.255,10.941,1.904,14.641
								c-0.107,1.712-0.542,4.284-1.069,4.268c-0.181-0.396-0.542-1.067-0.864-1.862c-0.088,2.522-1.445,5.6,0.535,7.01
								c0.605,2.59-1.368,1.898-1.687,3.823c2.782,5.224-2.058,15.415,2.196,17.01c0.021-2.148,0.87-6.207,0.691-10.288
								c0.511,1.082,1.345,0.246,1.439,1.748c0.19,4.093-1.382,6.195-0.674,10.288l-2.706-0.493
								C135.666,2298.26,142.098,2304.63,138.216,2310.123z"/>
							<path fill="#7DBEA4" d="M138.281,2257.76l-1.375,2.963l1.168-0.317C137.884,2259.49,137.884,2258.555,138.281,2257.76z"/>
							<path fill="#7DBEA4" d="M138.074,2260.405c0.127,0.609,0.326,1.2,0.552,1.729c0.024-0.647-0.024-1.273-0.254-1.802
								L138.074,2260.405z"/>
							<path fill="#7DBEA4" d="M138.674,2321.93c-0.107,0.653-0.324,1.938-0.019,3.23
								C138.978,2324.309,139.086,2322.589,138.674,2321.93z"/>
							<polygon fill="#7DBEA4" points="139.49,2325.389 139.914,2323.895 139.602,2323.678 							"/>
							<path fill="#7DBEA4" d="M192.243,2358.239l4.771-1.648c0.831,0.835,6.221-0.173,4.475,1.265
								c2.838-1.958,9.009-0.052,6.718-2.881c-13.975,0.975-33.26-0.687-49.418,1.83l2.603-1.125
								c-4.205,1.119-7.086,0.503-9.761,0.162c-1.33-0.171-2.642-0.271-3.979-0.053c-0.63,0.22-1.32,0.76-3.136,1.873
								c0.667-0.764,1.243-1.527,1.728-2.29c-0.396-0.223-1.025,0.107-2.061,0.532c-0.399-0.146-0.881-0.472-1.067-1.13
								c-0.186-0.63-0.075-1.604,0.711-2.298c-0.311,0.074-0.622,0.164-0.933,0.271c0.002-0.271,0.107-0.728,0.212-1.089
								c0.106-0.374,0.212-0.75,0.216-1.29l-0.42,0.429c-0.917-2.813-0.811-4.527-0.175-7.303c0.73-0.197,0.313,1.299,0.507,2.156
								c0.743-1.273-0.811-3.454-0.793-5.604c0.633-1.7,1.039,0.021,1.351,0.251c-1.011-6.467,1.4-9.411-2.012-13.993
								c-0.625-0.448-1.162,1.682-1.455-0.678c-1.075,4.265,0.271,7.729,1.189,11.62l0.011-1.082
								c3.311,3.085-0.752,2.347,0.682,7.314c-1.345-1.311-1.335-3.465-2.057-4.336c-2.531,5.74,1.931,8.2-1.325,11.989
								l-0.094-0.429c-0.156,0.426-0.081,1.018,0.072,1.663c0.153,0.743,0.382,1.522,0.533,2.186
								c0.42-0.584,0.636-1.904,0.955-2.742c0.304,1.376,1.761,1.675,2.38,1.798c-0.731,0.679-0.552,1.061-0.281,1.33
								c0.271,0.308,0.632,0.469,0.264,1.509c-1.354,1.752-1.24-0.509-1.97-1.02c0.31,0.729,0.62,1.344,0.93,1.844
								c0.021,0.494-0.06,0.944-0.207,1.404c0.502,0.438-0.141,1.458,0.512,2.008c1.513-0.519,1.222-0.702,1.032-0.937
								c-0.23-0.235-0.328-0.522,0.874-1.249c0.281,0.421,1.253,0.706,2.683,0.878c0.356,0.043,0.739,0.079,1.142,0.108l1.344,0.066
								c0.925,0.032,1.902,0.037,2.902,0.02c3.998-0.071,8.354-0.517,11.163-1.174c-1.947,0.189-0.68,1.45-3.041,1.229
								c0.857,0.308,3.864-0.397,3.89-1.438c3.888-0.918,8.812-0.271,12.44,0.686l-1.046-1.047c3.045-1.748,7.699,1.3,13.083,0.271
								l-0.117-0.018c1.732-0.227,3.22-2.763,6.398-2.238C193.777,2357.096,192.064,2356.989,192.243,2358.239z"/>
							<path fill="#7DBEA4" d="M211.191,2355.826l-1.748,1.453c1.927,0.324,4.324-1.54,3.916-2.48
								c-1.285,0.31-2.999-0.332-3.236,0.505C210.349,2355.511,210.331,2356.029,211.191,2355.826z"/>
							<path fill="#7DBEA4" d="M247.257,2355.595c0.704-0.332,0.525-0.879,0.822-1.282c-7.639,0.179-17.058,0.755-20.101-0.378
								c-2.579-0.423-3.039,1.755-6.275,2.261l-1.462-1.463c-1.748,0.928-7.08-0.669-5.202,1.736
								c0.211,0.21,1.529-1.134,3.029-0.708l-0.241,0.83l3.441-0.288l-1.094,1.04c4.692,1.481,3.291-3.12,9.061-2.153l-0.046,2.09
								c3.87,0.12,5.815-0.601,9.214,0.664c0,0,0.028-1.04-0.62-0.62c-0.651-0.112-1.488-0.948-1.04-1.573
								c5.833-1.635-0.891,1.248,3.169,2.1c4.97-1.431,14.434-2.631,17.189-0.949c-2.333-1.262,1.141-2.601,3.92-2.48
								c1.267,0.735-0.889,1.24-1.329,1.863c1.289,0.225,2.339,0.75,3.645,0.439c-1.688-1.149-0.587-2.715,2.438-3.423
								C259.146,2352.011,253.904,2355.839,247.257,2355.595z"/>
							<path fill="#7DBEA4" d="M249.232,2353.834c-0.686,0.069-0.988,0.251-1.153,0.479l2.649-0.049L249.232,2353.834z"/>
						</g>
					</g>
				</g>
			</g>
		</g>
	</g>
	<g>
		<g>
			<rect x="333.792" y="1556.947" fill="#009E78" width="887.949" height="803.053"/>
			<pattern  id="SVGID_1_" xlink:href="#sdcjnsdj" patternTransform="matrix(1 0 0 0.9698 90 349.5996)">
			</pattern>
			<rect x="333.792" y="1556.947" fill="url(#SVGID_1_)" width="887.949" height="803.053"/>
		</g>
		<rect x="579.747" y="1787.996" fill="#6DB698" width="405.839" height="263.257"/>
		<rect x="611.092" y="1826.843" fill="#D3E8DD" width="345.466" height="198.371"/>
	</g>
	<rect x="1216.305" y="1539.947" fill="#009E78" width="34.684" height="820.053"/>
	<rect x="293.898" y="1539.947" fill="#009E78" width="44.812" height="820.053"/>
	<rect x="1208.388" y="1539.943" fill="#33365B" width="7.917" height="820.057"/>
	<rect x="342.666" y="1551.442" fill="#33365B" width="868.428" height="7.917"/>
	<rect x="342.663" y="1539.952" fill="#009E78" width="866.226" height="11.491"/>
	<rect x="334.751" y="1539.947" fill="#33365B" width="7.917" height="820.053"/>
	<g>
		<g>
			<polygon fill="#33365B" points="296.483,1539.952 1250.988,1539.947 1122.432,1084.648 0.275,1084.648 0,1378.014 
				419.14,1378.014 			"/>
		</g>
	</g>
	<polygon fill="#141328" points="353.555,1515.926 315.421,1515.926 296.481,1539.954 335.697,1539.954 	"/>
	<polygon fill="#141328" points="1208.388,1512.027 1242.363,1512.027 1250.988,1539.945 1215.887,1539.945 	"/>
	<polygon fill="#141328" points="455.934,1371.437 424.314,1371.437 411.354,1387.878 443.715,1387.878 	"/>
	<polygon fill="#141328" points="1174.287,1368.754 1202.481,1368.754 1208.388,1387.872 1179.422,1387.872 	"/>
	<polygon fill="#141328" points="544.567,1246.822 518.565,1246.822 509.665,1257.895 536.167,1257.895 	"/>
	<polygon fill="#141328" points="1144.61,1245.007 1167.812,1245.007 1171.591,1257.891 1147.87,1257.891 	"/>
	<polygon fill="#141328" points="529.015,1232.672 551.719,1232.672 541.914,1245.003 518.713,1245.003 	"/>
	<polygon fill="#141328" points="92.833,1151.283 71.137,1151.283 56.591,1158.967 78.634,1158.967 	"/>
	<polygon fill="#141328" points="594.942,1150.019 614.311,1150.019 607.14,1158.964 587.41,1158.964 	"/>
	<polygon fill="#141328" points="219.247,1082.894 200.635,1082.894 189.953,1088.536 208.821,1088.536 	"/>
	<polygon fill="#141328" points="649.887,1081.963 666.51,1081.963 661.204,1088.534 644.316,1088.534 	"/>
	<polygon fill="#141328" points="635.685,1151.282 613.989,1151.282 608.11,1158.967 630.152,1158.967 	"/>
	<polygon fill="#141328" points="1122.272,1150.018 1141.641,1150.018 1144.61,1158.964 1124.882,1158.964 	"/>
	<polygon fill="#141328" points="684.925,1085.716 666.313,1085.716 661.995,1091.358 680.863,1091.358 	"/>
	<polygon fill="#141328" points="1106.802,1085.251 1123.424,1085.251 1125.605,1091.823 1108.719,1091.823 	"/>
	<g id="Mensch_1_">
		<path fill="#6DB698" stroke="#6DB698" stroke-miterlimit="10" d="M791.708,1903.417c-0.709,1.657-1.065,3.368-0.709,3.992
			c0.354,0.625,0.93,1.34,0.93,1.34l3.331,7.803l-3.433,12.786l-17.28,4.175l-14.794-14.945l8.798-10.297
			c1.262-2.841,1.854-2.25,1.262-4.262"/>
		<path fill="#6DB698" d="M769.812,1904.009c-0.591-2.012-2.367-8.877-2.367-9.231c0-0.229,0.684-2.122,0.733-3.554
			c0.028-0.797-0.141-1.452-0.733-1.599c-1.657-0.41-1.448,1.476-2.618,0c-1.169-1.476-1.643-0.899-2.353-3.495
			c-0.71-2.596-0.71-3.07,0.71-4.135c1.42-1.065,2.841-0.711,2.841-0.711s0.709-7.22,1.656-10.179
			c0.947-2.958,4.091-6.983,7.786-7.93c3.695-0.947,6.299-0.71,8.548,0c2.249,0.71,7.102,0.946,8.167,4.379
			c1.065,3.433,1.94,7.035,1.976,8.607c0.036,1.571,0,5.597,0,5.597s1.79-1.226,2.798,0c1.008,1.225,1.617,3.652,1.617,3.652
			s-0.394,2.028-1.617,3.567c-1.224,1.537-2.17,0.828-2.289,2.248c-0.119,1.421-1.065,5.97-1.065,5.97s-1.184,4.564-1.894,6.221"/>
		<path fill="#6DB698" stroke="#6DB698" d="M768.55,1908.271c-4.893,3.156-5.208,1.937-11.521,5.681
			c-6.313,3.743-6.47,4.734-8.049,5.681c-1.578,0.947-3.472,1.062-1.735,6.291c1.735,5.229,2.435,5.391,5.426,12.561
			c2.991,7.168,3.699,3.559,2.293,11.449c-1.407,7.891-2.199,8.464-0.62,10.702c1.579,2.237-4.891,2.167,4.42,6.384
			c9.312,4.218,9.575,3.744,16.702,3.271c7.127-0.474,4.445-0.946,5.076-4.733c0.631-3.787,0.473-12.934,1.262-19.644
			c0.789-6.712-0.631-17.673-0.631-17.673l-4.577-1.158c0,0-1.662-1.021-5.565-5.654
			C767.129,1916.792,768.55,1908.271,768.55,1908.271z"/>
		<path fill="#6DB698" stroke="#6DB698" d="M782.044,1922.789l-2.29,20.394v21.584l34.402,3.155l-4.577-14.519l-0.157-17.088
			c0,0,2.051-14.315,2.525-15.965c0.473-1.649-2.683-3.875-8.049-6.399c-5.365-2.524-11.993-5.681-11.993-5.681
			s0.315,5.713-0.316,7.196c-0.631,1.482-3.472,7.322-4.892,7.322C785.278,1922.789,782.044,1922.789,782.044,1922.789z"/>
		<path fill="#6DB698" stroke="#6DB698" d="M811.948,1920.351c0.473,1.649-0.316,8.579,2.209,13.162
			c2.525,4.584,3.63,4.135,4.734,8.619c1.104,4.486,3.472,9.24,3.472,15.779s4.418,8.205-1.894,9.107
			c-6.313,0.903-8.521-1.148-8.521-1.148s-3.173-15.781-3.56-15.938C808.002,1949.774,811.948,1920.351,811.948,1920.351z"/>
		<path fill="#009E78" d="M773.245,1893.594c2.012-0.355,2.223-1.598,2.223-1.598s3.103-4.38,4.287-2.841
			c1.184,1.539,1.029,1.65,2.29,0.766c1.261-0.884,0.432-1.957,2.444,0c2.012,1.957,1.42,4.087,3.906,3.496
			c2.485-0.593,2.189-0.41,4.32-1.539c2.13-1.13,1.219-1.146,1.443,0.059c0.746,4.004,0.319,5.858,0,7.634
			c-0.319,1.775,1.575,1.657-1.621,4.735c-3.195,3.077-0.947,1.946-4.498,3.399s-3.255-0.489-5.995,0.86
			c-6.568,3.237-0.846-1.529-2.764-1.301c-1.225,0.145-2.13,2.722-4.853,1.301c-2.723-1.42-6.588,0.06-6.392-3.728
			c0.155-2.99-0.829-5.622-1.065-6.806c-0.237-1.184,0.986-5.271,0.986-5.271C771.369,1893.176,773.245,1893.594,773.245,1893.594z"
			/>
		<path fill="#6DB698" d="M785.12,1895.646c-3.59,0.079-5.958-0.514-5.958-0.514s-1.775,0.343-0.829,2.065s0.336,1.449,2.239,1.586
			c1.903,0.137,2.85,1.32,3.442,0.492C784.607,1898.446,785.12,1895.646,785.12,1895.646z"/>
		<ellipse fill="#009E78" cx="776.495" cy="1880.485" rx="1.028" ry="1.51"/>
		<ellipse fill="#009E78" cx="784.644" cy="1880.485" rx="0.969" ry="1.51"/>
		<path fill="#6DB698" stroke="#6DB698" stroke-miterlimit="10" d="M829.464,1932.559c-0.315-2.353-0.789-1.88-0.789-3.932
			c0-2.051,1.42-1.877,1.42-4.962c0-3.086,0-4.348,0-4.348s0.789,0.615-2.052,0c-2.84-0.616-2.052,0.615-5.681,0
			c-3.629-0.616-2.683-2.848-3.945-2.766s-1.263-0.076-1.263,3.238s0.474,5.746,1.579,7.291c1.104,1.546,2.682,2.78,2.682,4.15
			s-0.158,2.288,0,4.023c0.158,1.737,4.419,8.823,6.155,4.176C829.307,1934.782,829.464,1932.559,829.464,1932.559z"/>
		<path fill="#6DB698" stroke="#6DB698" d="M817.155,1967.249l0.373-18.974c0,0,3.637-15.171,3.888-15.674
			c0.251-0.502,0,3.557,3.788,1.37c3.787-2.188,5.997-0.459,5.997-0.459v17.642v16.768l-9.785,4.443L817.155,1967.249z"/>
		<path fill="#6DB698" stroke="#D3E8DD" d="M819.651,1908.609c-1.549,3.606-3.917,1.554-2.496,5.342
			c1.42,3.787-0.531,5.697,2.496,6.399s7.604-0.418,8.393-1.033c0.789-0.616,2.254-0.247,2.153-1.623
			c-0.101-1.376,1.837-2.977,0-5.253c-1.837-2.277-2.152-2.581-4.835-2.745C822.679,1909.532,819.651,1908.609,819.651,1908.609z"/>
		<path fill="#6DB698" stroke="#6DB698" stroke-miterlimit="10" d="M842.738,1912.441c-1.438-1.095-1.083-1.804-2.266-0.502
			s1.065,2.011-2.485,2.012c-3.551,0-3.196,0.117-5.682,0c-2.485-0.118-13.571-0.771-18.148-1.51
			c-4.577-0.738-1.736-1.438-7.417-2.745s-6.154-2.361-8.876,0c-2.723,2.361-5.399,2.077-3.292,5.771
			c2.107,3.692-0.497,5.813,4.001,5.107c4.498-0.705,5.208,0.36,10.416-1.651c5.208-2.013,4.261-2.57,5.918-2.942
			c1.657-0.372,13.848,1.041,16.807,0.571c2.959-0.471,6.155-1.619,7.812-0.571c1.657,1.048,1.775,1.196,2.604,1.714
			s2.012,1.433,2.012,0.324s-1.348-0.601-1.325-2.038c0.023-1.438,0.497-3.068,0.497-3.068"/>
		<g>
			<path fill="#009E78" d="M813.762,1911.364c0.868,2.034,3.314,2.902,1.42,4.616c-1.894,1.714-2.367,1.995-4.655,2.862
				c-2.289,0.869-3.472,0.97-6.47,1.866c-2.999,0.896-3.472,2.237-6.392,1.054s-3.521-1.469-3.852-3.062
				c-0.33-1.594-1.476-3.148-0.567-4.75c0.909-1.603-0.072-1.499,0.911-3.234c0.983-1.736,0.905-3.063,2.798-3.308
				c1.893-0.243,7.18-2.689,8.6-1.032s-0.316,1.735,4.024,2.761C813.92,1910.164,813.762,1911.364,813.762,1911.364z"/>
		</g>
		<polygon fill-rule="evenodd" clip-rule="evenodd" fill="#D3E8DD" stroke="#6DB698" stroke-miterlimit="10" points="
			925.405,2010.693 660.402,2010.693 705.055,1962.583 877.258,1962.583 		"/>
		<path fill-rule="evenodd" clip-rule="evenodd" fill="#6DB698" stroke="#6DB698" stroke-miterlimit="10" d="M754.345,1980.365
			c0.791,3.496-1.103,3.181,1.422,6.652c5.07,6.972,11.362,9.095,13.887,4.231c2.525-4.862,6.545-4.734,1.379-7.323
			s-6.407-3.668-6.733-5.837c-0.326-2.169-7.488-7.749-7.27-4.959C757.248,1975.92,754.345,1980.365,754.345,1980.365z"/>
		<path fill="#6DB698" stroke="#6DB698" d="M745.826,1921.427c0,0-3.314-0.059-3.788,1.362c-0.473,1.42,0,2.046,0,2.046
			s-1.894-0.279-2.051,2.389c-0.158,2.667-2.525,12.57-2.999,17.009c-0.474,4.437-0.631,11.552-0.789,14.701
			s1.736,2.202,1.894,3.938c0.158,1.736-2.367,5.365,1.579,9.469c3.944,4.104,2.998,4.893,8.521,8.207
			c5.523,3.313,2.489,4.733,4.479,1.735s4.576-6.363,4.576-6.363h8.303c0,0-5.839-7.28-8.521-8.901s2.015-3.207-4.358-5.729
			c-6.373-2.521-3.059-2.521-6.373-2.521s5.523,2.839,5.523,2.839s2.841-5.084,3.788-8.933c0.947-3.848-0.158-13.245-0.158-13.245
			l-8.897-19.08"/>
	</g>
	<rect x="660.402" y="2010.693" fill="#6DB698" width="8.653" height="14.521"/>
	<rect x="919.055" y="2010.693" fill="#6DB698" width="6.351" height="14.521"/>
	<rect x="872.172" y="2010.693" fill="#6DB698" width="5.086" height="14.521"/>
	<rect x="705.055" y="2010.693" fill="#6DB698" width="4" height="14.521"/>
	<rect x="660.402" y="2010.693" fill="#6DB698" width="261.828" height="7.26"/>
	<rect x="741.722" y="2014.323" fill="#6DB698" width="88.475" height="14.37"/>
</g>
</svg>
