<?xml version="1.0" encoding="utf-8"?>
<!-- Generator: Adobe Illustrator 15.1.0, SVG Export Plug-In . SVG Version: 6.00 Build 0)  -->
<!DOCTYPE svg PUBLIC "-//W3C//DTD SVG 1.1//EN" "http://www.w3.org/Graphics/SVG/1.1/DTD/svg11.dtd">
<svg version="1.1" id="Objekte_Hintergrund" xmlns="http://www.w3.org/2000/svg" xmlns:xlink="http://www.w3.org/1999/xlink"
	 x="0px" y="0px" width="2120px" height="2360px" viewBox="0 0 2120 2360" enable-background="new 0 0 2120 2360"
	 xml:space="preserve">
<g id="Himmel">
	<g>
		<g>
			<path fill-rule="evenodd" clip-rule="evenodd" fill="#D3E8DD" d="M1480.359,630.705c0,0,38.17-2.207,49.204,0
				c11.032,2.207,69.14,0,69.14,0s36.943,2.821,35.244-7.901c-1.699-10.722,131.676,5.482,140.884-1.973
				s-177.058-15.874-161.418-26.167c15.976-10.513,86.069-1.044,83.676-6.193c-2.395-5.149-49.841-9.988-58.667-9.988
				s-36.109-0.736-41.959,0c-5.851,0.735-35.271,1.471-40.421,1.471c-5.148,0-27.436,0.736-40.933,1.471
				c-13.496,0.736-39.24,1.471-39.24,1.471s-36.838-13.363,18.389-8.091c55.226,5.272,126.374-14.066,129.824-15.537
				c3.449-1.472-22.1-38.322-37.885-19.732c-15.785,18.591-28.276,2.368-33.149,2.368c-4.874,0-32.915,17.454-32.915,17.454
				s-22.934,1.472-28.082,0c-5.148-1.471-25.743,0-25.743,0s-20.596-0.572-22.802-0.654c-2.207-0.082-25.009-3.024-27.215-3.024
				c-2.207,0-30.893,1.472-41.926,0c-11.032-1.471-43.396-1.471-47.81,0c-4.413,1.472,164.842,17.602,0,18.582
				c-164.842,0.981-323.724,34.327-183.476,31.385C1284.434,602.682,1219.732,625.694,1480.359,630.705"/>
		</g>
		<g>
			<path fill-rule="evenodd" clip-rule="evenodd" fill="#D3E8DD" d="M839.148,623.19c0,0,38.17-2.207,49.204,0
				c11.032,2.207,69.14,0,69.14,0s36.943,2.821,35.244-7.901c-1.699-10.722,131.676,5.482,140.883-1.973
				c9.209-7.455-177.057-15.874-161.417-26.167c15.976-10.513,86.069-1.044,83.676-6.193c-2.395-5.149-49.841-9.988-58.667-9.988
				s-36.109-0.736-41.959,0c-5.851,0.735-35.271,1.471-40.421,1.471c-5.148,0-27.436,0.736-40.933,1.471
				c-13.496,0.736-39.24,1.471-39.24,1.471s-36.838-13.363,18.389-8.091c55.226,5.272,126.374-14.066,129.824-15.537
				c3.449-1.472-22.1-38.322-37.885-19.732c-15.785,18.591-28.276,2.368-33.149,2.368c-4.874,0-32.915,17.454-32.915,17.454
				s-22.934,1.472-28.082,0c-5.148-1.471-25.743,0-25.743,0s-20.596-0.572-22.802-0.654c-2.207-0.082-25.009-3.024-27.215-3.024
				c-2.207,0-30.893,1.472-41.926,0c-11.032-1.471-43.396-1.471-47.81,0c-4.413,1.472,164.842,17.602,0,18.582
				c-164.842,0.981-323.724,34.327-183.476,31.385C643.222,595.167,578.521,618.179,839.148,623.19"/>
		</g>
		<g display="none">
			<path display="inline" fill-rule="evenodd" clip-rule="evenodd" fill="#D3E8DD" d="M373.425,502.719c0,0-38.17-2.818-49.204,0
				c-11.032,2.819-69.14,0-69.14,0s-36.943,3.603-35.244-10.092c1.699-13.694-131.676,7.002-140.883-2.52
				c-9.209-9.522,177.057-20.275,161.417-33.421c-15.976-13.427-86.069-1.334-83.676-7.91c2.395-6.577,49.841-12.758,58.667-12.758
				s36.109-0.94,41.959,0c5.851,0.939,35.271,1.878,40.421,1.878c5.148,0,27.436,0.94,40.933,1.879
				c13.496,0.94,39.24,1.879,39.24,1.879s36.838-17.068-18.389-10.334c-55.226,6.734-126.374-17.966-129.824-19.844
				c-3.449-1.88,22.1-48.947,37.885-25.203c15.785,23.745,28.276,3.024,33.149,3.024c4.874,0,32.915,22.293,32.915,22.293
				s22.934,1.88,28.082,0c5.148-1.879,25.743,0,25.743,0s20.596-0.731,22.802-0.835c2.207-0.104,25.009-3.862,27.215-3.862
				c2.207,0,30.893,1.879,41.926,0c11.032-1.878,43.396-1.878,47.81,0c4.413,1.879-164.842,22.481,0,23.734
				c164.842,1.253,323.724,43.845,183.476,40.086C569.351,466.926,634.052,496.319,373.425,502.719"/>
		</g>
	</g>
</g>
</svg>
